EESchema Schematic File Version 4
LIBS:pcb-cache
EELAYER 26 0
EELAYER END
$Descr A4 11693 8268
encoding utf-8
Sheet 4 6
Title ""
Date ""
Rev ""
Comp ""
Comment1 ""
Comment2 ""
Comment3 ""
Comment4 ""
$EndDescr
Text Notes 1200 2350 0    50   ~ 0
ZIN[1:0]\n00 => 100Ω differential\n01 => 150Ω differential\n10 => 50Ω single-ended\n11 => 75Ω single-ended\n\n~ZIN_EN~ => High-Z
$Comp
L Capstone:74LVC1G99 U?
U 1 1 5C695DD3
P 4250 1650
AR Path="/5C5F098F/5C5F0B20/5C695DD3" Ref="U?"  Part="1" 
AR Path="/5C5F098F/5C5F0B20/5C6958AB/5C695DD3" Ref="U?"  Part="1" 
AR Path="/5C5F098F/5C5F0B20/5C76A273/5C695DD3" Ref="U?"  Part="1" 
F 0 "U?" H 4300 1950 50  0000 R BNN
F 1 "74LVC1G99" H 4300 1900 50  0000 R CNN
F 2 "Package_SO:TSSOP-8_3x3mm_P0.65mm" H 4250 1650 50  0001 C CNN
F 3 "http://www.ti.com/lit/sg/scyt129e/scyt129e.pdf" H 4250 1650 50  0001 C CNN
	1    4250 1650
	-1   0    0    -1  
$EndComp
Wire Wire Line
	4550 1600 4650 1600
Wire Wire Line
	4550 1800 4650 1800
Wire Wire Line
	4650 1800 4650 1600
Connection ~ 4650 1600
Wire Wire Line
	4550 1700 4750 1700
Wire Wire Line
	4550 1500 4750 1500
Wire Wire Line
	3950 1650 2900 1650
Text Label 2900 1650 0    50   ~ 0
S[0]
Wire Wire Line
	4550 2850 4750 2850
Wire Wire Line
	4550 2750 4750 2750
Wire Wire Line
	4550 2950 4650 2950
Wire Wire Line
	4650 2950 4650 2650
Wire Wire Line
	4650 2650 4550 2650
Connection ~ 4650 2650
Wire Wire Line
	4650 2650 4650 2500
Wire Wire Line
	6850 1600 7050 1600
Wire Wire Line
	6850 1700 7050 1700
Wire Wire Line
	6850 1800 6950 1800
Wire Wire Line
	6950 1800 6950 1500
Wire Wire Line
	6950 1500 6850 1500
Connection ~ 6950 1500
Wire Wire Line
	6850 2750 7050 2750
Wire Wire Line
	6850 2850 7050 2850
Wire Wire Line
	6850 2950 6950 2950
Wire Wire Line
	6950 2950 6950 2650
Wire Wire Line
	6950 2650 6850 2650
Wire Wire Line
	3950 2800 2900 2800
Text Label 2900 2800 0    50   ~ 0
S[1]
Wire Wire Line
	6250 1650 5200 1650
Text Label 5200 1650 0    50   ~ 0
S[2]
Wire Wire Line
	6250 2800 5200 2800
Text Label 5200 2800 0    50   ~ 0
S[3]
Text Notes 3100 1650 0    50   ~ 0
<= ~ZIN[1]~ & ~ZIN[0]~
Text Notes 3100 2800 0    50   ~ 0
<= ~ZIN[1]~ & ZIN[0]
Text Notes 5400 1650 0    50   ~ 0
<= ZIN[1] & ~ZIN[0]~
Text Notes 5400 2800 0    50   ~ 0
<= ZIN[1] & ZIN[0]
Wire Wire Line
	4300 1950 4300 2050
Wire Wire Line
	4300 3100 4300 3200
Wire Wire Line
	6600 1950 6600 2050
Wire Wire Line
	6600 3100 6600 3200
$Comp
L Capstone:74LVC1G99 U?
U 1 1 5C695E02
P 4250 2800
AR Path="/5C5F098F/5C5F0B20/5C695E02" Ref="U?"  Part="1" 
AR Path="/5C5F098F/5C5F0B20/5C6958AB/5C695E02" Ref="U?"  Part="1" 
AR Path="/5C5F098F/5C5F0B20/5C76A273/5C695E02" Ref="U?"  Part="1" 
F 0 "U?" H 4300 3100 50  0000 R BNN
F 1 "74LVC1G99" H 4300 3050 50  0000 R CNN
F 2 "Package_SO:TSSOP-8_3x3mm_P0.65mm" H 4250 2800 50  0001 C CNN
F 3 "http://www.ti.com/lit/sg/scyt129e/scyt129e.pdf" H 4250 2800 50  0001 C CNN
	1    4250 2800
	-1   0    0    -1  
$EndComp
$Comp
L Capstone:74LVC1G99 U?
U 1 1 5C695E09
P 6550 1650
AR Path="/5C5F098F/5C5F0B20/5C695E09" Ref="U?"  Part="1" 
AR Path="/5C5F098F/5C5F0B20/5C6958AB/5C695E09" Ref="U?"  Part="1" 
AR Path="/5C5F098F/5C5F0B20/5C76A273/5C695E09" Ref="U?"  Part="1" 
F 0 "U?" H 6600 1950 50  0000 R BNN
F 1 "74LVC1G99" H 6600 1900 50  0000 R CNN
F 2 "Package_SO:TSSOP-8_3x3mm_P0.65mm" H 6550 1650 50  0001 C CNN
F 3 "http://www.ti.com/lit/sg/scyt129e/scyt129e.pdf" H 6550 1650 50  0001 C CNN
	1    6550 1650
	-1   0    0    -1  
$EndComp
$Comp
L Capstone:74LVC1G99 U?
U 1 1 5C695E10
P 6550 2800
AR Path="/5C5F098F/5C5F0B20/5C695E10" Ref="U?"  Part="1" 
AR Path="/5C5F098F/5C5F0B20/5C6958AB/5C695E10" Ref="U?"  Part="1" 
AR Path="/5C5F098F/5C5F0B20/5C76A273/5C695E10" Ref="U?"  Part="1" 
F 0 "U?" H 6600 3100 50  0000 R BNN
F 1 "74LVC1G99" H 6600 3050 50  0000 R CNN
F 2 "Package_SO:TSSOP-8_3x3mm_P0.65mm" H 6550 2800 50  0001 C CNN
F 3 "http://www.ti.com/lit/sg/scyt129e/scyt129e.pdf" H 6550 2800 50  0001 C CNN
	1    6550 2800
	-1   0    0    -1  
$EndComp
$Comp
L power:GND #PWR?
U 1 1 5C695E17
P 4150 1950
AR Path="/5C5F098F/5C5F0B20/5C695E17" Ref="#PWR?"  Part="1" 
AR Path="/5C5F098F/5C5F0B20/5C6958AB/5C695E17" Ref="#PWR?"  Part="1" 
AR Path="/5C5F098F/5C5F0B20/5C76A273/5C695E17" Ref="#PWR?"  Part="1" 
F 0 "#PWR?" H 4150 1700 50  0001 C CNN
F 1 "GND" H 4155 1777 50  0000 C CNN
F 2 "" H 4150 1950 50  0001 C CNN
F 3 "" H 4150 1950 50  0001 C CNN
	1    4150 1950
	1    0    0    -1  
$EndComp
$Comp
L power:+3V3 #PWR?
U 1 1 5C695E1D
P 4150 1350
AR Path="/5C5F098F/5C5F0B20/5C695E1D" Ref="#PWR?"  Part="1" 
AR Path="/5C5F098F/5C5F0B20/5C6958AB/5C695E1D" Ref="#PWR?"  Part="1" 
AR Path="/5C5F098F/5C5F0B20/5C76A273/5C695E1D" Ref="#PWR?"  Part="1" 
F 0 "#PWR?" H 4150 1200 50  0001 C CNN
F 1 "+3V3" H 4165 1523 50  0000 C CNN
F 2 "" H 4150 1350 50  0001 C CNN
F 3 "" H 4150 1350 50  0001 C CNN
	1    4150 1350
	1    0    0    -1  
$EndComp
$Comp
L power:+3V3 #PWR?
U 1 1 5C695E23
P 4150 2500
AR Path="/5C5F098F/5C5F0B20/5C695E23" Ref="#PWR?"  Part="1" 
AR Path="/5C5F098F/5C5F0B20/5C6958AB/5C695E23" Ref="#PWR?"  Part="1" 
AR Path="/5C5F098F/5C5F0B20/5C76A273/5C695E23" Ref="#PWR?"  Part="1" 
F 0 "#PWR?" H 4150 2350 50  0001 C CNN
F 1 "+3V3" H 4165 2673 50  0000 C CNN
F 2 "" H 4150 2500 50  0001 C CNN
F 3 "" H 4150 2500 50  0001 C CNN
	1    4150 2500
	1    0    0    -1  
$EndComp
$Comp
L power:GND #PWR?
U 1 1 5C695E29
P 4150 3100
AR Path="/5C5F098F/5C5F0B20/5C695E29" Ref="#PWR?"  Part="1" 
AR Path="/5C5F098F/5C5F0B20/5C6958AB/5C695E29" Ref="#PWR?"  Part="1" 
AR Path="/5C5F098F/5C5F0B20/5C76A273/5C695E29" Ref="#PWR?"  Part="1" 
F 0 "#PWR?" H 4150 2850 50  0001 C CNN
F 1 "GND" H 4155 2927 50  0000 C CNN
F 2 "" H 4150 3100 50  0001 C CNN
F 3 "" H 4150 3100 50  0001 C CNN
	1    4150 3100
	1    0    0    -1  
$EndComp
$Comp
L power:+3V3 #PWR?
U 1 1 5C695E2F
P 6450 1350
AR Path="/5C5F098F/5C5F0B20/5C695E2F" Ref="#PWR?"  Part="1" 
AR Path="/5C5F098F/5C5F0B20/5C6958AB/5C695E2F" Ref="#PWR?"  Part="1" 
AR Path="/5C5F098F/5C5F0B20/5C76A273/5C695E2F" Ref="#PWR?"  Part="1" 
F 0 "#PWR?" H 6450 1200 50  0001 C CNN
F 1 "+3V3" H 6465 1523 50  0000 C CNN
F 2 "" H 6450 1350 50  0001 C CNN
F 3 "" H 6450 1350 50  0001 C CNN
	1    6450 1350
	1    0    0    -1  
$EndComp
$Comp
L power:+3V3 #PWR?
U 1 1 5C695E35
P 6450 2500
AR Path="/5C5F098F/5C5F0B20/5C695E35" Ref="#PWR?"  Part="1" 
AR Path="/5C5F098F/5C5F0B20/5C6958AB/5C695E35" Ref="#PWR?"  Part="1" 
AR Path="/5C5F098F/5C5F0B20/5C76A273/5C695E35" Ref="#PWR?"  Part="1" 
F 0 "#PWR?" H 6450 2350 50  0001 C CNN
F 1 "+3V3" H 6465 2673 50  0000 C CNN
F 2 "" H 6450 2500 50  0001 C CNN
F 3 "" H 6450 2500 50  0001 C CNN
	1    6450 2500
	1    0    0    -1  
$EndComp
$Comp
L power:GND #PWR?
U 1 1 5C695E3B
P 6450 1950
AR Path="/5C5F098F/5C5F0B20/5C695E3B" Ref="#PWR?"  Part="1" 
AR Path="/5C5F098F/5C5F0B20/5C6958AB/5C695E3B" Ref="#PWR?"  Part="1" 
AR Path="/5C5F098F/5C5F0B20/5C76A273/5C695E3B" Ref="#PWR?"  Part="1" 
F 0 "#PWR?" H 6450 1700 50  0001 C CNN
F 1 "GND" H 6455 1777 50  0000 C CNN
F 2 "" H 6450 1950 50  0001 C CNN
F 3 "" H 6450 1950 50  0001 C CNN
	1    6450 1950
	1    0    0    -1  
$EndComp
$Comp
L power:GND #PWR?
U 1 1 5C695E41
P 6450 3100
AR Path="/5C5F098F/5C5F0B20/5C695E41" Ref="#PWR?"  Part="1" 
AR Path="/5C5F098F/5C5F0B20/5C6958AB/5C695E41" Ref="#PWR?"  Part="1" 
AR Path="/5C5F098F/5C5F0B20/5C76A273/5C695E41" Ref="#PWR?"  Part="1" 
F 0 "#PWR?" H 6450 2850 50  0001 C CNN
F 1 "GND" H 6455 2927 50  0000 C CNN
F 2 "" H 6450 3100 50  0001 C CNN
F 3 "" H 6450 3100 50  0001 C CNN
	1    6450 3100
	1    0    0    -1  
$EndComp
Wire Wire Line
	6950 1350 6950 1500
$Comp
L power:+3V3 #PWR?
U 1 1 5C695E48
P 6950 1350
AR Path="/5C5F098F/5C5F0B20/5C695E48" Ref="#PWR?"  Part="1" 
AR Path="/5C5F098F/5C5F0B20/5C6958AB/5C695E48" Ref="#PWR?"  Part="1" 
AR Path="/5C5F098F/5C5F0B20/5C76A273/5C695E48" Ref="#PWR?"  Part="1" 
F 0 "#PWR?" H 6950 1200 50  0001 C CNN
F 1 "+3V3" H 6965 1523 50  0000 C CNN
F 2 "" H 6950 1350 50  0001 C CNN
F 3 "" H 6950 1350 50  0001 C CNN
	1    6950 1350
	1    0    0    -1  
$EndComp
$Comp
L power:+3V3 #PWR?
U 1 1 5C695E4E
P 4650 2500
AR Path="/5C5F098F/5C5F0B20/5C695E4E" Ref="#PWR?"  Part="1" 
AR Path="/5C5F098F/5C5F0B20/5C6958AB/5C695E4E" Ref="#PWR?"  Part="1" 
AR Path="/5C5F098F/5C5F0B20/5C76A273/5C695E4E" Ref="#PWR?"  Part="1" 
F 0 "#PWR?" H 4650 2350 50  0001 C CNN
F 1 "+3V3" H 4665 2673 50  0000 C CNN
F 2 "" H 4650 2500 50  0001 C CNN
F 3 "" H 4650 2500 50  0001 C CNN
	1    4650 2500
	1    0    0    -1  
$EndComp
$Comp
L power:+3V3 #PWR?
U 1 1 5C695E54
P 4650 1350
AR Path="/5C5F098F/5C5F0B20/5C695E54" Ref="#PWR?"  Part="1" 
AR Path="/5C5F098F/5C5F0B20/5C6958AB/5C695E54" Ref="#PWR?"  Part="1" 
AR Path="/5C5F098F/5C5F0B20/5C76A273/5C695E54" Ref="#PWR?"  Part="1" 
F 0 "#PWR?" H 4650 1200 50  0001 C CNN
F 1 "+3V3" H 4665 1523 50  0000 C CNN
F 2 "" H 4650 1350 50  0001 C CNN
F 3 "" H 4650 1350 50  0001 C CNN
	1    4650 1350
	1    0    0    -1  
$EndComp
Wire Wire Line
	4650 1350 4650 1600
Wire Wire Line
	6950 2950 7150 2950
Wire Wire Line
	7150 2950 7150 3000
Connection ~ 6950 2950
$Comp
L power:GND #PWR?
U 1 1 5C695E5E
P 7150 3000
AR Path="/5C5F098F/5C5F0B20/5C695E5E" Ref="#PWR?"  Part="1" 
AR Path="/5C5F098F/5C5F0B20/5C6958AB/5C695E5E" Ref="#PWR?"  Part="1" 
AR Path="/5C5F098F/5C5F0B20/5C76A273/5C695E5E" Ref="#PWR?"  Part="1" 
F 0 "#PWR?" H 7150 2750 50  0001 C CNN
F 1 "GND" H 7155 2827 50  0000 C CNN
F 2 "" H 7150 3000 50  0001 C CNN
F 3 "" H 7150 3000 50  0001 C CNN
	1    7150 3000
	1    0    0    -1  
$EndComp
Text HLabel 4400 2050 2    50   Input ~ 0
~ZIN_EN
Wire Wire Line
	4300 2050 4400 2050
Text HLabel 4400 3200 2    50   Input ~ 0
~ZIN_EN
Wire Wire Line
	4400 3200 4300 3200
Text HLabel 6700 2050 2    50   Input ~ 0
~ZIN_EN
Wire Wire Line
	6700 2050 6600 2050
Text HLabel 6700 3200 2    50   Input ~ 0
~ZIN_EN
Wire Wire Line
	6700 3200 6600 3200
Text HLabel 4750 1700 2    50   Input ~ 0
ZIN[0]
Text HLabel 4750 1500 2    50   Input ~ 0
ZIN[1]
Text HLabel 4750 2750 2    50   Input ~ 0
ZIN[1]
Text HLabel 4750 2850 2    50   Input ~ 0
ZIN[0]
Text HLabel 7050 1600 2    50   Input ~ 0
ZIN[0]
Text HLabel 7050 1700 2    50   Input ~ 0
ZIN[1]
Text HLabel 7050 2850 2    50   Input ~ 0
ZIN[1]
Text HLabel 7050 2750 2    50   Input ~ 0
ZIN[0]
$Comp
L Relay:FRT5 K?
U 1 1 5C695E74
P 5350 5250
AR Path="/5C4E1326/5C695E74" Ref="K?"  Part="1" 
AR Path="/5C5F098F/5C5F0B20/5C695E74" Ref="K?"  Part="1" 
AR Path="/5C5F098F/5C5F0B20/5C6958AB/5C695E74" Ref="K?"  Part="1" 
AR Path="/5C5F098F/5C5F0B20/5C76A273/5C695E74" Ref="K?"  Part="1" 
F 0 "K?" V 6117 5250 50  0000 C CNN
F 1 "EB2-12NU" V 6026 5250 50  0000 C CNN
F 2 "Relay_SMD:Relay_DPDT_FRT5" H 6000 5200 50  0001 L CNN
F 3 "http://www.kemet.com/Lists/ProductCatalog/Attachments/514/KEM_R7001_EA2_EB2.pdf" H 6000 5400 50  0001 C CNN
	1    5350 5250
	0    -1   1    0   
$EndComp
$Comp
L Relay:FRT5 K?
U 1 1 5C695E7B
P 4350 5350
AR Path="/5C4E1326/5C695E7B" Ref="K?"  Part="1" 
AR Path="/5C5F098F/5C5F0B20/5C695E7B" Ref="K?"  Part="1" 
AR Path="/5C5F098F/5C5F0B20/5C6958AB/5C695E7B" Ref="K?"  Part="1" 
AR Path="/5C5F098F/5C5F0B20/5C76A273/5C695E7B" Ref="K?"  Part="1" 
F 0 "K?" V 5117 5350 50  0000 C CNN
F 1 "EB2-12NU" V 5026 5350 50  0000 C CNN
F 2 "Relay_SMD:Relay_DPDT_FRT5" H 5000 5300 50  0001 L CNN
F 3 "http://www.kemet.com/Lists/ProductCatalog/Attachments/514/KEM_R7001_EA2_EB2.pdf" H 5000 5500 50  0001 C CNN
	1    4350 5350
	0    -1   1    0   
$EndComp
$Comp
L Relay:FRT5 K?
U 1 1 5C695E82
P 2550 4850
AR Path="/5C4E1326/5C695E82" Ref="K?"  Part="1" 
AR Path="/5C5F098F/5C5F0B20/5C695E82" Ref="K?"  Part="1" 
AR Path="/5C5F098F/5C5F0B20/5C6958AB/5C695E82" Ref="K?"  Part="1" 
AR Path="/5C5F098F/5C5F0B20/5C76A273/5C695E82" Ref="K?"  Part="1" 
F 0 "K?" V 3317 4850 50  0000 C CNN
F 1 "EB2-12NU" V 3226 4850 50  0000 C CNN
F 2 "Relay_SMD:Relay_DPDT_FRT5" H 3200 4800 50  0001 L CNN
F 3 "http://www.kemet.com/Lists/ProductCatalog/Attachments/514/KEM_R7001_EA2_EB2.pdf" H 3200 5000 50  0001 C CNN
	1    2550 4850
	0    -1   1    0   
$EndComp
Text Notes 1850 3850 0    50   ~ 0
Alternate ZIN stage: relays provide the benefit of lower on resistance and no no overvoltage issues, but are much\nlarger, consume more power, and may pick up extra EMI.
Text Label 3450 6400 2    50   ~ 0
ZIN[1]
Wire Wire Line
	6250 6400 6050 6400
Wire Wire Line
	3450 6400 3250 6400
Text Label 6250 6400 2    50   ~ 0
ZIN_EN
$Comp
L power:+12V #PWR?
U 1 1 5C695E92
P 4950 4650
AR Path="/5C4E1326/5C695E92" Ref="#PWR?"  Part="1" 
AR Path="/5C5F098F/5C5F0B20/5C695E92" Ref="#PWR?"  Part="1" 
AR Path="/5C5F098F/5C5F0B20/5C6958AB/5C695E92" Ref="#PWR?"  Part="1" 
AR Path="/5C5F098F/5C5F0B20/5C76A273/5C695E92" Ref="#PWR?"  Part="1" 
F 0 "#PWR?" H 4950 4500 50  0001 C CNN
F 1 "+12V" H 4965 4823 50  0000 C CNN
F 2 "" H 4950 4650 50  0001 C CNN
F 3 "" H 4950 4650 50  0001 C CNN
	1    4950 4650
	1    0    0    -1  
$EndComp
Wire Wire Line
	4950 4850 4950 4650
Wire Wire Line
	5050 4850 4950 4850
Wire Wire Line
	3950 4750 3950 4950
Wire Wire Line
	3950 4950 4050 4950
$Comp
L power:+12V #PWR?
U 1 1 5C695E9C
P 3950 4750
AR Path="/5C4E1326/5C695E9C" Ref="#PWR?"  Part="1" 
AR Path="/5C5F098F/5C5F0B20/5C695E9C" Ref="#PWR?"  Part="1" 
AR Path="/5C5F098F/5C5F0B20/5C6958AB/5C695E9C" Ref="#PWR?"  Part="1" 
AR Path="/5C5F098F/5C5F0B20/5C76A273/5C695E9C" Ref="#PWR?"  Part="1" 
F 0 "#PWR?" H 3950 4600 50  0001 C CNN
F 1 "+12V" H 3965 4923 50  0000 C CNN
F 2 "" H 3950 4750 50  0001 C CNN
F 3 "" H 3950 4750 50  0001 C CNN
	1    3950 4750
	1    0    0    -1  
$EndComp
$Comp
L power:+12V #PWR?
U 1 1 5C695EA2
P 2150 4250
AR Path="/5C4E1326/5C695EA2" Ref="#PWR?"  Part="1" 
AR Path="/5C5F098F/5C5F0B20/5C695EA2" Ref="#PWR?"  Part="1" 
AR Path="/5C5F098F/5C5F0B20/5C6958AB/5C695EA2" Ref="#PWR?"  Part="1" 
AR Path="/5C5F098F/5C5F0B20/5C76A273/5C695EA2" Ref="#PWR?"  Part="1" 
F 0 "#PWR?" H 2150 4100 50  0001 C CNN
F 1 "+12V" H 2165 4423 50  0000 C CNN
F 2 "" H 2150 4250 50  0001 C CNN
F 3 "" H 2150 4250 50  0001 C CNN
	1    2150 4250
	1    0    0    -1  
$EndComp
Wire Wire Line
	2150 4450 2150 4250
Wire Wire Line
	2250 4450 2150 4450
Wire Wire Line
	5250 6400 5050 6400
Text Label 5250 6400 2    50   ~ 0
ZIN[0]
Wire Wire Line
	5750 4850 5750 6200
Wire Wire Line
	5650 4850 5750 4850
Wire Wire Line
	4750 4950 4750 6200
Wire Wire Line
	4650 4950 4750 4950
Wire Wire Line
	2950 4450 2950 6200
Wire Wire Line
	2850 4450 2950 4450
Wire Wire Line
	2850 4850 3650 4850
Wire Wire Line
	2850 5250 3050 5250
$Comp
L power:GND #PWR?
U 1 1 5C695EB4
P 2150 5550
AR Path="/5C4E1326/5C695EB4" Ref="#PWR?"  Part="1" 
AR Path="/5C5F098F/5C5F0B20/5C695EB4" Ref="#PWR?"  Part="1" 
AR Path="/5C5F098F/5C5F0B20/5C6958AB/5C695EB4" Ref="#PWR?"  Part="1" 
AR Path="/5C5F098F/5C5F0B20/5C76A273/5C695EB4" Ref="#PWR?"  Part="1" 
F 0 "#PWR?" H 2150 5300 50  0001 C CNN
F 1 "GND" H 2155 5377 50  0000 C CNN
F 2 "" H 2150 5550 50  0001 C CNN
F 3 "" H 2150 5550 50  0001 C CNN
	1    2150 5550
	-1   0    0    -1  
$EndComp
$Comp
L Device:R_Pack02 RN?
U 1 1 5C695EBA
P 3350 5350
AR Path="/5C4E1326/5C695EBA" Ref="RN?"  Part="1" 
AR Path="/5C5F098F/5C5F0B20/5C695EBA" Ref="RN?"  Part="1" 
AR Path="/5C5F098F/5C5F0B20/5C6958AB/5C695EBA" Ref="RN?"  Part="1" 
AR Path="/5C5F098F/5C5F0B20/5C76A273/5C695EBA" Ref="RN?"  Part="1" 
F 0 "RN?" V 3575 5350 50  0000 C CNN
F 1 "50" V 3484 5350 50  0000 C CNN
F 2 "" V 3525 5350 50  0001 C CNN
F 3 "~" H 3350 5350 50  0001 C CNN
	1    3350 5350
	0    -1   1    0   
$EndComp
$Comp
L Device:R_Pack02 RN?
U 1 1 5C695EC1
P 3350 5750
AR Path="/5C4E1326/5C695EC1" Ref="RN?"  Part="1" 
AR Path="/5C5F098F/5C5F0B20/5C695EC1" Ref="RN?"  Part="1" 
AR Path="/5C5F098F/5C5F0B20/5C6958AB/5C695EC1" Ref="RN?"  Part="1" 
AR Path="/5C5F098F/5C5F0B20/5C76A273/5C695EC1" Ref="RN?"  Part="1" 
F 0 "RN?" V 3033 5750 50  0000 C CNN
F 1 "75" V 3124 5750 50  0000 C CNN
F 2 "" V 3525 5750 50  0001 C CNN
F 3 "~" H 3350 5750 50  0001 C CNN
	1    3350 5750
	0    -1   -1   0   
$EndComp
Wire Wire Line
	3050 5850 3050 5750
Wire Wire Line
	3050 5350 3050 5250
Connection ~ 3050 5250
Wire Wire Line
	3050 5250 3150 5250
Wire Wire Line
	3550 5850 4050 5850
Wire Wire Line
	3550 5350 3650 5350
Connection ~ 3650 5350
Wire Wire Line
	3650 4850 3650 5350
Wire Wire Line
	3150 5850 3050 5850
Wire Wire Line
	3050 5750 3150 5750
Wire Wire Line
	3150 5350 3050 5350
Connection ~ 3050 5750
Connection ~ 3050 5350
Wire Wire Line
	3050 5350 3050 5750
Wire Wire Line
	3550 5250 4050 5250
Wire Wire Line
	3550 5750 3650 5750
NoConn ~ 2250 4750
NoConn ~ 2250 5150
Wire Wire Line
	2150 4950 2250 4950
Wire Wire Line
	2150 5350 2150 5550
Wire Wire Line
	2150 4950 2150 5350
Connection ~ 2150 5350
Wire Wire Line
	2150 5350 2250 5350
Wire Wire Line
	5050 5350 4650 5350
Wire Wire Line
	4650 5750 5050 5750
NoConn ~ 5050 5150
NoConn ~ 5050 5550
$Comp
L Device:Q_NMOS_GSD Q?
U 1 1 5C695EE4
P 3050 6400
AR Path="/5C4E1326/5C695EE4" Ref="Q?"  Part="1" 
AR Path="/5C5F098F/5C5F0B20/5C695EE4" Ref="Q?"  Part="1" 
AR Path="/5C5F098F/5C5F0B20/5C6958AB/5C695EE4" Ref="Q?"  Part="1" 
AR Path="/5C5F098F/5C5F0B20/5C76A273/5C695EE4" Ref="Q?"  Part="1" 
F 0 "Q?" H 3256 6446 50  0000 L CNN
F 1 "NUD3112" H 3256 6355 50  0000 L CNN
F 2 "" H 3250 6500 50  0001 C CNN
F 3 "https://www.onsemi.com/pub/Collateral/NUD3112-D.PDF" H 3050 6400 50  0001 C CNN
F 4 "12V Relay Driver; includes protection diodes" H 3050 6400 50  0001 C CNN "Notes"
	1    3050 6400
	-1   0    0    -1  
$EndComp
$Comp
L power:GND #PWR?
U 1 1 5C695EEB
P 2950 6600
AR Path="/5C4E1326/5C695EEB" Ref="#PWR?"  Part="1" 
AR Path="/5C5F098F/5C5F0B20/5C695EEB" Ref="#PWR?"  Part="1" 
AR Path="/5C5F098F/5C5F0B20/5C6958AB/5C695EEB" Ref="#PWR?"  Part="1" 
AR Path="/5C5F098F/5C5F0B20/5C76A273/5C695EEB" Ref="#PWR?"  Part="1" 
F 0 "#PWR?" H 2950 6350 50  0001 C CNN
F 1 "GND" H 2955 6427 50  0000 C CNN
F 2 "" H 2950 6600 50  0001 C CNN
F 3 "" H 2950 6600 50  0001 C CNN
	1    2950 6600
	1    0    0    -1  
$EndComp
$Comp
L Device:Q_NMOS_GSD Q?
U 1 1 5C695EF2
P 4850 6400
AR Path="/5C4E1326/5C695EF2" Ref="Q?"  Part="1" 
AR Path="/5C5F098F/5C5F0B20/5C695EF2" Ref="Q?"  Part="1" 
AR Path="/5C5F098F/5C5F0B20/5C6958AB/5C695EF2" Ref="Q?"  Part="1" 
AR Path="/5C5F098F/5C5F0B20/5C76A273/5C695EF2" Ref="Q?"  Part="1" 
F 0 "Q?" H 5056 6446 50  0000 L CNN
F 1 "NUD3112" H 5056 6355 50  0000 L CNN
F 2 "" H 5050 6500 50  0001 C CNN
F 3 "https://www.onsemi.com/pub/Collateral/NUD3112-D.PDF" H 4850 6400 50  0001 C CNN
F 4 "12V Relay Driver; includes protection diodes" H 4850 6400 50  0001 C CNN "Notes"
	1    4850 6400
	-1   0    0    -1  
$EndComp
$Comp
L Device:Q_NMOS_GSD Q?
U 1 1 5C695EFA
P 5850 6400
AR Path="/5C4E1326/5C695EFA" Ref="Q?"  Part="1" 
AR Path="/5C5F098F/5C5F0B20/5C695EFA" Ref="Q?"  Part="1" 
AR Path="/5C5F098F/5C5F0B20/5C6958AB/5C695EFA" Ref="Q?"  Part="1" 
AR Path="/5C5F098F/5C5F0B20/5C76A273/5C695EFA" Ref="Q?"  Part="1" 
F 0 "Q?" H 6056 6446 50  0000 L CNN
F 1 "NUD3112" H 6056 6355 50  0000 L CNN
F 2 "" H 6050 6500 50  0001 C CNN
F 3 "https://www.onsemi.com/pub/Collateral/NUD3112-D.PDF" H 5850 6400 50  0001 C CNN
F 4 "12V Relay Driver; includes protection diodes" H 5850 6400 50  0001 C CNN "Notes"
	1    5850 6400
	-1   0    0    -1  
$EndComp
$Comp
L power:GND #PWR?
U 1 1 5C695F01
P 4750 6600
AR Path="/5C4E1326/5C695F01" Ref="#PWR?"  Part="1" 
AR Path="/5C5F098F/5C5F0B20/5C695F01" Ref="#PWR?"  Part="1" 
AR Path="/5C5F098F/5C5F0B20/5C6958AB/5C695F01" Ref="#PWR?"  Part="1" 
AR Path="/5C5F098F/5C5F0B20/5C76A273/5C695F01" Ref="#PWR?"  Part="1" 
F 0 "#PWR?" H 4750 6350 50  0001 C CNN
F 1 "GND" H 4755 6427 50  0000 C CNN
F 2 "" H 4750 6600 50  0001 C CNN
F 3 "" H 4750 6600 50  0001 C CNN
	1    4750 6600
	1    0    0    -1  
$EndComp
$Comp
L power:GND #PWR?
U 1 1 5C695F07
P 5750 6600
AR Path="/5C4E1326/5C695F07" Ref="#PWR?"  Part="1" 
AR Path="/5C5F098F/5C5F0B20/5C695F07" Ref="#PWR?"  Part="1" 
AR Path="/5C5F098F/5C5F0B20/5C6958AB/5C695F07" Ref="#PWR?"  Part="1" 
AR Path="/5C5F098F/5C5F0B20/5C76A273/5C695F07" Ref="#PWR?"  Part="1" 
F 0 "#PWR?" H 5750 6350 50  0001 C CNN
F 1 "GND" H 5755 6427 50  0000 C CNN
F 2 "" H 5750 6600 50  0001 C CNN
F 3 "" H 5750 6600 50  0001 C CNN
	1    5750 6600
	1    0    0    -1  
$EndComp
Wire Wire Line
	4050 5650 3650 5650
Connection ~ 3650 5650
Wire Wire Line
	3650 5650 3650 5750
Wire Wire Line
	3650 5350 3650 5450
Wire Wire Line
	3650 5450 3650 5650
Connection ~ 3650 5450
Wire Wire Line
	4050 5450 3650 5450
$Comp
L Analog_Switch:CD4052B U?
U 1 1 5C6A6A2B
P 9150 4550
F 0 "U?" H 9550 5200 50  0000 R CNN
F 1 "CD4052B" H 8750 5200 50  0000 L CNN
F 2 "" H 9300 3800 50  0001 L CNN
F 3 "http://www.ti.com/lit/ds/symlink/cd4052b.pdf" H 9130 4750 50  0001 C CNN
	1    9150 4550
	-1   0    0    -1  
$EndComp
Text Label 9950 4050 2    50   ~ 0
ZIN[0]
Wire Wire Line
	9650 4050 9950 4050
Wire Wire Line
	9650 4150 9950 4150
Text Label 9950 4150 2    50   ~ 0
ZIN[1]
Wire Wire Line
	9650 4950 9950 4950
Text Label 9950 4950 2    50   ~ 0
ZIN_EN
$Comp
L Device:R_Small R?
U 1 1 5C6D3202
P 7450 4450
F 0 "R?" H 7509 4496 50  0000 L CNN
F 1 "100" H 7509 4405 50  0000 L CNN
F 2 "" H 7450 4450 50  0001 C CNN
F 3 "~" H 7450 4450 50  0001 C CNN
	1    7450 4450
	1    0    0    -1  
$EndComp
Wire Wire Line
	7450 4250 7450 4350
Wire Wire Line
	7450 4550 7450 4750
$Comp
L Device:R_Small R?
U 1 1 5C6D7C62
P 7750 4550
F 0 "R?" H 7809 4596 50  0000 L CNN
F 1 "150" H 7809 4505 50  0000 L CNN
F 2 "" H 7750 4550 50  0001 C CNN
F 3 "~" H 7750 4550 50  0001 C CNN
	1    7750 4550
	1    0    0    -1  
$EndComp
Wire Wire Line
	7750 4350 7750 4450
Wire Wire Line
	7750 4650 7750 4850
Wire Wire Line
	8650 4450 8050 4450
Wire Wire Line
	8650 4550 8350 4550
$Comp
L Device:R_Small R?
U 1 1 5C6F324A
P 8050 5050
F 0 "R?" H 8109 5096 50  0000 L CNN
F 1 "50" H 8109 5005 50  0000 L CNN
F 2 "" H 8050 5050 50  0001 C CNN
F 3 "~" H 8050 5050 50  0001 C CNN
	1    8050 5050
	1    0    0    -1  
$EndComp
$Comp
L Device:R_Small R?
U 1 1 5C6F32B0
P 8350 5050
F 0 "R?" H 8409 5096 50  0000 L CNN
F 1 "75" H 8409 5005 50  0000 L CNN
F 2 "" H 8350 5050 50  0001 C CNN
F 3 "~" H 8350 5050 50  0001 C CNN
	1    8350 5050
	1    0    0    -1  
$EndComp
Wire Wire Line
	7450 4750 8650 4750
Wire Wire Line
	7750 4850 8650 4850
Wire Wire Line
	7750 4350 8650 4350
Wire Wire Line
	7450 4250 8650 4250
$Comp
L power:+10V #PWR?
U 1 1 5C73C180
P 9050 3850
F 0 "#PWR?" H 9050 3700 50  0001 C CNN
F 1 "+10V" H 9065 4023 50  0000 C CNN
F 2 "" H 9050 3850 50  0001 C CNN
F 3 "" H 9050 3850 50  0001 C CNN
	1    9050 3850
	1    0    0    -1  
$EndComp
$Comp
L power:GND #PWR?
U 1 1 5C73C214
P 9150 5350
F 0 "#PWR?" H 9150 5100 50  0001 C CNN
F 1 "GND" H 9155 5177 50  0000 C CNN
F 2 "" H 9150 5350 50  0001 C CNN
F 3 "" H 9150 5350 50  0001 C CNN
	1    9150 5350
	1    0    0    -1  
$EndComp
Wire Wire Line
	9150 5350 9150 5300
Wire Wire Line
	9150 5300 9250 5300
Wire Wire Line
	9250 5300 9250 5250
Connection ~ 9150 5300
Wire Wire Line
	9150 5300 9150 5250
Wire Wire Line
	9650 4350 10300 4350
Wire Wire Line
	9650 4850 10300 4850
Wire Wire Line
	5650 5250 6050 5250
Wire Wire Line
	5650 5650 6050 5650
Text Label 10300 4350 2    50   ~ 0
INA+
Text Label 10300 4850 2    50   ~ 0
INA-
Text Label 6050 5250 2    50   ~ 0
INA+
Text Label 6050 5650 2    50   ~ 0
INA-
Wire Wire Line
	8350 4550 8350 4950
Wire Wire Line
	8050 4450 8050 4950
NoConn ~ 8650 5050
NoConn ~ 8650 4950
$Comp
L power:GND #PWR?
U 1 1 5C73B6C3
P 8050 5250
F 0 "#PWR?" H 8050 5000 50  0001 C CNN
F 1 "GND" H 8055 5077 50  0000 C CNN
F 2 "" H 8050 5250 50  0001 C CNN
F 3 "" H 8050 5250 50  0001 C CNN
	1    8050 5250
	1    0    0    -1  
$EndComp
$Comp
L power:GND #PWR?
U 1 1 5C73B62F
P 8350 5250
F 0 "#PWR?" H 8350 5000 50  0001 C CNN
F 1 "GND" H 8355 5077 50  0000 C CNN
F 2 "" H 8350 5250 50  0001 C CNN
F 3 "" H 8350 5250 50  0001 C CNN
	1    8350 5250
	1    0    0    -1  
$EndComp
Wire Wire Line
	8350 5150 8350 5250
Wire Wire Line
	8050 5150 8050 5250
$EndSCHEMATC
