EESchema Schematic File Version 4
LIBS:Capstone-cache
EELAYER 29 0
EELAYER END
$Descr USLetter 11000 8500
encoding utf-8
Sheet 2 8
Title "Capstone"
Date ""
Rev ""
Comp ""
Comment1 ""
Comment2 ""
Comment3 ""
Comment4 ""
$EndDescr
$Sheet
S 2050 1050 800  1000
U 5C5F0B20
F0 "Input Stage" 50
F1 "AnalogIn.sch" 50
F2 "OUT" O R 2850 1150 50 
F3 "IN+" I L 2050 1150 50 
F4 "IN-" I L 2050 1350 50 
F5 "GAIN[1]" I R 2850 1850 50 
F6 "GAIN[0]" I R 2850 1950 50 
F7 "~FAULT" O R 2850 1350 50 
F8 "AC_MODE" I R 2850 1450 50 
$EndSheet
$Comp
L power:GNDD #PWR034
U 1 1 5C7CC97C
P 2650 7550
F 0 "#PWR034" H 2650 7300 50  0001 C CNN
F 1 "GNDD" H 2650 7400 50  0000 C CNN
F 2 "" H 2650 7550 50  0001 C CNN
F 3 "" H 2650 7550 50  0001 C CNN
	1    2650 7550
	1    0    0    -1  
$EndComp
Wire Wire Line
	1950 5550 1900 5550
Wire Wire Line
	1950 5650 1900 5650
Text GLabel 1900 5550 0    50   BiDi ~ 0
SDA
Text GLabel 1900 5650 0    50   BiDi ~ 0
SCL
$Sheet
S 5600 1150 950  1000
U 5CB3F455
F0 "IntSum2" 50
F1 "IntSum.sch" 50
F2 "OUT" O R 6550 1250 50 
F3 "IN" I L 5600 1250 50 
F4 "REF[0]" I R 6550 2050 50 
F5 "REF[1]" I R 6550 1950 50 
F6 "DELTA_MODE" I R 6550 1550 50 
F7 "~RESET" I R 6550 1850 50 
F8 "VRef+" I L 5600 1950 50 
F9 "VRef-" I L 5600 2050 50 
F10 "~ENABLE" I R 6550 1450 50 
$EndSheet
Wire Wire Line
	3450 1850 3650 1850
Wire Wire Line
	3450 2350 5400 2350
Wire Wire Line
	5400 1950 5400 2350
Wire Wire Line
	3450 1850 3450 2350
Wire Wire Line
	3550 2450 5500 2450
$Sheet
S 2050 2250 1000 300 
U 5C88365D
F0 "Voltage References" 50
F1 "References.sch" 50
F2 "VRef+" O R 3050 2350 50 
F3 "VRef-" O R 3050 2450 50 
F4 "REF[0]" I L 2050 2450 50 
F5 "REF[1]" I L 2050 2350 50 
$EndSheet
Connection ~ 3450 2350
Wire Wire Line
	3050 2350 3450 2350
Wire Wire Line
	3050 2450 3550 2450
Connection ~ 3550 2450
Text Label 3350 1850 2    50   ~ 0
IN.GAIN[1]
Text Label 3350 1950 2    50   ~ 0
IN.GAIN[0]
Wire Wire Line
	2650 7550 2650 7500
Wire Wire Line
	2650 7500 1900 7500
Wire Wire Line
	1900 7500 1900 7150
Wire Wire Line
	1900 6950 1950 6950
Connection ~ 2650 7500
Wire Wire Line
	2650 7500 2650 7450
Wire Wire Line
	1950 7050 1900 7050
Connection ~ 1900 7050
Wire Wire Line
	1900 7050 1900 6950
Wire Wire Line
	1950 7150 1900 7150
Connection ~ 1900 7150
Wire Wire Line
	1900 7150 1900 7050
Wire Wire Line
	2850 1350 3350 1350
Text Label 3350 1350 2    50   ~ 0
IN.~FAULT
Text Label 3350 1450 2    50   ~ 0
IN.AC
Wire Wire Line
	2850 1450 3350 1450
Wire Wire Line
	2850 1850 3350 1850
Wire Wire Line
	2850 1950 3350 1950
Text Label 3850 6650 2    50   ~ 0
IN.GAIN[1]
Text Label 3850 6550 2    50   ~ 0
IN.GAIN[0]
Text Label 3850 7150 2    50   ~ 0
IN.~FAULT
Text Label 3850 7050 2    50   ~ 0
IN.AC
Wire Wire Line
	3350 6650 3850 6650
Wire Wire Line
	3350 6550 3850 6550
Wire Wire Line
	4600 1450 5200 1450
Wire Wire Line
	5400 1250 5600 1250
Wire Wire Line
	5400 1950 5600 1950
Wire Wire Line
	8850 1250 9050 1250
Wire Wire Line
	8050 1350 8050 1650
Wire Wire Line
	8250 1350 8050 1350
Wire Wire Line
	7750 1150 7850 1150
$Comp
L power:+3.3V #PWR018
U 1 1 5C865DED
P 8850 900
F 0 "#PWR018" H 8850 750 50  0001 C CNN
F 1 "+3.3V" H 8850 1050 50  0000 C CNN
F 2 "" H 8850 900 50  0001 C CNN
F 3 "" H 8850 900 50  0001 C CNN
	1    8850 900 
	1    0    0    -1  
$EndComp
Wire Wire Line
	8650 950  8650 1000
Wire Wire Line
	8850 950  8650 950 
Wire Wire Line
	8850 950  8850 900 
Wire Wire Line
	8250 950  8250 900 
Wire Wire Line
	8450 950  8250 950 
Wire Wire Line
	8450 1000 8450 950 
Wire Wire Line
	8350 1600 8350 1650
Wire Wire Line
	8450 1600 8350 1600
Wire Wire Line
	8450 1550 8450 1600
Wire Wire Line
	8550 1600 8550 1550
Wire Wire Line
	8650 1600 8550 1600
Wire Wire Line
	8650 1650 8650 1600
$Comp
L power:GNDD #PWR023
U 1 1 5CBFE2BE
P 8650 1650
F 0 "#PWR023" H 8650 1400 50  0001 C CNN
F 1 "GNDD" H 8650 1500 50  0000 C CNN
F 2 "" H 8650 1650 50  0001 C CNN
F 3 "" H 8650 1650 50  0001 C CNN
	1    8650 1650
	1    0    0    -1  
$EndComp
Wire Wire Line
	8550 900  8550 1000
$Comp
L power:-5VA #PWR017
U 1 1 5CBEC6C2
P 8550 900
F 0 "#PWR017" H 8550 1000 50  0001 C CNN
F 1 "-5VA" H 8550 1050 50  0000 C CNN
F 2 "" H 8550 900 50  0001 C CNN
F 3 "" H 8550 900 50  0001 C CNN
	1    8550 900 
	1    0    0    -1  
$EndComp
$Comp
L power:+5VA #PWR016
U 1 1 5CBDBF38
P 8250 900
F 0 "#PWR016" H 8250 750 50  0001 C CNN
F 1 "+5VA" H 8250 1050 50  0000 C CNN
F 2 "" H 8250 900 50  0001 C CNN
F 3 "" H 8250 900 50  0001 C CNN
	1    8250 900 
	1    0    0    -1  
$EndComp
$Comp
L power:-5VA #PWR022
U 1 1 5CBDA28E
P 8350 1650
F 0 "#PWR022" H 8350 1750 50  0001 C CNN
F 1 "-5VA" H 8350 1800 50  0000 C CNN
F 2 "" H 8350 1650 50  0001 C CNN
F 3 "" H 8350 1650 50  0001 C CNN
	1    8350 1650
	-1   0    0    1   
$EndComp
$Comp
L power:GNDA #PWR021
U 1 1 5CBD3587
P 8050 1650
F 0 "#PWR021" H 8050 1400 50  0001 C CNN
F 1 "GNDA" H 8050 1500 50  0000 C CNN
F 2 "" H 8050 1650 50  0001 C CNN
F 3 "" H 8050 1650 50  0001 C CNN
	1    8050 1650
	1    0    0    -1  
$EndComp
Wire Wire Line
	6550 1250 7150 1250
Wire Wire Line
	5400 1050 5400 1150
Wire Wire Line
	7150 1050 5400 1050
Connection ~ 5400 1150
Wire Wire Line
	5400 1150 5400 1250
Wire Wire Line
	5600 2050 5500 2050
Wire Wire Line
	5500 2050 5500 2450
Wire Wire Line
	3650 1950 3550 1950
Wire Wire Line
	3550 1950 3550 2450
Text Label 5200 1450 2    50   ~ 0
IS.DELTA
Wire Wire Line
	6550 1550 7150 1550
Wire Wire Line
	6550 1450 6650 1450
Text Label 7150 1450 2    50   ~ 0
IS2.~EN
Text Label 7150 1550 2    50   ~ 0
IS.DELTA
$Comp
L power:+3V3 #PWR027
U 1 1 5D71B829
P 2650 5250
F 0 "#PWR027" H 2650 5100 50  0001 C CNN
F 1 "+3V3" H 2650 5400 50  0000 C CNN
F 2 "" H 2650 5250 50  0001 C CNN
F 3 "" H 2650 5250 50  0001 C CNN
	1    2650 5250
	1    0    0    -1  
$EndComp
Wire Wire Line
	6650 750  7450 750 
Wire Wire Line
	7450 750  7450 850 
Connection ~ 6650 1450
Wire Wire Line
	6650 1450 7150 1450
Wire Wire Line
	3350 5850 3850 5850
Wire Wire Line
	3350 5950 3850 5950
Wire Wire Line
	3350 6050 3850 6050
Wire Wire Line
	3350 6150 3850 6150
Text Label 3850 5650 2    50   ~ 0
IS2.~EN
Text Label 3850 5550 2    50   ~ 0
IS1.~EN
Text Label 3850 5750 2    50   ~ 0
IS.DELTA
Text Label 3850 5950 2    50   ~ 0
IS.SLOPE[1]
Text Label 3850 5850 2    50   ~ 0
IS.SLOPE[0]
Wire Wire Line
	1750 2450 2050 2450
Wire Wire Line
	1750 2350 2050 2350
Text Label 1750 2350 0    50   ~ 0
REF[1]
Text Label 1750 2450 0    50   ~ 0
REF[0]
Text Label 3850 6050 2    50   ~ 0
REF[0]
Text Label 3850 6150 2    50   ~ 0
REF[1]
Text Label 5200 1350 2    50   ~ 0
IS1.~EN
Wire Wire Line
	4600 1350 5200 1350
Wire Wire Line
	3350 5550 4050 5550
Wire Wire Line
	4550 5250 4550 5650
Wire Wire Line
	4050 5250 4050 5550
$Comp
L power:+3V3 #PWR024
U 1 1 5CBC38A6
P 4050 4750
F 0 "#PWR024" H 4050 4600 50  0001 C CNN
F 1 "+3V3" H 4050 4900 50  0000 C CNN
F 2 "" H 4050 4750 50  0001 C CNN
F 3 "" H 4050 4750 50  0001 C CNN
	1    4050 4750
	1    0    0    -1  
$EndComp
$Comp
L power:+3V3 #PWR025
U 1 1 5CBC3E0D
P 4550 4750
F 0 "#PWR025" H 4550 4600 50  0001 C CNN
F 1 "+3V3" H 4550 4900 50  0000 C CNN
F 2 "" H 4550 4750 50  0001 C CNN
F 3 "" H 4550 4750 50  0001 C CNN
	1    4550 4750
	1    0    0    -1  
$EndComp
Wire Wire Line
	3850 5750 3350 5750
Wire Wire Line
	3350 7050 3850 7050
Wire Wire Line
	3850 7150 3350 7150
$Comp
L power:+3V3 #PWR031
U 1 1 5E12F223
P 1950 6450
F 0 "#PWR031" H 1950 6300 50  0001 C CNN
F 1 "+3V3" V 1950 6700 50  0000 C CNN
F 2 "" H 1950 6450 50  0001 C CNN
F 3 "" H 1950 6450 50  0001 C CNN
	1    1950 6450
	0    -1   -1   0   
$EndComp
Text Label 3850 6250 2    50   ~ 0
~ACTIVE
NoConn ~ 1950 6150
Text HLabel 1650 6250 0    50   Output ~ 0
~INT
Wire Wire Line
	1650 6250 1750 6250
Text HLabel 4650 1850 2    50   Input ~ 0
IntSum1.REF[1]
Wire Wire Line
	4650 1850 4600 1850
Text HLabel 4650 1950 2    50   Input ~ 0
IntSum1.REF[0]
Wire Wire Line
	4650 1950 4600 1950
Text HLabel 4650 1750 2    50   Input ~ 0
IntSum1.~RESET
Wire Wire Line
	4650 1750 4600 1750
Text HLabel 6600 1950 2    50   Input ~ 0
IntSum2.REF[1]
Text HLabel 6600 2050 2    50   Input ~ 0
IntSum2.REF[0]
Text HLabel 6600 1850 2    50   Input ~ 0
IntSum2.~RESET
Wire Wire Line
	6550 1850 6600 1850
Wire Wire Line
	6550 1950 6600 1950
Wire Wire Line
	6550 2050 6600 2050
Wire Wire Line
	1750 6250 1750 6150
Connection ~ 1750 6250
Wire Wire Line
	1750 6250 1950 6250
$Comp
L power:+3V3 #PWR028
U 1 1 5EFD9DEA
P 1750 5950
F 0 "#PWR028" H 1750 5800 50  0001 C CNN
F 1 "+3V3" H 1750 6100 50  0000 C CNN
F 2 "" H 1750 5950 50  0001 C CNN
F 3 "" H 1750 5950 50  0001 C CNN
	1    1750 5950
	1    0    0    -1  
$EndComp
$Comp
L Capstone:LT1719xS8 U3
U 1 1 5D2A4B9B
P 8550 1250
F 0 "U3" H 8700 1450 50  0000 L CNN
F 1 "LT1719xS8" H 8600 1100 50  0000 L CNN
F 2 "Package_SO:SOIC-8_3.9x4.9mm_P1.27mm" H 8600 1900 50  0001 C CNN
F 3 "https://www.analog.com/media/en/technical-documentation/data-sheets/1719fa.pdf" H 8550 1250 50  0001 C CNN
F 4 "Analog Devices" H -500 0   50  0001 C CNN "Manufacturer"
F 5 "LT1719CS8#PBF" H -500 0   50  0001 C CNN "PN"
	1    8550 1250
	1    0    0    -1  
$EndComp
$Comp
L Analog_Switch:DG419LEUA U2
U 1 1 5D16FA39
P 7450 1250
F 0 "U2" H 7450 1492 50  0000 C CNN
F 1 "DG419LE" H 7450 1401 50  0000 C CNN
F 2 "Package_SO:MSOP-8_3x3mm_P0.65mm" H 7450 1150 50  0001 C CNN
F 3 "http://www.vishay.com/docs/76432/dg417le.pdf" H 7450 1250 50  0001 C CNN
F 4 "Vishay" H -600 0   50  0001 C CNN "Manufacturer"
F 5 "DG419LEDQ-T1-GE3" H -600 0   50  0001 C CNN "PN"
	1    7450 1250
	-1   0    0    1   
$EndComp
$Comp
L Device:LED D4
U 1 1 5CB3BA51
P 4050 5100
F 0 "D4" V 4089 4982 50  0000 R CNN
F 1 "YELLOW" V 3998 4982 50  0000 R CNN
F 2 "Diode_SMD:D_0805_2012Metric" H 4050 5100 50  0001 C CNN
F 3 "~" H 4050 5100 50  0001 C CNN
	1    4050 5100
	0    -1   -1   0   
$EndComp
$Comp
L Device:LED D5
U 1 1 5CB9800C
P 4550 5100
F 0 "D5" V 4589 4982 50  0000 R CNN
F 1 "YELLOW" V 4498 4982 50  0000 R CNN
F 2 "Diode_SMD:D_0805_2012Metric" H 4550 5100 50  0001 C CNN
F 3 "~" H 4550 5100 50  0001 C CNN
	1    4550 5100
	0    -1   -1   0   
$EndComp
$Comp
L Device:R_Small R4
U 1 1 5CBC23CE
P 4050 4850
F 0 "R4" H 4120 4896 50  0000 L CNN
F 1 "120" H 4120 4805 50  0000 L CNN
F 2 "Resistor_SMD:R_0603_1608Metric" V 3980 4850 50  0001 C CNN
F 3 "~" H 4050 4850 50  0001 C CNN
F 4 "Yageo" H -4900 1300 50  0001 C CNN "Manufacturer"
F 5 "RC0603JR-07120R" H -4900 1300 50  0001 C CNN "PN"
F 6 "5%" H -4900 1300 50  0001 C CNN "Tolerance"
	1    4050 4850
	1    0    0    -1  
$EndComp
$Comp
L Device:R_Small R5
U 1 1 5CBC27A8
P 4550 4850
F 0 "R5" H 4620 4896 50  0000 L CNN
F 1 "120" H 4620 4805 50  0000 L CNN
F 2 "Resistor_SMD:R_0603_1608Metric" V 4480 4850 50  0001 C CNN
F 3 "~" H 4550 4850 50  0001 C CNN
F 4 "Yageo" H -4800 1300 50  0001 C CNN "Manufacturer"
F 5 "RC0603JR-07120R" H -4800 1300 50  0001 C CNN "PN"
F 6 "5%" H -4800 1300 50  0001 C CNN "Tolerance"
	1    4550 4850
	1    0    0    -1  
$EndComp
$Comp
L Device:R_Small R7
U 1 1 5EFCB98D
P 1750 6050
F 0 "R7" H 1692 6004 50  0000 R CNN
F 1 "10k" H 1692 6095 50  0000 R CNN
F 2 "Resistor_SMD:R_0603_1608Metric" H 1750 6050 50  0001 C CNN
F 3 "~" H 1750 6050 50  0001 C CNN
F 4 "Yageo" H -4900 1500 50  0001 C CNN "Manufacturer"
F 5 "RC0603JR-0710K" H -4900 1500 50  0001 C CNN "PN"
F 6 "5%" H -4900 1500 50  0001 C CNN "Tolerance"
	1    1750 6050
	1    0    0    1   
$EndComp
$Comp
L Interface_Expansion:MCP23017_SS U4
U 1 1 5C7CE348
P 2650 6350
F 0 "U4" H 2200 7300 50  0000 C CNN
F 1 "MCP23017_SS" H 2950 5400 50  0000 C CNN
F 2 "Package_SO:SSOP-28_5.3x10.2mm_P0.65mm" H 2850 5350 50  0001 L CNN
F 3 "http://ww1.microchip.com/downloads/en/DeviceDoc/20001952C.pdf" H 2850 5250 50  0001 L CNN
F 4 "Microchip" H -4900 1500 50  0001 C CNN "Manufacturer"
F 5 "MCP23017T-E/SS" H -4900 1500 50  0001 C CNN "PN"
	1    2650 6350
	1    0    0    -1  
$EndComp
$Comp
L Connector:AudioJack3_Switch J3
U 1 1 5CCFD0C6
P 1250 1350
F 0 "J3" H 971 1258 50  0000 R CNN
F 1 "NMJ6HCD2" H 971 1349 50  0000 R CNN
F 2 "Connector_Audio:Jack_3.5mm_Neutrik_NMJ6HCD2_Horizontal" H 1250 1350 50  0001 C CNN
F 3 "~" H 1250 1350 50  0001 C CNN
F 4 "Neutrik" H 1250 1350 50  0001 C CNN "Manufacturer"
F 5 "NMJ6HCD2" H 1250 1350 50  0001 C CNN "PN"
	1    1250 1350
	1    0    0    1   
$EndComp
Wire Wire Line
	1450 1450 1650 1450
Wire Wire Line
	1650 1450 1650 1050
Wire Wire Line
	1850 1550 1450 1550
Wire Wire Line
	1850 1550 1850 1650
Wire Wire Line
	1450 1050 1550 1050
Connection ~ 1550 1250
Wire Wire Line
	1450 1250 1550 1250
Wire Wire Line
	1550 1050 1550 1250
Wire Wire Line
	1550 1250 1550 1650
$Comp
L Device:R R3
U 1 1 5CF2A83A
P 1650 900
F 0 "R3" H 1720 946 50  0000 L CNN
F 1 "10k" H 1720 855 50  0000 L CNN
F 2 "Resistor_SMD:R_0603_1608Metric" V 1580 900 50  0001 C CNN
F 3 "~" H 1650 900 50  0001 C CNN
F 4 "Yageo" H 1650 900 50  0001 C CNN "Manufacturer"
F 5 "RC0603JR-0710K" H 1650 900 50  0001 C CNN "PN"
F 6 "5%" H 1650 900 50  0001 C CNN "Tolerance"
	1    1650 900 
	1    0    0    -1  
$EndComp
$Comp
L power:+3V3 #PWR015
U 1 1 5CF2B7A0
P 1650 750
F 0 "#PWR015" H 1650 600 50  0001 C CNN
F 1 "+3V3" H 1665 923 50  0000 C CNN
F 2 "" H 1650 750 50  0001 C CNN
F 3 "" H 1650 750 50  0001 C CNN
	1    1650 750 
	1    0    0    -1  
$EndComp
Wire Wire Line
	1650 1450 1950 1450
Connection ~ 1650 1450
Text Label 1950 1450 2    50   ~ 0
~PLUG
Wire Wire Line
	2050 1150 1450 1150
Wire Wire Line
	1450 1350 2050 1350
$Comp
L Device:R_Small R6
U 1 1 5E20DA8A
P 5050 4850
F 0 "R6" H 5120 4896 50  0000 L CNN
F 1 "120" H 5120 4805 50  0000 L CNN
F 2 "Resistor_SMD:R_0603_1608Metric" V 4980 4850 50  0001 C CNN
F 3 "~" H 5050 4850 50  0001 C CNN
F 4 "Yageo" H -4700 1300 50  0001 C CNN "Manufacturer"
F 5 "RC0603JR-07120R" H -4700 1300 50  0001 C CNN "PN"
F 6 "5%" H -4700 1300 50  0001 C CNN "Tolerance"
	1    5050 4850
	1    0    0    -1  
$EndComp
$Comp
L Device:LED D6
U 1 1 5E20DA83
P 5050 5100
F 0 "D6" V 5089 4982 50  0000 R CNN
F 1 "YELLOW" V 4998 4982 50  0000 R CNN
F 2 "Diode_SMD:D_0805_2012Metric" H 5050 5100 50  0001 C CNN
F 3 "~" H 5050 5100 50  0001 C CNN
	1    5050 5100
	0    -1   -1   0   
$EndComp
Wire Wire Line
	5050 5250 5050 6250
$Comp
L power:+3V3 #PWR026
U 1 1 5E20DA90
P 5050 4750
F 0 "#PWR026" H 5050 4600 50  0001 C CNN
F 1 "+3V3" H 5050 4900 50  0000 C CNN
F 2 "" H 5050 4750 50  0001 C CNN
F 3 "" H 5050 4750 50  0001 C CNN
	1    5050 4750
	1    0    0    -1  
$EndComp
Wire Wire Line
	3350 6450 3850 6450
Text Label 3850 6450 2    50   ~ 0
~PLUG
$Sheet
S 2050 2850 1200 1200
U 5CD8DC6B
F0 "DAC Interface" 50
F1 "DAC.sch" 50
F2 "MISO+" O R 3250 2950 50 
F3 "MISO-" O R 3250 3050 50 
F4 "SCLK_R+" O R 3250 3250 50 
F5 "SCLK_R-" O R 3250 3350 50 
F6 "~CS_SLOPE~+" I L 2050 2950 50 
F7 "~CS_SLOPE~-" I L 2050 3050 50 
F8 "MOSI+" I L 2050 3850 50 
F9 "MOSI-" I L 2050 3950 50 
F10 "~CS_REF~-" I L 2050 3350 50 
F11 "~CS_REF~+" I L 2050 3250 50 
F12 "SCLK_W-" I L 2050 3650 50 
F13 "SCLK_W+" I L 2050 3550 50 
$EndSheet
Text HLabel 1950 2950 0    50   Input ~ 0
~CS_SLOPE~+
Text HLabel 1950 3050 0    50   Input ~ 0
~CS_SLOPE~-
Wire Wire Line
	1950 2950 2050 2950
Wire Wire Line
	2050 3050 1950 3050
Text HLabel 1950 3350 0    50   Input ~ 0
~CS_REF~-
Text HLabel 1950 3250 0    50   Input ~ 0
~CS_REF~+
Wire Wire Line
	1950 3250 2050 3250
Wire Wire Line
	1950 3350 2050 3350
Text HLabel 1950 3550 0    50   Input ~ 0
MOSI+
Text HLabel 1950 3650 0    50   Input ~ 0
MOSI-
Wire Wire Line
	1950 3550 2050 3550
Wire Wire Line
	1950 3650 2050 3650
Text HLabel 1950 3950 0    50   Input ~ 0
SCLK_W-
Text HLabel 1950 3850 0    50   Input ~ 0
SCLK_W+
Wire Wire Line
	1950 3850 2050 3850
Wire Wire Line
	1950 3950 2050 3950
Text HLabel 3350 3050 2    50   Output ~ 0
MISO+
Text HLabel 3350 2950 2    50   Output ~ 0
MISO-
Wire Wire Line
	3350 2950 3250 2950
Wire Wire Line
	3350 3050 3250 3050
Text HLabel 3350 3350 2    50   Output ~ 0
SCLK_R+
Text HLabel 3350 3250 2    50   Output ~ 0
SCLK_R-
Wire Wire Line
	3350 3250 3250 3250
Wire Wire Line
	3250 3350 3350 3350
Wire Wire Line
	9000 6250 9000 6300
Wire Wire Line
	9000 6300 8900 6300
Wire Wire Line
	8900 6300 8900 6350
$Comp
L power:GNDD #PWR040
U 1 1 5F415F32
P 8900 6350
F 0 "#PWR040" H 8900 6100 50  0001 C CNN
F 1 "GNDD" H 8900 6200 50  0000 C CNN
F 2 "" H 8900 6350 50  0001 C CNN
F 3 "" H 8900 6350 50  0001 C CNN
	1    8900 6350
	1    0    0    -1  
$EndComp
$Comp
L power:-5VA #PWR041
U 1 1 5F4173F7
P 9200 6350
F 0 "#PWR041" H 9200 6450 50  0001 C CNN
F 1 "-5VA" H 9200 6500 50  0000 C CNN
F 2 "" H 9200 6350 50  0001 C CNN
F 3 "" H 9200 6350 50  0001 C CNN
	1    9200 6350
	-1   0    0    1   
$EndComp
Wire Wire Line
	9200 6350 9200 6300
Wire Wire Line
	9200 6300 9100 6300
Wire Wire Line
	9100 6300 9100 6250
$Comp
L power:+3V3 #PWR037
U 1 1 5F4521D0
P 9200 5150
F 0 "#PWR037" H 9200 5000 50  0001 C CNN
F 1 "+3V3" H 9200 5300 50  0000 C CNN
F 2 "" H 9200 5150 50  0001 C CNN
F 3 "" H 9200 5150 50  0001 C CNN
	1    9200 5150
	1    0    0    -1  
$EndComp
Wire Wire Line
	9200 5150 9200 5200
Wire Wire Line
	9200 5200 9100 5200
Wire Wire Line
	9100 5200 9100 5250
$Comp
L power:+5VA #PWR036
U 1 1 5F462C70
P 8900 5150
F 0 "#PWR036" H 8900 5000 50  0001 C CNN
F 1 "+5VA" H 8900 5300 50  0000 C CNN
F 2 "" H 8900 5150 50  0001 C CNN
F 3 "" H 8900 5150 50  0001 C CNN
	1    8900 5150
	1    0    0    -1  
$EndComp
Wire Wire Line
	8900 5150 8900 5200
Wire Wire Line
	8900 5200 9000 5200
Wire Wire Line
	9000 5200 9000 5250
$Comp
L Analog_Switch:DG419LEUA U2
U 2 1 5F3E5AF3
P 9000 5750
F 0 "U2" H 9300 5800 50  0000 L CNN
F 1 "DG419LE" H 9300 5700 50  0000 L CNN
F 2 "Package_SO:MSOP-8_3x3mm_P0.65mm" H 9000 5650 50  0001 C CNN
F 3 "http://www.vishay.com/docs/76432/dg417le.pdf" H 9000 5750 50  0001 C CNN
F 4 "Vishay" H 950 4500 50  0001 C CNN "Manufacturer"
F 5 "DG419LEDQ-T1-GE3" H 950 4500 50  0001 C CNN "PN"
	2    9000 5750
	1    0    0    -1  
$EndComp
Text Label 6700 5700 0    50   ~ 0
IS.SLOPE[0]
Wire Wire Line
	6700 5700 7200 5700
Wire Wire Line
	6700 5800 7200 5800
Text Label 6700 5800 0    50   ~ 0
IS.SLOPE[1]
$Comp
L power:-5VA #PWR?
U 1 1 5CD10921
P 7550 6400
AR Path="/5C5F098F/5C5F0B22/5CD10921" Ref="#PWR?"  Part="1" 
AR Path="/5C5F098F/5CB3F455/5CD10921" Ref="#PWR?"  Part="1" 
AR Path="/5C5F098F/5CD10921" Ref="#PWR039"  Part="1" 
F 0 "#PWR039" H 7550 6500 50  0001 C CNN
F 1 "-5VA" H 7550 6550 50  0000 C CNN
F 2 "" H 7550 6400 50  0001 C CNN
F 3 "" H 7550 6400 50  0001 C CNN
	1    7550 6400
	-1   0    0    1   
$EndComp
$Comp
L power:GNDD #PWR?
U 1 1 5CD1091B
P 7150 6400
AR Path="/5C5F098F/5C5F0B22/5CD1091B" Ref="#PWR?"  Part="1" 
AR Path="/5C5F098F/5CB3F455/5CD1091B" Ref="#PWR?"  Part="1" 
AR Path="/5C5F098F/5CD1091B" Ref="#PWR038"  Part="1" 
F 0 "#PWR038" H 7150 6150 50  0001 C CNN
F 1 "GNDD" H 7150 6250 50  0000 C CNN
F 2 "" H 7150 6400 50  0001 C CNN
F 3 "" H 7150 6400 50  0001 C CNN
	1    7150 6400
	1    0    0    -1  
$EndComp
Wire Wire Line
	7150 6350 7150 6400
Wire Wire Line
	7450 6300 7450 6350
$Comp
L Capstone:LTC6244HVxMS8 U?
U 3 1 5CCF7BD1
P 7550 4200
AR Path="/5C5F098F/5C5F0B22/5CCF7BD1" Ref="U?"  Part="3" 
AR Path="/5C5F098F/5CB3F455/5CCF7BD1" Ref="U?"  Part="3" 
AR Path="/5C5F098F/5CCF7BD1" Ref="U18"  Part="3" 
F 0 "U18" H 7508 4246 50  0000 L CNN
F 1 "LTC6244HVxMS8" H 7508 4155 50  0000 L CNN
F 2 "Package_SO:MSOP-8_3x3mm_P0.65mm" H 7550 4200 50  0001 C CNN
F 3 "https://www.analog.com/media/en/technical-documentation/data-sheets/6244fb.pdf" H 7550 4200 50  0001 C CNN
F 4 "Analog Devices" H 2750 -2850 50  0001 C CNN "Manufacturer"
F 5 "LTC6244HVCMS8#PBF" H 2750 -2850 50  0001 C CNN "PN"
	3    7550 4200
	1    0    0    -1  
$EndComp
$Comp
L Capstone:LTC6244HVxMS8 U?
U 3 1 5CD14F12
P 9750 4200
AR Path="/5C5F098F/5C5F0B22/5CD14F12" Ref="U?"  Part="3" 
AR Path="/5C5F098F/5CB3F455/5CD14F12" Ref="U?"  Part="3" 
AR Path="/5C5F098F/5CD14F12" Ref="U20"  Part="3" 
F 0 "U20" H 9708 4246 50  0000 L CNN
F 1 "LTC6244HVxMS8" H 9708 4155 50  0000 L CNN
F 2 "Package_SO:MSOP-8_3x3mm_P0.65mm" H 9750 4200 50  0001 C CNN
F 3 "https://www.analog.com/media/en/technical-documentation/data-sheets/6244fb.pdf" H 9750 4200 50  0001 C CNN
F 4 "Analog Devices" H 4950 -2850 50  0001 C CNN "Manufacturer"
F 5 "LTC6244HVCMS8#PBF" H 4950 -2850 50  0001 C CNN "PN"
	3    9750 4200
	1    0    0    -1  
$EndComp
$Comp
L power:+5VA #PWR?
U 1 1 5CD14F0A
P 9650 3700
AR Path="/5C5F098F/5C5F0B22/5CD14F0A" Ref="#PWR?"  Part="1" 
AR Path="/5C5F098F/5CB3F455/5CD14F0A" Ref="#PWR?"  Part="1" 
AR Path="/5C5F098F/5CD14F0A" Ref="#PWR030"  Part="1" 
F 0 "#PWR030" H 9650 3550 50  0001 C CNN
F 1 "+5VA" H 9650 3850 50  0000 C CNN
F 2 "" H 9650 3700 50  0001 C CNN
F 3 "" H 9650 3700 50  0001 C CNN
	1    9650 3700
	1    0    0    -1  
$EndComp
$Comp
L power:+5VA #PWR?
U 1 1 5CCF7BD7
P 7450 3700
AR Path="/5C5F098F/5C5F0B22/5CCF7BD7" Ref="#PWR?"  Part="1" 
AR Path="/5C5F098F/5CB3F455/5CCF7BD7" Ref="#PWR?"  Part="1" 
AR Path="/5C5F098F/5CCF7BD7" Ref="#PWR029"  Part="1" 
F 0 "#PWR029" H 7450 3550 50  0001 C CNN
F 1 "+5VA" H 7450 3850 50  0000 C CNN
F 2 "" H 7450 3700 50  0001 C CNN
F 3 "" H 7450 3700 50  0001 C CNN
	1    7450 3700
	1    0    0    -1  
$EndComp
$Comp
L power:-5VA #PWR?
U 1 1 5CCF7BDD
P 7450 4700
AR Path="/5C5F098F/5C5F0B22/5CCF7BDD" Ref="#PWR?"  Part="1" 
AR Path="/5C5F098F/5CB3F455/5CCF7BDD" Ref="#PWR?"  Part="1" 
AR Path="/5C5F098F/5CCF7BDD" Ref="#PWR032"  Part="1" 
F 0 "#PWR032" H 7450 4800 50  0001 C CNN
F 1 "-5VA" H 7450 4850 50  0000 C CNN
F 2 "" H 7450 4700 50  0001 C CNN
F 3 "" H 7450 4700 50  0001 C CNN
	1    7450 4700
	-1   0    0    1   
$EndComp
$Comp
L power:-5VA #PWR?
U 1 1 5CD14F04
P 9650 4700
AR Path="/5C5F098F/5C5F0B22/5CD14F04" Ref="#PWR?"  Part="1" 
AR Path="/5C5F098F/5CB3F455/5CD14F04" Ref="#PWR?"  Part="1" 
AR Path="/5C5F098F/5CD14F04" Ref="#PWR033"  Part="1" 
F 0 "#PWR033" H 9650 4800 50  0001 C CNN
F 1 "-5VA" H 9650 4850 50  0000 C CNN
F 2 "" H 9650 4700 50  0001 C CNN
F 3 "" H 9650 4700 50  0001 C CNN
	1    9650 4700
	-1   0    0    1   
$EndComp
Text HLabel 10150 1150 2    50   Output ~ 0
COMP+
$Comp
L Connector:TestPoint TP20
U 1 1 5D32D9C3
P 5050 3150
F 0 "TP20" H 5108 3268 50  0000 L CNN
F 1 "GNDA" H 5108 3177 50  0000 L CNN
F 2 "TestPoint:TestPoint_THTPad_D1.0mm_Drill0.5mm" H 5250 3150 50  0001 C CNN
F 3 "~" H 5250 3150 50  0001 C CNN
	1    5050 3150
	1    0    0    -1  
$EndComp
$Comp
L power:GNDA #PWR0164
U 1 1 5D32E179
P 5050 3250
F 0 "#PWR0164" H 5050 3000 50  0001 C CNN
F 1 "GNDA" H 5050 3100 50  0000 C CNN
F 2 "" H 5050 3250 50  0001 C CNN
F 3 "" H 5050 3250 50  0001 C CNN
	1    5050 3250
	1    0    0    -1  
$EndComp
Wire Wire Line
	5050 3250 5050 3150
$Comp
L Connector:TestPoint TP23
U 1 1 5CE7A262
P 7850 1050
F 0 "TP23" H 7908 1168 50  0000 L CNN
F 1 "OUT2" H 7908 1077 50  0000 L CNN
F 2 "TestPoint:TestPoint_Pad_D1.0mm" H 8050 1050 50  0001 C CNN
F 3 "~" H 8050 1050 50  0001 C CNN
	1    7850 1050
	1    0    0    -1  
$EndComp
Wire Wire Line
	7850 1050 7850 1150
$Comp
L Connector:TestPoint TP13
U 1 1 5CE81BD4
P 4700 1050
F 0 "TP13" H 4758 1168 50  0000 L CNN
F 1 "OUT1" H 4758 1077 50  0000 L CNN
F 2 "TestPoint:TestPoint_Pad_D1.0mm" H 4900 1050 50  0001 C CNN
F 3 "~" H 4900 1050 50  0001 C CNN
	1    4700 1050
	1    0    0    -1  
$EndComp
Wire Wire Line
	4700 1050 4700 1150
Wire Wire Line
	2850 1150 2950 1150
Wire Wire Line
	4600 1150 4700 1150
Connection ~ 4700 1150
Wire Wire Line
	4700 1150 5400 1150
Wire Wire Line
	7850 1150 8250 1150
Connection ~ 7850 1150
$Comp
L Connector:TestPoint TP11
U 1 1 5CEB4AE0
P 2950 1050
F 0 "TP11" H 3008 1168 50  0000 L CNN
F 1 "INA" H 3008 1077 50  0000 L CNN
F 2 "TestPoint:TestPoint_Pad_D1.0mm" H 3150 1050 50  0001 C CNN
F 3 "~" H 3150 1050 50  0001 C CNN
	1    2950 1050
	1    0    0    -1  
$EndComp
Wire Wire Line
	2950 1050 2950 1150
Connection ~ 2950 1150
Wire Wire Line
	2950 1150 3650 1150
$Comp
L Connector:TestPoint TP24
U 1 1 5CEF837B
P 5400 3150
F 0 "TP24" H 5458 3268 50  0000 L CNN
F 1 "GNDA" H 5458 3177 50  0000 L CNN
F 2 "TestPoint:TestPoint_THTPad_D1.5mm_Drill0.7mm" H 5600 3150 50  0001 C CNN
F 3 "~" H 5600 3150 50  0001 C CNN
	1    5400 3150
	1    0    0    -1  
$EndComp
$Comp
L power:GNDA #PWR0167
U 1 1 5CEF8381
P 5400 3250
F 0 "#PWR0167" H 5400 3000 50  0001 C CNN
F 1 "GNDA" H 5400 3100 50  0000 C CNN
F 2 "" H 5400 3250 50  0001 C CNN
F 3 "" H 5400 3250 50  0001 C CNN
	1    5400 3250
	1    0    0    -1  
$EndComp
Wire Wire Line
	5400 3250 5400 3150
$Comp
L Interface:DS90LV011A U5
U 1 1 5CF1096A
P 9550 1250
F 0 "U5" H 9200 1600 50  0000 C CNN
F 1 "DS90LV011A" H 9600 900 50  0000 L CNN
F 2 "Package_TO_SOT_SMD:SOT-23-5" H 9550 800 50  0001 C CNN
F 3 "http://www.ti.com/lit/ds/symlink/ds90lv011a.pdf" H 9550 1350 50  0001 C CNN
F 4 "Texas Instruments" H 9550 1250 50  0001 C CNN "Manufacturer"
F 5 "DS90LV011ATMF/NOPB" H 9550 1250 50  0001 C CNN "PN"
	1    9550 1250
	1    0    0    -1  
$EndComp
Wire Wire Line
	10150 1150 10050 1150
Wire Wire Line
	10050 1350 10150 1350
Text HLabel 10150 1350 2    50   Output ~ 0
COMP-
$Comp
L power:GNDD #PWR0169
U 1 1 5CF3B5B6
P 9550 1650
F 0 "#PWR0169" H 9550 1400 50  0001 C CNN
F 1 "GNDD" H 9550 1500 50  0000 C CNN
F 2 "" H 9550 1650 50  0001 C CNN
F 3 "" H 9550 1650 50  0001 C CNN
	1    9550 1650
	1    0    0    -1  
$EndComp
Text Label 8850 1250 0    50   ~ 0
comp
Wire Wire Line
	6650 1450 6650 750 
$Comp
L Device:C C?
U 1 1 5CE5B010
P 6150 4200
AR Path="/5C5F098F/5C5F0B22/5CE5B010" Ref="C?"  Part="1" 
AR Path="/5C5F098F/5CB3F455/5CE5B010" Ref="C?"  Part="1" 
AR Path="/5C5F098F/5CE5B010" Ref="C57"  Part="1" 
F 0 "C57" H 6265 4246 50  0000 L CNN
F 1 "470n" H 6265 4155 50  0000 L CNN
F 2 "Capacitor_SMD:C_0603_1608Metric" H 6188 4050 50  0001 C CNN
F 3 "~" H 6150 4200 50  0001 C CNN
F 4 "Murata" H 6150 4200 50  0001 C CNN "Manufacturer"
F 5 "GRM188R71C474KA88D" H 6150 4200 50  0001 C CNN "PN"
F 6 "10%" H 6150 4200 50  0001 C CNN "Tolerance"
F 7 "X7R" H 6150 4200 50  0001 C CNN "Dielectric"
F 8 "16V" H 6150 4200 50  0001 C CNN "Value2"
	1    6150 4200
	1    0    0    -1  
$EndComp
Wire Wire Line
	6150 4600 6150 4350
Wire Wire Line
	6150 4050 6150 3800
$Comp
L Device:C C?
U 1 1 5CE5B01B
P 6650 4200
AR Path="/5C5F098F/5C5F0B22/5CE5B01B" Ref="C?"  Part="1" 
AR Path="/5C5F098F/5CB3F455/5CE5B01B" Ref="C?"  Part="1" 
AR Path="/5C5F098F/5CE5B01B" Ref="C59"  Part="1" 
F 0 "C59" H 6765 4246 50  0000 L CNN
F 1 "1u" H 6765 4155 50  0000 L CNN
F 2 "Capacitor_SMD:C_0805_2012Metric" H 6688 4050 50  0001 C CNN
F 3 "~" H 6650 4200 50  0001 C CNN
F 4 "Murata" H 6650 4200 50  0001 C CNN "Manufacturer"
F 5 "GRM21BR61C105KA01K" H 6650 4200 50  0001 C CNN "PN"
F 6 "10%" H 6650 4200 50  0001 C CNN "Tolerance"
F 7 "X5R" H 6650 4200 50  0001 C CNN "Dielectric"
F 8 "16V" H 6650 4200 50  0001 C CNN "Value2"
	1    6650 4200
	1    0    0    -1  
$EndComp
$Comp
L Device:C C?
U 1 1 5CE5B024
P 7050 4200
AR Path="/5C5F098F/5C5F0B22/5CE5B024" Ref="C?"  Part="1" 
AR Path="/5C5F098F/5CB3F455/5CE5B024" Ref="C?"  Part="1" 
AR Path="/5C5F098F/5CE5B024" Ref="C60"  Part="1" 
F 0 "C60" H 7165 4246 50  0000 L CNN
F 1 "1u" H 7165 4155 50  0000 L CNN
F 2 "Capacitor_SMD:C_0805_2012Metric" H 7088 4050 50  0001 C CNN
F 3 "~" H 7050 4200 50  0001 C CNN
F 4 "Murata" H 7050 4200 50  0001 C CNN "Manufacturer"
F 5 "GRM21BR61C105KA01K" H 7050 4200 50  0001 C CNN "PN"
F 6 "10%" H 7050 4200 50  0001 C CNN "Tolerance"
F 7 "X5R" H 7050 4200 50  0001 C CNN "Dielectric"
F 8 "16V" H 7050 4200 50  0001 C CNN "Value2"
	1    7050 4200
	1    0    0    -1  
$EndComp
Wire Wire Line
	6150 3800 6650 3800
Wire Wire Line
	6150 4600 6650 4600
Wire Wire Line
	6650 3800 6650 4050
Wire Wire Line
	6650 4350 6650 4600
Connection ~ 6650 3800
Wire Wire Line
	6650 3800 7050 3800
Connection ~ 6650 4600
Wire Wire Line
	6650 4600 7050 4600
Wire Wire Line
	7050 3800 7050 4050
Wire Wire Line
	7050 4350 7050 4600
Connection ~ 7050 3800
Wire Wire Line
	7050 3800 7450 3800
Connection ~ 7050 4600
Wire Wire Line
	7050 4600 7450 4600
Wire Wire Line
	7450 3800 7450 3900
Wire Wire Line
	7450 4500 7450 4600
Connection ~ 7450 4600
Wire Wire Line
	7450 4600 7450 4700
Wire Wire Line
	7450 3800 7450 3700
Connection ~ 7450 3800
$Comp
L Device:C C?
U 1 1 5CE97D14
P 8350 4200
AR Path="/5C5F098F/5C5F0B22/5CE97D14" Ref="C?"  Part="1" 
AR Path="/5C5F098F/5CB3F455/5CE97D14" Ref="C?"  Part="1" 
AR Path="/5C5F098F/5CE97D14" Ref="C62"  Part="1" 
F 0 "C62" H 8465 4246 50  0000 L CNN
F 1 "470n" H 8465 4155 50  0000 L CNN
F 2 "Capacitor_SMD:C_0603_1608Metric" H 8388 4050 50  0001 C CNN
F 3 "~" H 8350 4200 50  0001 C CNN
F 4 "Murata" H 8350 4200 50  0001 C CNN "Manufacturer"
F 5 "GRM188R71C474KA88D" H 8350 4200 50  0001 C CNN "PN"
F 6 "10%" H 8350 4200 50  0001 C CNN "Tolerance"
F 7 "X7R" H 8350 4200 50  0001 C CNN "Dielectric"
F 8 "16V" H 8350 4200 50  0001 C CNN "Value2"
	1    8350 4200
	1    0    0    -1  
$EndComp
Wire Wire Line
	8350 4600 8350 4350
Wire Wire Line
	8350 4050 8350 3800
$Comp
L Device:C C?
U 1 1 5CE97D1F
P 8850 4200
AR Path="/5C5F098F/5C5F0B22/5CE97D1F" Ref="C?"  Part="1" 
AR Path="/5C5F098F/5CB3F455/5CE97D1F" Ref="C?"  Part="1" 
AR Path="/5C5F098F/5CE97D1F" Ref="C66"  Part="1" 
F 0 "C66" H 8965 4246 50  0000 L CNN
F 1 "1u" H 8965 4155 50  0000 L CNN
F 2 "Capacitor_SMD:C_0805_2012Metric" H 8888 4050 50  0001 C CNN
F 3 "~" H 8850 4200 50  0001 C CNN
F 4 "Murata" H 8850 4200 50  0001 C CNN "Manufacturer"
F 5 "GRM21BR61C105KA01K" H 8850 4200 50  0001 C CNN "PN"
F 6 "10%" H 8850 4200 50  0001 C CNN "Tolerance"
F 7 "X5R" H 8850 4200 50  0001 C CNN "Dielectric"
F 8 "16V" H 8850 4200 50  0001 C CNN "Value2"
	1    8850 4200
	1    0    0    -1  
$EndComp
$Comp
L Device:C C?
U 1 1 5CE97D28
P 9250 4200
AR Path="/5C5F098F/5C5F0B22/5CE97D28" Ref="C?"  Part="1" 
AR Path="/5C5F098F/5CB3F455/5CE97D28" Ref="C?"  Part="1" 
AR Path="/5C5F098F/5CE97D28" Ref="C67"  Part="1" 
F 0 "C67" H 9365 4246 50  0000 L CNN
F 1 "1u" H 9365 4155 50  0000 L CNN
F 2 "Capacitor_SMD:C_0805_2012Metric" H 9288 4050 50  0001 C CNN
F 3 "~" H 9250 4200 50  0001 C CNN
F 4 "Murata" H 9250 4200 50  0001 C CNN "Manufacturer"
F 5 "GRM21BR61C105KA01K" H 9250 4200 50  0001 C CNN "PN"
F 6 "10%" H 9250 4200 50  0001 C CNN "Tolerance"
F 7 "X5R" H 9250 4200 50  0001 C CNN "Dielectric"
F 8 "16V" H 9250 4200 50  0001 C CNN "Value2"
	1    9250 4200
	1    0    0    -1  
$EndComp
Wire Wire Line
	8350 3800 8850 3800
Wire Wire Line
	8350 4600 8850 4600
Wire Wire Line
	8850 3800 8850 4050
Wire Wire Line
	8850 4350 8850 4600
Connection ~ 8850 3800
Wire Wire Line
	8850 3800 9250 3800
Connection ~ 8850 4600
Wire Wire Line
	8850 4600 9250 4600
Wire Wire Line
	9250 3800 9250 4050
Wire Wire Line
	9250 4350 9250 4600
Connection ~ 9250 3800
Wire Wire Line
	9250 3800 9650 3800
Connection ~ 9250 4600
Wire Wire Line
	9250 4600 9650 4600
Wire Wire Line
	9650 4700 9650 4600
Wire Wire Line
	9650 3900 9650 3800
Connection ~ 9650 3800
Wire Wire Line
	9650 3800 9650 3700
Connection ~ 9650 4600
Wire Wire Line
	9650 4600 9650 4500
$Sheet
S 3650 1050 950  1000
U 5C5F0B22
F0 "IntSum1" 50
F1 "IntSum.sch" 50
F2 "OUT" O R 4600 1150 50 
F3 "IN" I L 3650 1150 50 
F4 "REF[0]" I R 4600 1950 50 
F5 "REF[1]" I R 4600 1850 50 
F6 "DELTA_MODE" I R 4600 1450 50 
F7 "~RESET" I R 4600 1750 50 
F8 "VRef+" I L 3650 1850 50 
F9 "VRef-" I L 3650 1950 50 
F10 "~ENABLE" I R 4600 1350 50 
$EndSheet
NoConn ~ 3350 6750
NoConn ~ 3350 6850
NoConn ~ 3350 6950
$Comp
L Device:C C?
U 1 1 5D04D528
P 9650 2800
AR Path="/5C5F098F/5C5F0B20/5D04D528" Ref="C?"  Part="1" 
AR Path="/5C5F098F/5C5F0B22/5D04D528" Ref="C?"  Part="1" 
AR Path="/5C5F098F/5CB3F455/5D04D528" Ref="C?"  Part="1" 
AR Path="/5C5F098F/5D04D528" Ref="C103"  Part="1" 
F 0 "C103" H 9765 2846 50  0000 L CNN
F 1 "100n" H 9765 2755 50  0000 L CNN
F 2 "Capacitor_SMD:C_0603_1608Metric" H 9688 2650 50  0001 C CNN
F 3 "~" H 9650 2800 50  0001 C CNN
F 4 "Murata" H 9650 2800 50  0001 C CNN "Manufacturer"
F 5 "GRM188R71C104KA01D" H 9650 2800 50  0001 C CNN "PN"
F 6 "10%" H 9650 2800 50  0001 C CNN "Tolerance"
F 7 "X7R" H 9650 2800 50  0001 C CNN "Dielectric"
F 8 "16V" H 9650 2800 50  0001 C CNN "Value2"
	1    9650 2800
	1    0    0    -1  
$EndComp
$Comp
L power:+3V3 #PWR0184
U 1 1 5D04D536
P 9650 2450
AR Path="/5C5F098F/5D04D536" Ref="#PWR0184"  Part="1" 
AR Path="/5C5F098F/5C5F0B22/5D04D536" Ref="#PWR?"  Part="1" 
AR Path="/5C5F098F/5CB3F455/5D04D536" Ref="#PWR?"  Part="1" 
F 0 "#PWR0184" H 9650 2300 50  0001 C CNN
F 1 "+3V3" H 9650 2600 50  0000 C CNN
F 2 "" H 9650 2450 50  0001 C CNN
F 3 "" H 9650 2450 50  0001 C CNN
	1    9650 2450
	1    0    0    -1  
$EndComp
$Comp
L power:GNDD #PWR0185
U 1 1 5D04D53C
P 9650 3150
AR Path="/5C5F098F/5D04D53C" Ref="#PWR0185"  Part="1" 
AR Path="/5C5F098F/5C5F0B22/5D04D53C" Ref="#PWR?"  Part="1" 
AR Path="/5C5F098F/5CB3F455/5D04D53C" Ref="#PWR?"  Part="1" 
F 0 "#PWR0185" H 9650 2900 50  0001 C CNN
F 1 "GNDD" H 9650 3000 50  0000 C CNN
F 2 "" H 9650 3150 50  0001 C CNN
F 3 "" H 9650 3150 50  0001 C CNN
	1    9650 3150
	1    0    0    -1  
$EndComp
Wire Wire Line
	9650 2450 9650 2550
Wire Wire Line
	9650 2950 9650 3050
$Comp
L Device:C C?
U 1 1 5D379E00
P 8100 2800
AR Path="/5C5F098F/5C5F0B22/5D379E00" Ref="C?"  Part="1" 
AR Path="/5C5F098F/5CB3F455/5D379E00" Ref="C?"  Part="1" 
AR Path="/5C5F098F/5D379E00" Ref="C111"  Part="1" 
F 0 "C111" H 8215 2846 50  0000 L CNN
F 1 "470n" H 8215 2755 50  0000 L CNN
F 2 "Capacitor_SMD:C_0603_1608Metric" H 8138 2650 50  0001 C CNN
F 3 "~" H 8100 2800 50  0001 C CNN
F 4 "Murata" H 8100 2800 50  0001 C CNN "Manufacturer"
F 5 "GRM188R71C474KA88D" H 8100 2800 50  0001 C CNN "PN"
F 6 "10%" H 8100 2800 50  0001 C CNN "Tolerance"
F 7 "X7R" H 8100 2800 50  0001 C CNN "Dielectric"
F 8 "16V" H 8100 2800 50  0001 C CNN "Value2"
	1    8100 2800
	1    0    0    -1  
$EndComp
Wire Wire Line
	8100 3050 8100 2950
Wire Wire Line
	8100 2650 8100 2550
$Comp
L Device:C C?
U 1 1 5D379E14
P 7600 2800
AR Path="/5C5F098F/5C5F0B22/5D379E14" Ref="C?"  Part="1" 
AR Path="/5C5F098F/5CB3F455/5D379E14" Ref="C?"  Part="1" 
AR Path="/5C5F098F/5D379E14" Ref="C110"  Part="1" 
F 0 "C110" H 7715 2846 50  0000 L CNN
F 1 "1u" H 7715 2755 50  0000 L CNN
F 2 "Capacitor_SMD:C_0805_2012Metric" H 7638 2650 50  0001 C CNN
F 3 "~" H 7600 2800 50  0001 C CNN
F 4 "Murata" H 7600 2800 50  0001 C CNN "Manufacturer"
F 5 "GRM21BR61C105KA01K" H 7600 2800 50  0001 C CNN "PN"
F 6 "10%" H 7600 2800 50  0001 C CNN "Tolerance"
F 7 "X5R" H 7600 2800 50  0001 C CNN "Dielectric"
F 8 "16V" H 7600 2800 50  0001 C CNN "Value2"
	1    7600 2800
	1    0    0    -1  
$EndComp
Wire Wire Line
	7100 2550 7100 2650
Wire Wire Line
	7100 2950 7100 3050
Wire Wire Line
	7600 2550 7600 2650
Wire Wire Line
	7600 2950 7600 3050
$Comp
L Device:C C?
U 1 1 5D4EE67F
P 8650 2800
AR Path="/5C5F098F/5C5F0B20/5D4EE67F" Ref="C?"  Part="1" 
AR Path="/5C5F098F/5C5F0B22/5D4EE67F" Ref="C?"  Part="1" 
AR Path="/5C5F098F/5CB3F455/5D4EE67F" Ref="C?"  Part="1" 
AR Path="/5C5F098F/5D4EE67F" Ref="C108"  Part="1" 
F 0 "C108" H 8765 2846 50  0000 L CNN
F 1 "100n" H 8765 2755 50  0000 L CNN
F 2 "Capacitor_SMD:C_0603_1608Metric" H 8688 2650 50  0001 C CNN
F 3 "~" H 8650 2800 50  0001 C CNN
F 4 "Murata" H 8650 2800 50  0001 C CNN "Manufacturer"
F 5 "GRM188R71C104KA01D" H 8650 2800 50  0001 C CNN "PN"
F 6 "10%" H 8650 2800 50  0001 C CNN "Tolerance"
F 7 "X7R" H 8650 2800 50  0001 C CNN "Dielectric"
F 8 "16V" H 8650 2800 50  0001 C CNN "Value2"
	1    8650 2800
	1    0    0    -1  
$EndComp
$Comp
L power:+3V3 #PWR0188
U 1 1 5D4EE685
P 8650 2450
AR Path="/5C5F098F/5D4EE685" Ref="#PWR0188"  Part="1" 
AR Path="/5C5F098F/5C5F0B22/5D4EE685" Ref="#PWR?"  Part="1" 
AR Path="/5C5F098F/5CB3F455/5D4EE685" Ref="#PWR?"  Part="1" 
F 0 "#PWR0188" H 8650 2300 50  0001 C CNN
F 1 "+3V3" H 8650 2600 50  0000 C CNN
F 2 "" H 8650 2450 50  0001 C CNN
F 3 "" H 8650 2450 50  0001 C CNN
	1    8650 2450
	1    0    0    -1  
$EndComp
$Comp
L power:GNDD #PWR0189
U 1 1 5D4EE68B
P 8650 3150
AR Path="/5C5F098F/5D4EE68B" Ref="#PWR0189"  Part="1" 
AR Path="/5C5F098F/5C5F0B22/5D4EE68B" Ref="#PWR?"  Part="1" 
AR Path="/5C5F098F/5CB3F455/5D4EE68B" Ref="#PWR?"  Part="1" 
F 0 "#PWR0189" H 8650 2900 50  0001 C CNN
F 1 "GNDD" H 8650 3000 50  0000 C CNN
F 2 "" H 8650 3150 50  0001 C CNN
F 3 "" H 8650 3150 50  0001 C CNN
	1    8650 3150
	1    0    0    -1  
$EndComp
Wire Wire Line
	8650 2450 8650 2550
Wire Wire Line
	8650 2950 8650 3050
$Comp
L Device:CP1 C?
U 1 1 5D4FDD15
P 7100 2800
AR Path="/5CBF1A8E/5D4FDD15" Ref="C?"  Part="1" 
AR Path="/5E105304/5D4FDD15" Ref="C?"  Part="1" 
AR Path="/5C5F098F/5D4FDD15" Ref="C109"  Part="1" 
F 0 "C109" H 7215 2846 50  0000 L CNN
F 1 "3.3u" H 7215 2755 50  0000 L CNN
F 2 "Capacitor_Tantalum_SMD:CP_EIA-3216-18_Kemet-A" H 7100 2800 50  0001 C CNN
F 3 "http://datasheets.avx.com/TAJ.pdf" H 7100 2800 50  0001 C CNN
F 4 "TAJA335K016RNJ" H 7100 2800 50  0001 C CNN "PN"
F 5 "AVX" H 2500 -2200 50  0001 C CNN "Manufacturer"
F 6 "10%" H 7100 2800 50  0001 C CNN "Tolerance"
F 7 "Ta" H 7100 2800 50  0001 C CNN "Dielectric"
F 8 "16V" H 7100 2800 50  0001 C CNN "Value2"
	1    7100 2800
	1    0    0    -1  
$EndComp
$Comp
L power:+5VA #PWR0190
U 1 1 5D50AC71
P 7100 2450
F 0 "#PWR0190" H 7100 2300 50  0001 C CNN
F 1 "+5VA" H 7100 2600 50  0000 C CNN
F 2 "" H 7100 2450 50  0001 C CNN
F 3 "" H 7100 2450 50  0001 C CNN
	1    7100 2450
	1    0    0    -1  
$EndComp
$Comp
L power:-5VA #PWR0191
U 1 1 5D50B08B
P 7100 3150
F 0 "#PWR0191" H 7100 3250 50  0001 C CNN
F 1 "-5VA" H 7100 3300 50  0000 C CNN
F 2 "" H 7100 3150 50  0001 C CNN
F 3 "" H 7100 3150 50  0001 C CNN
	1    7100 3150
	-1   0    0    1   
$EndComp
Wire Wire Line
	7100 3150 7100 3050
Connection ~ 7100 3050
Wire Wire Line
	7100 2550 7100 2450
Connection ~ 7100 2550
Connection ~ 7600 2550
Connection ~ 7600 3050
Wire Wire Line
	7100 2550 7600 2550
Wire Wire Line
	7100 3050 7600 3050
Wire Wire Line
	7600 2550 8100 2550
Wire Wire Line
	7600 3050 8100 3050
$Comp
L Device:C C?
U 1 1 5D5A2D31
P 9150 2800
AR Path="/5C5F098F/5C5F0B20/5D5A2D31" Ref="C?"  Part="1" 
AR Path="/5C5F098F/5C5F0B22/5D5A2D31" Ref="C?"  Part="1" 
AR Path="/5C5F098F/5CB3F455/5D5A2D31" Ref="C?"  Part="1" 
AR Path="/5C5F098F/5D5A2D31" Ref="C112"  Part="1" 
F 0 "C112" H 9265 2846 50  0000 L CNN
F 1 "10n" H 9265 2755 50  0000 L CNN
F 2 "Capacitor_SMD:C_0603_1608Metric" H 9188 2650 50  0001 C CNN
F 3 "~" H 9150 2800 50  0001 C CNN
F 4 "Murata" H 9150 2800 50  0001 C CNN "Manufacturer"
F 5 "GRM188R71H103KA01D" H 9150 2800 50  0001 C CNN "PN"
F 6 "10%" H 9150 2800 50  0001 C CNN "Tolerance"
F 7 "X7R" H 9150 2800 50  0001 C CNN "Dielectric"
F 8 "50V" H 9150 2800 50  0001 C CNN "Value2"
	1    9150 2800
	1    0    0    -1  
$EndComp
Wire Wire Line
	8650 3050 9150 3050
Wire Wire Line
	9150 3050 9150 2950
Wire Wire Line
	9150 2550 8650 2550
Wire Wire Line
	9150 2650 9150 2550
Connection ~ 8650 3050
Wire Wire Line
	8650 3050 8650 3150
Connection ~ 8650 2550
Wire Wire Line
	8650 2550 8650 2650
$Comp
L Device:C C?
U 1 1 5D6501A9
P 10150 2800
AR Path="/5C5F098F/5C5F0B20/5D6501A9" Ref="C?"  Part="1" 
AR Path="/5C5F098F/5C5F0B22/5D6501A9" Ref="C?"  Part="1" 
AR Path="/5C5F098F/5CB3F455/5D6501A9" Ref="C?"  Part="1" 
AR Path="/5C5F098F/5D6501A9" Ref="C113"  Part="1" 
F 0 "C113" H 10265 2846 50  0000 L CNN
F 1 "10n" H 10265 2755 50  0000 L CNN
F 2 "Capacitor_SMD:C_0603_1608Metric" H 10188 2650 50  0001 C CNN
F 3 "~" H 10150 2800 50  0001 C CNN
F 4 "Murata" H 10150 2800 50  0001 C CNN "Manufacturer"
F 5 "GRM188R71H103KA01D" H 10150 2800 50  0001 C CNN "PN"
F 6 "10%" H 10150 2800 50  0001 C CNN "Tolerance"
F 7 "X7R" H 10150 2800 50  0001 C CNN "Dielectric"
F 8 "50V" H 10150 2800 50  0001 C CNN "Value2"
	1    10150 2800
	1    0    0    -1  
$EndComp
Wire Wire Line
	9650 3050 10150 3050
Wire Wire Line
	10150 3050 10150 2950
Wire Wire Line
	10150 2550 9650 2550
Wire Wire Line
	10150 2650 10150 2550
Connection ~ 9650 3050
Wire Wire Line
	9650 3050 9650 3150
Connection ~ 9650 2550
Wire Wire Line
	9650 2550 9650 2650
$Comp
L power:+5VA #PWR?
U 1 1 5D7079FA
P 7450 5200
AR Path="/5C5F098F/5C5F0B22/5D7079FA" Ref="#PWR?"  Part="1" 
AR Path="/5C5F098F/5CB3F455/5D7079FA" Ref="#PWR?"  Part="1" 
AR Path="/5C5F098F/5D7079FA" Ref="#PWR0192"  Part="1" 
F 0 "#PWR0192" H 7450 5050 50  0001 C CNN
F 1 "+5VA" H 7450 5350 50  0000 C CNN
F 2 "" H 7450 5200 50  0001 C CNN
F 3 "" H 7450 5200 50  0001 C CNN
	1    7450 5200
	1    0    0    -1  
$EndComp
$Comp
L Device:C C?
U 1 1 5DAB5A8D
P 950 6350
AR Path="/5C5F098F/5C5F0B20/5DAB5A8D" Ref="C?"  Part="1" 
AR Path="/5C5F098F/5C5F0B22/5DAB5A8D" Ref="C?"  Part="1" 
AR Path="/5C5F098F/5CB3F455/5DAB5A8D" Ref="C?"  Part="1" 
AR Path="/5C5F098F/5DAB5A8D" Ref="C117"  Part="1" 
F 0 "C117" H 1065 6396 50  0000 L CNN
F 1 "100n" H 1065 6305 50  0000 L CNN
F 2 "Capacitor_SMD:C_0603_1608Metric" H 988 6200 50  0001 C CNN
F 3 "~" H 950 6350 50  0001 C CNN
F 4 "Murata" H 950 6350 50  0001 C CNN "Manufacturer"
F 5 "GRM188R71C104KA01D" H 950 6350 50  0001 C CNN "PN"
F 6 "10%" H 950 6350 50  0001 C CNN "Tolerance"
F 7 "X7R" H 950 6350 50  0001 C CNN "Dielectric"
F 8 "16V" H 950 6350 50  0001 C CNN "Value2"
	1    950  6350
	1    0    0    -1  
$EndComp
$Comp
L power:+3V3 #PWR0200
U 1 1 5DAB6D29
P 950 6100
F 0 "#PWR0200" H 950 5950 50  0001 C CNN
F 1 "+3V3" H 950 6250 50  0000 C CNN
F 2 "" H 950 6100 50  0001 C CNN
F 3 "" H 950 6100 50  0001 C CNN
	1    950  6100
	1    0    0    -1  
$EndComp
$Comp
L power:GNDD #PWR0201
U 1 1 5DAB7605
P 950 6600
F 0 "#PWR0201" H 950 6350 50  0001 C CNN
F 1 "GNDD" H 950 6450 50  0000 C CNN
F 2 "" H 950 6600 50  0001 C CNN
F 3 "" H 950 6600 50  0001 C CNN
	1    950  6600
	1    0    0    -1  
$EndComp
Wire Wire Line
	950  6600 950  6500
Wire Wire Line
	950  6200 950  6100
$Comp
L power:GNDA #PWR019
U 1 1 5CE8AE71
P 1550 1650
F 0 "#PWR019" H 1550 1400 50  0001 C CNN
F 1 "GNDA" H 1550 1500 50  0000 C CNN
F 2 "" H 1550 1650 50  0001 C CNN
F 3 "" H 1550 1650 50  0001 C CNN
	1    1550 1650
	1    0    0    -1  
$EndComp
$Comp
L power:-5VA #PWR020
U 1 1 5C7F95A8
P 1850 1650
F 0 "#PWR020" H 1850 1750 50  0001 C CNN
F 1 "-5VA" H 1850 1800 50  0000 C CNN
F 2 "" H 1850 1650 50  0001 C CNN
F 3 "" H 1850 1650 50  0001 C CNN
	1    1850 1650
	1    0    0    1   
$EndComp
$Comp
L power:+3V3 #PWR0168
U 1 1 5CFC409F
P 9550 850
F 0 "#PWR0168" H 9550 700 50  0001 C CNN
F 1 "+3V3" H 9550 1000 50  0000 C CNN
F 2 "" H 9550 850 50  0001 C CNN
F 3 "" H 9550 850 50  0001 C CNN
	1    9550 850 
	1    0    0    -1  
$EndComp
$Comp
L Capstone:DG4052ExQ_Split U?
U 1 1 5CD10927
P 7450 5800
AR Path="/5C5F098F/5C5F0B22/5CD10927" Ref="U?"  Part="1" 
AR Path="/5C5F098F/5CD10927" Ref="U19"  Part="1" 
F 0 "U19" H 7730 5846 50  0000 L CNN
F 1 "DG4052ExQ" H 7730 5755 50  0000 L CNN
F 2 "Package_SO:TSSOP-16_4.4x5mm_P0.65mm" H 7600 5050 50  0001 L CNN
F 3 "https://www.vishay.com/docs/69685/dg4051e.pdf" H 7705 5800 50  0001 C CNN
F 4 "Vishay" H 7450 5800 50  0001 C CNN "Manufacturer"
F 5 "DG4052EEQ-T1-GE3" H 7450 5800 50  0001 C CNN "PN"
	1    7450 5800
	1    0    0    -1  
$EndComp
Wire Wire Line
	7450 5200 7450 5300
Wire Wire Line
	7150 5900 7150 6350
Connection ~ 7150 6350
Wire Wire Line
	7550 6300 7550 6400
Wire Wire Line
	7200 5900 7150 5900
Wire Wire Line
	7150 6350 7450 6350
Text Notes 7000 6000 0    50   ~ 0
(1)
Text Notes 6300 7350 0    50   ~ 0
(1) PCB Error: ~EN~ was connected to +5VA, disabling switch\n    Fix (requires removal of U19): cut trace connected to pin 6, bridge pins 6 and 7
Wire Wire Line
	3350 5650 4550 5650
Wire Wire Line
	3350 6250 5050 6250
$EndSCHEMATC
