EESchema Schematic File Version 4
LIBS:Capstone-cache
EELAYER 29 0
EELAYER END
$Descr A4 11693 8268
encoding utf-8
Sheet 6 8
Title ""
Date ""
Rev ""
Comp ""
Comment1 ""
Comment2 ""
Comment3 ""
Comment4 ""
$EndDescr
$Comp
L power:+3V3 #PWR?
U 1 1 5CD93F0A
P 2450 2650
AR Path="/5C5F098F/5CD93F0A" Ref="#PWR?"  Part="1" 
AR Path="/5C5F098F/5CD8DC6B/5CD93F0A" Ref="#PWR0130"  Part="1" 
F 0 "#PWR0130" H 2450 2500 50  0001 C CNN
F 1 "+3V3" H 2450 2800 50  0000 C CNN
F 2 "" H 2450 2650 50  0001 C CNN
F 3 "" H 2450 2650 50  0001 C CNN
	1    2450 2650
	1    0    0    -1  
$EndComp
Wire Wire Line
	4650 3500 4750 3500
$Comp
L power:+3.3VDAC #PWR?
U 1 1 5CD93F15
P 5850 4500
AR Path="/5C5F098F/5CD93F15" Ref="#PWR?"  Part="1" 
AR Path="/5C5F098F/5CD8DC6B/5CD93F15" Ref="#PWR0138"  Part="1" 
F 0 "#PWR0138" H 6000 4450 50  0001 C CNN
F 1 "+3.3VDAC" H 5850 4650 50  0000 C CNN
F 2 "" H 5850 4500 50  0001 C CNN
F 3 "" H 5850 4500 50  0001 C CNN
	1    5850 4500
	1    0    0    -1  
$EndComp
$Comp
L Capstone:GNDDAC #PWR?
U 1 1 5CD93F1B
P 5850 5700
AR Path="/5C5F098F/5CD93F1B" Ref="#PWR?"  Part="1" 
AR Path="/5C5F098F/5CD8DC6B/5CD93F1B" Ref="#PWR0141"  Part="1" 
F 0 "#PWR0141" H 5850 5450 50  0001 C CNN
F 1 "GNDDAC" H 5850 5550 50  0000 C CNN
F 2 "" H 5850 5700 50  0001 C CNN
F 3 "" H 5850 5700 50  0001 C CNN
	1    5850 5700
	1    0    0    -1  
$EndComp
Wire Wire Line
	4650 3800 4750 3800
Wire Wire Line
	4750 3800 4750 3900
$Comp
L Capstone:GNDDAC #PWR?
U 1 1 5CD93F23
P 4750 3900
AR Path="/5C5F098F/5CD93F23" Ref="#PWR?"  Part="1" 
AR Path="/5C5F098F/5CD8DC6B/5CD93F23" Ref="#PWR0135"  Part="1" 
F 0 "#PWR0135" H 4750 3650 50  0001 C CNN
F 1 "GNDDAC" H 4750 3750 50  0000 C CNN
F 2 "" H 4750 3900 50  0001 C CNN
F 3 "" H 4750 3900 50  0001 C CNN
	1    4750 3900
	1    0    0    -1  
$EndComp
$Comp
L power:+3.3VDAC #PWR?
U 1 1 5CD93F29
P 4750 2800
AR Path="/5C5F098F/5CD93F29" Ref="#PWR?"  Part="1" 
AR Path="/5C5F098F/5CD8DC6B/5CD93F29" Ref="#PWR0132"  Part="1" 
F 0 "#PWR0132" H 4900 2750 50  0001 C CNN
F 1 "+3.3VDAC" H 4750 2950 50  0000 C CNN
F 2 "" H 4750 2800 50  0001 C CNN
F 3 "" H 4750 2800 50  0001 C CNN
	1    4750 2800
	1    0    0    -1  
$EndComp
Wire Wire Line
	4750 2800 4750 2900
Wire Wire Line
	4750 2900 4650 2900
Wire Wire Line
	5850 4500 5850 4550
Wire Wire Line
	5850 4550 5350 4550
Wire Wire Line
	5350 4550 5350 4800
Wire Wire Line
	5350 4800 5450 4800
Connection ~ 5850 4550
Wire Wire Line
	5850 4550 5850 4600
Wire Wire Line
	5850 5700 5850 5650
Wire Wire Line
	5850 5650 5350 5650
Wire Wire Line
	5350 5650 5350 4900
Wire Wire Line
	5350 4900 5450 4900
Connection ~ 5850 5650
Wire Wire Line
	5850 5650 5850 5600
$Comp
L power:+3.3VDAC #PWR?
U 1 1 5CD93F43
P 5850 3400
AR Path="/5C5F098F/5CD93F43" Ref="#PWR?"  Part="1" 
AR Path="/5C5F098F/5CD8DC6B/5CD93F43" Ref="#PWR0133"  Part="1" 
F 0 "#PWR0133" H 6000 3350 50  0001 C CNN
F 1 "+3.3VDAC" H 5850 3550 50  0000 C CNN
F 2 "" H 5850 3400 50  0001 C CNN
F 3 "" H 5850 3400 50  0001 C CNN
	1    5850 3400
	1    0    0    -1  
$EndComp
$Comp
L Capstone:GNDDAC #PWR?
U 1 1 5CD93F49
P 5850 4100
AR Path="/5C5F098F/5CD93F49" Ref="#PWR?"  Part="1" 
AR Path="/5C5F098F/5CD8DC6B/5CD93F49" Ref="#PWR0136"  Part="1" 
F 0 "#PWR0136" H 5850 3850 50  0001 C CNN
F 1 "GNDDAC" H 5850 3950 50  0000 C CNN
F 2 "" H 5850 4100 50  0001 C CNN
F 3 "" H 5850 4100 50  0001 C CNN
	1    5850 4100
	1    0    0    -1  
$EndComp
Wire Wire Line
	5350 3600 5350 3100
Wire Wire Line
	4950 3600 4650 3600
Wire Wire Line
	5350 3100 4650 3100
Wire Wire Line
	3350 4000 3350 3400
Wire Wire Line
	3250 3300 3250 3700
$Comp
L power:GNDD #PWR?
U 1 1 5CD93F5E
P 2450 4750
AR Path="/5C5F098F/5CD93F5E" Ref="#PWR?"  Part="1" 
AR Path="/5C5F098F/5CD8DC6B/5CD93F5E" Ref="#PWR0139"  Part="1" 
F 0 "#PWR0139" H 2450 4500 50  0001 C CNN
F 1 "GNDD" H 2450 4600 50  0000 C CNN
F 2 "" H 2450 4750 50  0001 C CNN
F 3 "" H 2450 4750 50  0001 C CNN
	1    2450 4750
	1    0    0    -1  
$EndComp
Connection ~ 2450 4700
Wire Wire Line
	2450 4700 2450 4750
Wire Wire Line
	1850 4350 1800 4350
Wire Wire Line
	1800 4700 1800 4350
Wire Wire Line
	2450 4700 1800 4700
Wire Wire Line
	2450 4650 2450 4700
Wire Wire Line
	3050 4000 3350 4000
Wire Wire Line
	3250 3700 3050 3700
Wire Wire Line
	3150 3400 3150 3200
Wire Wire Line
	3050 3400 3150 3400
$Comp
L power:+3V3 #PWR?
U 1 1 5CD93F6E
P 2450 5200
AR Path="/5C5F098F/5CD93F6E" Ref="#PWR?"  Part="1" 
AR Path="/5C5F098F/5CD8DC6B/5CD93F6E" Ref="#PWR0140"  Part="1" 
F 0 "#PWR0140" H 2450 5050 50  0001 C CNN
F 1 "+3V3" H 2450 5350 50  0000 C CNN
F 2 "" H 2450 5200 50  0001 C CNN
F 3 "" H 2450 5200 50  0001 C CNN
	1    2450 5200
	1    0    0    -1  
$EndComp
$Comp
L power:GNDD #PWR?
U 1 1 5CD93F74
P 2450 7300
AR Path="/5C5F098F/5CD93F74" Ref="#PWR?"  Part="1" 
AR Path="/5C5F098F/5CD8DC6B/5CD93F74" Ref="#PWR0143"  Part="1" 
F 0 "#PWR0143" H 2450 7050 50  0001 C CNN
F 1 "GNDD" H 2450 7150 50  0000 C CNN
F 2 "" H 2450 7300 50  0001 C CNN
F 3 "" H 2450 7300 50  0001 C CNN
	1    2450 7300
	1    0    0    -1  
$EndComp
Connection ~ 2450 7250
Wire Wire Line
	2450 7250 2450 7300
Wire Wire Line
	3050 6900 3100 6900
Wire Wire Line
	3100 7250 3100 6900
Wire Wire Line
	2450 7250 3100 7250
Wire Wire Line
	2450 7200 2450 7250
Wire Wire Line
	3050 3100 3850 3100
Wire Wire Line
	3850 3800 3750 3800
Wire Wire Line
	3750 3800 3750 3900
Wire Wire Line
	3550 3600 3850 3600
Wire Wire Line
	3450 3500 3850 3500
Wire Wire Line
	3350 3400 3850 3400
Wire Wire Line
	3250 3300 3850 3300
Wire Wire Line
	3150 3200 3850 3200
$Comp
L power:GNDD #PWR?
U 1 1 5CD93F88
P 3750 3900
AR Path="/5C5F098F/5CD93F88" Ref="#PWR?"  Part="1" 
AR Path="/5C5F098F/5CD8DC6B/5CD93F88" Ref="#PWR0134"  Part="1" 
F 0 "#PWR0134" H 3750 3650 50  0001 C CNN
F 1 "GNDD" H 3750 3750 50  0000 C CNN
F 2 "" H 3750 3900 50  0001 C CNN
F 3 "" H 3750 3900 50  0001 C CNN
	1    3750 3900
	1    0    0    -1  
$EndComp
Wire Wire Line
	3850 2900 3750 2900
Wire Wire Line
	3750 2900 3750 2800
$Comp
L power:+3V3 #PWR?
U 1 1 5CD93F90
P 3750 2800
AR Path="/5C5F098F/5CD93F90" Ref="#PWR?"  Part="1" 
AR Path="/5C5F098F/5CD8DC6B/5CD93F90" Ref="#PWR0131"  Part="1" 
F 0 "#PWR0131" H 3750 2650 50  0001 C CNN
F 1 "+3V3" H 3750 2950 50  0000 C CNN
F 2 "" H 3750 2800 50  0001 C CNN
F 3 "" H 3750 2800 50  0001 C CNN
	1    3750 2800
	1    0    0    -1  
$EndComp
Wire Wire Line
	1850 6500 1750 6500
Wire Wire Line
	1850 6600 1750 6600
Wire Wire Line
	1850 6200 1750 6200
Wire Wire Line
	1850 6300 1750 6300
Text HLabel 1750 6200 0    50   Output ~ 0
MISO+
Text HLabel 1750 6300 0    50   Output ~ 0
MISO-
Text HLabel 1750 6500 0    50   Output ~ 0
SCLK_R+
Text HLabel 1750 6600 0    50   Output ~ 0
SCLK_R-
Wire Wire Line
	1700 3100 1750 3100
Wire Wire Line
	1750 3100 1750 3150
Wire Wire Line
	1450 3050 1450 3100
Wire Wire Line
	1450 3100 1500 3100
Wire Wire Line
	1700 3400 1750 3400
Wire Wire Line
	1750 3400 1750 3450
Wire Wire Line
	1450 3350 1450 3400
Wire Wire Line
	1450 3400 1500 3400
Wire Wire Line
	1700 3700 1750 3700
Wire Wire Line
	1750 3700 1750 3750
Wire Wire Line
	1450 3650 1450 3700
Wire Wire Line
	1450 3700 1500 3700
Wire Wire Line
	1700 4000 1750 4000
Wire Wire Line
	1750 4000 1750 4050
Wire Wire Line
	1450 3950 1450 4000
Wire Wire Line
	1450 4000 1500 4000
Wire Wire Line
	1450 3050 1850 3050
Wire Wire Line
	1750 3150 1850 3150
Wire Wire Line
	1450 3350 1850 3350
Wire Wire Line
	1750 3450 1850 3450
Wire Wire Line
	1450 3650 1850 3650
Wire Wire Line
	1750 3750 1850 3750
Wire Wire Line
	1450 3950 1850 3950
Wire Wire Line
	1750 4050 1850 4050
Wire Wire Line
	3050 6800 3150 6800
$Comp
L power:+3V3 #PWR?
U 1 1 5CD93FB7
P 3150 6800
AR Path="/5C5F098F/5CD93FB7" Ref="#PWR?"  Part="1" 
AR Path="/5C5F098F/5CD8DC6B/5CD93FB7" Ref="#PWR0142"  Part="1" 
F 0 "#PWR0142" H 3150 6650 50  0001 C CNN
F 1 "+3V3" V 3165 6928 50  0000 L CNN
F 2 "" H 3150 6800 50  0001 C CNN
F 3 "" H 3150 6800 50  0001 C CNN
	1    3150 6800
	0    1    1    0   
$EndComp
Wire Wire Line
	1850 4250 1800 4250
$Comp
L power:+3V3 #PWR?
U 1 1 5CD93FBE
P 1800 4250
AR Path="/5C5F098F/5CD93FBE" Ref="#PWR?"  Part="1" 
AR Path="/5C5F098F/5CD8DC6B/5CD93FBE" Ref="#PWR0137"  Part="1" 
F 0 "#PWR0137" H 1800 4100 50  0001 C CNN
F 1 "+3V3" V 1815 4378 50  0000 L CNN
F 2 "" H 1800 4250 50  0001 C CNN
F 3 "" H 1800 4250 50  0001 C CNN
	1    1800 4250
	0    -1   -1   0   
$EndComp
Text Label 4800 3600 0    50   ~ 0
SDO
Text Label 3750 3500 2    50   ~ 0
SCLK_R
Text Label 4800 3100 0    50   ~ 0
~SYNC1
Text Label 3750 3600 2    50   ~ 0
MISO
Wire Wire Line
	3450 6550 3050 6550
Wire Wire Line
	3450 3500 3450 6550
Wire Wire Line
	3550 6250 3050 6250
Wire Wire Line
	3550 3600 3550 6250
NoConn ~ 1850 5900
NoConn ~ 1850 6000
Wire Wire Line
	3050 5950 3100 5950
Wire Wire Line
	3100 5950 3100 6900
Connection ~ 3100 6900
Text Label 3750 3100 2    50   ~ 0
~CS_REF
Connection ~ 1750 3450
Connection ~ 1450 3350
Wire Wire Line
	1350 3450 1750 3450
Wire Wire Line
	1450 3350 1350 3350
Connection ~ 1750 3750
Connection ~ 1450 3650
Wire Wire Line
	1350 3750 1750 3750
Wire Wire Line
	1450 3650 1350 3650
Connection ~ 1750 3150
Connection ~ 1450 3050
Text HLabel 1350 3150 0    50   Input ~ 0
~CS_REF~-
Wire Wire Line
	1350 3150 1750 3150
Wire Wire Line
	1450 3050 1350 3050
Text HLabel 1350 3050 0    50   Input ~ 0
~CS_REF~+
Connection ~ 1750 4050
Connection ~ 1450 3950
Wire Wire Line
	1350 4050 1750 4050
Wire Wire Line
	1450 3950 1350 3950
$Comp
L Capstone:AD5429 U?
U 1 1 5CD93FFC
P 5850 5100
AR Path="/5C5F098F/5CD93FFC" Ref="U?"  Part="1" 
AR Path="/5C5F098F/5CD8DC6B/5CD93FFC" Ref="U17"  Part="1" 
F 0 "U17" H 6180 5146 50  0000 L CNN
F 1 "AD5429" H 6180 5055 50  0000 L CNN
F 2 "Package_SO:TSSOP-16_4.4x5mm_P0.65mm" H 5850 4100 50  0001 C CNN
F 3 "https://www.analog.com/media/en/technical-documentation/data-sheets/AD5429_5439_5449.pdf" H 6100 5450 50  0001 C CNN
F 4 "Analog Devices" H 300 -400 50  0001 C CNN "Manufacturer"
F 5 "AD5429YRUZ" H 300 -400 50  0001 C CNN "PN"
	1    5850 5100
	1    0    0    -1  
$EndComp
$Comp
L Capstone:AD5443 U?
U 1 1 5CD94004
P 5850 3750
AR Path="/5C5F098F/5CD94004" Ref="U?"  Part="1" 
AR Path="/5C5F098F/5CD8DC6B/5CD94004" Ref="U23"  Part="1" 
F 0 "U23" H 6180 3796 50  0000 L CNN
F 1 "AD5443" H 6180 3705 50  0000 L CNN
F 2 "Package_SO:MSOP-10_3x3mm_P0.5mm" H 5850 2950 50  0001 C CNN
F 3 "https://www.analog.com/media/en/technical-documentation/data-sheets/AD5426_5432_5443.pdf" H 6100 4100 50  0001 C CNN
F 4 "Analog Devices" H 300 -400 50  0001 C CNN "Manufacturer"
F 5 "AD5443YRMZ" H 300 -400 50  0001 C CNN "PN"
	1    5850 3750
	1    0    0    -1  
$EndComp
$Comp
L Capstone:DSLVDS1048 U?
U 1 1 5CD9400C
P 2450 3650
AR Path="/5C5F098F/5CD9400C" Ref="U?"  Part="1" 
AR Path="/5C5F098F/5CD8DC6B/5CD9400C" Ref="U32"  Part="1" 
F 0 "U32" H 1950 4600 50  0000 L CNN
F 1 "DSLVDS1048" H 2950 4600 50  0000 R CNN
F 2 "Package_SO:TSSOP-16_4.4x5mm_P0.65mm" H 2450 2525 50  0001 C CNN
F 3 "https://www.ti.com/lit/ds/symlink/dslvds1048.pdf" H 2450 3750 50  0001 C CNN
F 4 "Texas Instruments" H 300 -400 50  0001 C CNN "Manufacturer"
F 5 "DSLVDS1048PWR" H 300 -400 50  0001 C CNN "PN"
	1    2450 3650
	1    0    0    -1  
$EndComp
$Comp
L Capstone:DSLVDS1047 U?
U 1 1 5CD94014
P 2450 6200
AR Path="/5C5F098F/5CD94014" Ref="U?"  Part="1" 
AR Path="/5C5F098F/5CD8DC6B/5CD94014" Ref="U35"  Part="1" 
F 0 "U35" H 2950 7150 50  0000 R CNN
F 1 "DSLVDS1047" H 1950 7150 50  0000 L CNN
F 2 "Package_SO:TSSOP-16_4.4x5mm_P0.65mm" H 2450 5000 50  0001 C CNN
F 3 "https://www.ti.com/lit/ds/symlink/dslvds1047.pdf" H 2450 6300 50  0001 C CNN
F 4 "Texas Instruments" H 300 -400 50  0001 C CNN "Manufacturer"
F 5 "DSLVDS1047PWR" H 300 -400 50  0001 C CNN "PN"
	1    2450 6200
	-1   0    0    -1  
$EndComp
$Comp
L Device:R_Small R?
U 1 1 5CD9401D
P 1600 3100
AR Path="/5C5F098F/5CD9401D" Ref="R?"  Part="1" 
AR Path="/5C5F098F/5CD8DC6B/5CD9401D" Ref="R37"  Part="1" 
F 0 "R37" V 1500 3100 50  0000 C CNN
F 1 "100" V 1600 3100 40  0000 C CNN
F 2 "Resistor_SMD:R_0402_1005Metric" H 1600 3100 50  0001 C CNN
F 3 "~" H 1600 3100 50  0001 C CNN
F 4 "Yageo" H 300 -400 50  0001 C CNN "Manufacturer"
F 5 "RC0402JR-07100R" H 300 -400 50  0001 C CNN "PN"
F 6 "5%" H 300 -400 50  0001 C CNN "Tolerance"
	1    1600 3100
	0    -1   1    0   
$EndComp
$Comp
L Device:R_Small R?
U 1 1 5CD94026
P 1600 3400
AR Path="/5C5F098F/5CD94026" Ref="R?"  Part="1" 
AR Path="/5C5F098F/5CD8DC6B/5CD94026" Ref="R38"  Part="1" 
F 0 "R38" V 1500 3400 50  0000 C CNN
F 1 "100" V 1600 3400 40  0000 C CNN
F 2 "Resistor_SMD:R_0402_1005Metric" H 1600 3400 50  0001 C CNN
F 3 "~" H 1600 3400 50  0001 C CNN
F 4 "Yageo" H 300 -400 50  0001 C CNN "Manufacturer"
F 5 "RC0402JR-07100R" H 300 -400 50  0001 C CNN "PN"
F 6 "5%" H 300 -400 50  0001 C CNN "Tolerance"
	1    1600 3400
	0    -1   1    0   
$EndComp
$Comp
L Device:R_Small R?
U 1 1 5CD9402F
P 1600 3700
AR Path="/5C5F098F/5CD9402F" Ref="R?"  Part="1" 
AR Path="/5C5F098F/5CD8DC6B/5CD9402F" Ref="R39"  Part="1" 
F 0 "R39" V 1500 3700 50  0000 C CNN
F 1 "100" V 1600 3700 40  0000 C CNN
F 2 "Resistor_SMD:R_0402_1005Metric" H 1600 3700 50  0001 C CNN
F 3 "~" H 1600 3700 50  0001 C CNN
F 4 "Yageo" H 300 -400 50  0001 C CNN "Manufacturer"
F 5 "RC0402JR-07100R" H 300 -400 50  0001 C CNN "PN"
F 6 "5%" H 300 -400 50  0001 C CNN "Tolerance"
	1    1600 3700
	0    -1   1    0   
$EndComp
$Comp
L Device:R_Small R?
U 1 1 5CD94038
P 1600 4000
AR Path="/5C5F098F/5CD94038" Ref="R?"  Part="1" 
AR Path="/5C5F098F/5CD8DC6B/5CD94038" Ref="R40"  Part="1" 
F 0 "R40" V 1500 4000 50  0000 C CNN
F 1 "100" V 1600 4000 40  0000 C CNN
F 2 "Resistor_SMD:R_0402_1005Metric" H 1600 4000 50  0001 C CNN
F 3 "~" H 1600 4000 50  0001 C CNN
F 4 "Yageo" H 300 -400 50  0001 C CNN "Manufacturer"
F 5 "RC0402JR-07100R" H 300 -400 50  0001 C CNN "PN"
F 6 "5%" H 300 -400 50  0001 C CNN "Tolerance"
	1    1600 4000
	0    -1   1    0   
$EndComp
$Comp
L Capstone:Si8662EB-B-IU U?
U 1 1 5CD94040
P 4250 3300
AR Path="/5C5F098F/5CD94040" Ref="U?"  Part="1" 
AR Path="/5C5F098F/5CD8DC6B/5CD94040" Ref="U31"  Part="1" 
F 0 "U31" H 4250 3967 50  0000 C CNN
F 1 "Si8662EB-B-IU" H 4250 3876 50  0000 C CNN
F 2 "Package_SO:QSOP-16_3.9x4.9mm_P0.635mm" H 4250 2600 50  0001 C CIN
F 3 "https://www.silabs.com/documents/public/data-sheets/Si866x.pdf" H 4250 3700 50  0001 C CNN
F 4 "Silicon Labs" H 300 -400 50  0001 C CNN "Manufacturer"
F 5 "SI8662EB-B-IU" H 300 -400 50  0001 C CNN "PN"
	1    4250 3300
	1    0    0    -1  
$EndComp
Wire Wire Line
	5450 3600 5350 3600
Wire Wire Line
	4950 3900 4950 3600
Connection ~ 4950 3900
Wire Wire Line
	5450 3900 4950 3900
Wire Wire Line
	4950 3900 4950 5400
Wire Wire Line
	5250 3200 5250 3700
Wire Wire Line
	4950 5400 5450 5400
Text HLabel 1350 4050 0    50   Input ~ 0
~CS_SLOPE~-
Text HLabel 1350 3950 0    50   Input ~ 0
~CS_SLOPE~+
Text Label 3750 3400 2    50   ~ 0
~CS_SLOPE
Wire Wire Line
	4650 3200 4750 3200
Text Label 4800 3400 0    50   ~ 0
~SYNC2
Text HLabel 1350 3750 0    50   Input ~ 0
MOSI-
Text HLabel 1350 3650 0    50   Input ~ 0
MOSI+
Text HLabel 1350 3350 0    50   Input ~ 0
SCLK_W+
Text HLabel 1350 3450 0    50   Input ~ 0
SCLK_W-
Text Label 3750 3300 2    50   ~ 0
MOSI
Text Label 3750 3200 2    50   ~ 0
SCLK_W
Text Label 4800 3300 0    50   ~ 0
SDIN
Text Label 4800 3200 0    50   ~ 0
SCLK
Wire Wire Line
	4650 3400 5050 3400
Wire Wire Line
	4650 3300 5150 3300
Wire Wire Line
	4750 3500 4750 3200
Connection ~ 4750 3200
Wire Wire Line
	4750 3200 5250 3200
Wire Wire Line
	5150 3300 5150 3800
Wire Wire Line
	5250 3700 5450 3700
Connection ~ 5250 3700
Wire Wire Line
	5150 3800 5450 3800
Connection ~ 5150 3800
Wire Wire Line
	5050 3400 5050 5100
Wire Wire Line
	5150 5300 5450 5300
Wire Wire Line
	5150 3800 5150 5300
Wire Wire Line
	5250 5200 5450 5200
Wire Wire Line
	5250 3700 5250 5200
Wire Wire Line
	5450 5100 5050 5100
NoConn ~ 1850 5600
NoConn ~ 1850 5700
Wire Wire Line
	3100 5950 3100 5650
Wire Wire Line
	3100 5650 3050 5650
Connection ~ 3100 5950
$Comp
L power:+3.3VDAC #PWR?
U 1 1 5CFD39F7
P 6900 800
AR Path="/5C5F098F/5CFD39F7" Ref="#PWR?"  Part="1" 
AR Path="/5C5F098F/5CD8DC6B/5CFD39F7" Ref="#PWR0163"  Part="1" 
F 0 "#PWR0163" H 7050 750 50  0001 C CNN
F 1 "+3.3VDAC" H 6900 950 50  0000 C CNN
F 2 "" H 6900 800 50  0001 C CNN
F 3 "" H 6900 800 50  0001 C CNN
	1    6900 800 
	1    0    0    -1  
$EndComp
$Comp
L Capstone:GNDDAC #PWR?
U 1 1 5CFD3D47
P 6900 1500
AR Path="/5C5F098F/5CFD3D47" Ref="#PWR?"  Part="1" 
AR Path="/5C5F098F/5CD8DC6B/5CFD3D47" Ref="#PWR0172"  Part="1" 
F 0 "#PWR0172" H 6900 1250 50  0001 C CNN
F 1 "GNDDAC" H 6900 1350 50  0000 C CNN
F 2 "" H 6900 1500 50  0001 C CNN
F 3 "" H 6900 1500 50  0001 C CNN
	1    6900 1500
	1    0    0    -1  
$EndComp
$Comp
L Device:C C79
U 1 1 5CFFF008
P 8100 1150
F 0 "C79" H 8215 1196 50  0000 L CNN
F 1 "1u" H 8215 1105 50  0000 L CNN
F 2 "Capacitor_SMD:C_0603_1608Metric" H 8138 1000 50  0001 C CNN
F 3 "~" H 8100 1150 50  0001 C CNN
F 4 "Murata" H 8100 1150 50  0001 C CNN "Manufacturer"
F 5 "GRM188R61A105KA61D" H 8100 1150 50  0001 C CNN "PN"
F 6 "10%" H 8100 1150 50  0001 C CNN "Tolerance"
F 7 "X5R" H 8100 1150 50  0001 C CNN "Dielectric"
F 8 "10V" H 8100 1150 50  0001 C CNN "Value2"
	1    8100 1150
	1    0    0    -1  
$EndComp
Wire Wire Line
	9300 900  9300 1000
Wire Wire Line
	9300 1300 9300 1400
Wire Wire Line
	7300 900  7700 900 
Wire Wire Line
	7300 1400 7700 1400
$Comp
L Device:C C75
U 1 1 5D00DED2
P 7300 1150
F 0 "C75" H 7415 1196 50  0000 L CNN
F 1 "4.7u" H 7415 1105 50  0000 L CNN
F 2 "Capacitor_SMD:C_0805_2012Metric" H 7338 1000 50  0001 C CNN
F 3 "~" H 7300 1150 50  0001 C CNN
F 4 "Murata" H 7300 1150 50  0001 C CNN "Manufacturer"
F 5 "GRM21BR71C475KE51L" H 7300 1150 50  0001 C CNN "PN"
F 6 "10%" H 7300 1150 50  0001 C CNN "Tolerance"
F 7 "X7R" H 7300 1150 50  0001 C CNN "Dielectric"
F 8 "16V" H 7300 1150 50  0001 C CNN "Value2"
	1    7300 1150
	1    0    0    -1  
$EndComp
Wire Wire Line
	7700 900  7700 1000
Wire Wire Line
	7700 1300 7700 1400
Connection ~ 7700 900 
Connection ~ 7700 1400
Connection ~ 8500 900 
Connection ~ 8500 1400
Wire Wire Line
	8500 900  8500 1000
Wire Wire Line
	8500 1300 8500 1400
$Comp
L Device:C C77
U 1 1 5D021DD4
P 7700 1150
F 0 "C77" H 7815 1196 50  0000 L CNN
F 1 "2.2u" H 7815 1105 50  0000 L CNN
F 2 "Capacitor_SMD:C_0603_1608Metric" H 7738 1000 50  0001 C CNN
F 3 "~" H 7700 1150 50  0001 C CNN
F 4 "Murata" H 7700 1150 50  0001 C CNN "Manufacturer"
F 5 "GRM188R61E225MA12D" H 7700 1150 50  0001 C CNN "PN"
F 6 "20%" H 7700 1150 50  0001 C CNN "Tolerance"
F 7 "X5R" H 7700 1150 50  0001 C CNN "Dielectric"
F 8 "25V" H 7700 1150 50  0001 C CNN "Value2"
	1    7700 1150
	1    0    0    -1  
$EndComp
Wire Wire Line
	7700 900  8100 900 
Wire Wire Line
	7700 1400 8100 1400
Wire Wire Line
	8100 900  8100 1000
Wire Wire Line
	8100 1300 8100 1400
Connection ~ 8100 900 
Wire Wire Line
	8100 900  8500 900 
Connection ~ 8100 1400
Wire Wire Line
	8100 1400 8500 1400
Wire Wire Line
	8500 900  8900 900 
Wire Wire Line
	8500 1400 8900 1400
Wire Wire Line
	8900 1400 8900 1300
Wire Wire Line
	8900 1000 8900 900 
Connection ~ 8900 1400
Wire Wire Line
	8900 1400 9300 1400
Connection ~ 8900 900 
Wire Wire Line
	8900 900  9300 900 
Wire Wire Line
	6900 800  6900 900 
Wire Wire Line
	6900 1300 6900 1400
Wire Wire Line
	6900 900  7300 900 
Wire Wire Line
	7300 900  7300 1000
Wire Wire Line
	7300 1300 7300 1400
Connection ~ 6900 900 
Wire Wire Line
	6900 900  6900 1000
Connection ~ 7300 900 
Wire Wire Line
	7300 1400 6900 1400
Connection ~ 7300 1400
Connection ~ 6900 1400
Wire Wire Line
	6900 1400 6900 1500
$Comp
L Device:C C80
U 1 1 5D052E6B
P 8500 1150
F 0 "C80" H 8615 1196 50  0000 L CNN
F 1 "1u" H 8615 1105 50  0000 L CNN
F 2 "Capacitor_SMD:C_0603_1608Metric" H 8538 1000 50  0001 C CNN
F 3 "~" H 8500 1150 50  0001 C CNN
F 4 "Murata" H 8500 1150 50  0001 C CNN "Manufacturer"
F 5 "GRM188R61A105KA61D" H 8500 1150 50  0001 C CNN "PN"
F 6 "10%" H 8500 1150 50  0001 C CNN "Tolerance"
F 7 "X5R" H 8500 1150 50  0001 C CNN "Dielectric"
F 8 "10V" H 8500 1150 50  0001 C CNN "Value2"
	1    8500 1150
	1    0    0    -1  
$EndComp
Wire Wire Line
	9300 900  9700 900 
Wire Wire Line
	9700 900  9700 1000
Wire Wire Line
	9700 1400 9300 1400
Wire Wire Line
	9700 1300 9700 1400
Connection ~ 9300 900 
Connection ~ 9300 1400
Wire Wire Line
	9700 900  10100 900 
Wire Wire Line
	10100 900  10100 1000
Wire Wire Line
	10500 1300 10500 1400
Connection ~ 9700 900 
Connection ~ 9700 1400
$Comp
L Device:C C82
U 1 1 5D061335
P 8900 1150
F 0 "C82" H 9015 1196 50  0000 L CNN
F 1 "680n" H 9015 1105 50  0000 L CNN
F 2 "Capacitor_SMD:C_0603_1608Metric" H 8938 1000 50  0001 C CNN
F 3 "~" H 8900 1150 50  0001 C CNN
F 4 "Murata" H 8900 1150 50  0001 C CNN "Manufacturer"
F 5 "GRM188R71A684MA61D" H 8900 1150 50  0001 C CNN "PN"
F 6 "20%" H 8900 1150 50  0001 C CNN "Tolerance"
F 7 "X7R" H 8900 1150 50  0001 C CNN "Dielectric"
F 8 "10V" H 8900 1150 50  0001 C CNN "Value2"
	1    8900 1150
	1    0    0    -1  
$EndComp
Wire Wire Line
	10100 900  10500 900 
Wire Wire Line
	10500 900  10500 1000
Wire Wire Line
	10900 1300 10900 1400
Connection ~ 10100 900 
$Comp
L Device:C C?
U 1 1 5D0791DD
P 9300 1150
AR Path="/5C5F098F/5C5F0B22/5D0791DD" Ref="C?"  Part="1" 
AR Path="/5C5F098F/5CB3F455/5D0791DD" Ref="C?"  Part="1" 
AR Path="/5C5F098F/5D0791DD" Ref="C?"  Part="1" 
AR Path="/5C5F098F/5CD8DC6B/5D0791DD" Ref="C83"  Part="1" 
F 0 "C83" H 9415 1196 50  0000 L CNN
F 1 "470n" H 9415 1105 50  0000 L CNN
F 2 "Capacitor_SMD:C_0603_1608Metric" H 9338 1000 50  0001 C CNN
F 3 "~" H 9300 1150 50  0001 C CNN
F 4 "Murata" H 9300 1150 50  0001 C CNN "Manufacturer"
F 5 "GRM188R71C474KA88D" H 9300 1150 50  0001 C CNN "PN"
F 6 "10%" H 9300 1150 50  0001 C CNN "Tolerance"
F 7 "X7R" H 9300 1150 50  0001 C CNN "Dielectric"
F 8 "16V" H 9300 1150 50  0001 C CNN "Value2"
	1    9300 1150
	1    0    0    -1  
$EndComp
$Comp
L Device:C C?
U 1 1 5D092A26
P 9700 1150
AR Path="/5C5F098F/5C5F0B22/5D092A26" Ref="C?"  Part="1" 
AR Path="/5C5F098F/5CB3F455/5D092A26" Ref="C?"  Part="1" 
AR Path="/5C5F098F/5D092A26" Ref="C?"  Part="1" 
AR Path="/5C5F098F/5CD8DC6B/5D092A26" Ref="C85"  Part="1" 
F 0 "C85" H 9815 1196 50  0000 L CNN
F 1 "220n" H 9815 1105 50  0000 L CNN
F 2 "Capacitor_SMD:C_0603_1608Metric" H 9738 1000 50  0001 C CNN
F 3 "~" H 9700 1150 50  0001 C CNN
F 4 "Kemet" H 9700 1150 50  0001 C CNN "Manufacturer"
F 5 "C0603C224K4PACTU" H 9700 1150 50  0001 C CNN "PN"
F 6 "10%" H 9700 1150 50  0001 C CNN "Tolerance"
F 7 "X5R" H 9700 1150 50  0001 C CNN "Dielectric"
F 8 "16V" H 9700 1150 50  0001 C CNN "Value2"
	1    9700 1150
	1    0    0    -1  
$EndComp
$Comp
L Device:C C?
U 1 1 5D0D904A
P 10500 1150
AR Path="/5C5F098F/5C5F0B22/5D0D904A" Ref="C?"  Part="1" 
AR Path="/5C5F098F/5CB3F455/5D0D904A" Ref="C?"  Part="1" 
AR Path="/5C5F098F/5D0D904A" Ref="C?"  Part="1" 
AR Path="/5C5F098F/5CD8DC6B/5D0D904A" Ref="C87"  Part="1" 
F 0 "C87" H 10615 1196 50  0000 L CNN
F 1 "33n" H 10615 1105 50  0000 L CNN
F 2 "Capacitor_SMD:C_0603_1608Metric" H 10538 1000 50  0001 C CNN
F 3 "~" H 10500 1150 50  0001 C CNN
F 4 "Kemet" H 10500 1150 50  0001 C CNN "Manufacturer"
F 5 "C0603C333K4RACTU" H 10500 1150 50  0001 C CNN "PN"
F 6 "10%" H 10500 1150 50  0001 C CNN "Tolerance"
F 7 "X7R" H 10500 1150 50  0001 C CNN "Dielectric"
F 8 "16V" H 10500 1150 50  0001 C CNN "Value2"
	1    10500 1150
	1    0    0    -1  
$EndComp
$Comp
L Device:C C?
U 1 1 5D0E147B
P 10900 1150
AR Path="/5C5F098F/5C5F0B22/5D0E147B" Ref="C?"  Part="1" 
AR Path="/5C5F098F/5CB3F455/5D0E147B" Ref="C?"  Part="1" 
AR Path="/5C5F098F/5D0E147B" Ref="C?"  Part="1" 
AR Path="/5C5F098F/5CD8DC6B/5D0E147B" Ref="C88"  Part="1" 
F 0 "C88" H 11015 1196 50  0000 L CNN
F 1 "33n" H 11015 1105 50  0000 L CNN
F 2 "Capacitor_SMD:C_0603_1608Metric" H 10938 1000 50  0001 C CNN
F 3 "~" H 10900 1150 50  0001 C CNN
F 4 "Kemet" H 10900 1150 50  0001 C CNN "Manufacturer"
F 5 "C0603C333K4RACTU" H 10900 1150 50  0001 C CNN "PN"
F 6 "10%" H 10900 1150 50  0001 C CNN "Tolerance"
F 7 "X7R" H 10900 1150 50  0001 C CNN "Dielectric"
F 8 "16V" H 10900 1150 50  0001 C CNN "Value2"
	1    10900 1150
	1    0    0    -1  
$EndComp
Wire Wire Line
	10500 900  10900 900 
Connection ~ 10500 900 
Connection ~ 10500 1400
Wire Wire Line
	10900 900  10900 1000
Wire Wire Line
	10500 1400 10900 1400
Wire Wire Line
	9700 1400 10100 1400
$Comp
L Device:C C?
U 1 1 5D1A0EDC
P 10100 1150
AR Path="/5C5F098F/5C5F0B22/5D1A0EDC" Ref="C?"  Part="1" 
AR Path="/5C5F098F/5CB3F455/5D1A0EDC" Ref="C?"  Part="1" 
AR Path="/5C5F098F/5D1A0EDC" Ref="C?"  Part="1" 
AR Path="/5C5F098F/5CD8DC6B/5D1A0EDC" Ref="C26"  Part="1" 
F 0 "C26" H 10215 1196 50  0000 L CNN
F 1 "220n" H 10215 1105 50  0000 L CNN
F 2 "Capacitor_SMD:C_0603_1608Metric" H 10138 1000 50  0001 C CNN
F 3 "~" H 10100 1150 50  0001 C CNN
F 4 "Kemet" H 10100 1150 50  0001 C CNN "Manufacturer"
F 5 "C0603C224K4PACTU" H 10100 1150 50  0001 C CNN "PN"
F 6 "10%" H 10100 1150 50  0001 C CNN "Tolerance"
F 7 "X5R" H 10100 1150 50  0001 C CNN "Dielectric"
F 8 "16V" H 10100 1150 50  0001 C CNN "Value2"
	1    10100 1150
	1    0    0    -1  
$EndComp
Wire Wire Line
	10100 1300 10100 1400
Connection ~ 10100 1400
Wire Wire Line
	10100 1400 10500 1400
$Comp
L Device:CP1 C?
U 1 1 5D2274B2
P 6900 1150
AR Path="/5CBF1A8E/5D2274B2" Ref="C?"  Part="1" 
AR Path="/5E105304/5D2274B2" Ref="C?"  Part="1" 
AR Path="/5C5F098F/5CD8DC6B/5D2274B2" Ref="C73"  Part="1" 
F 0 "C73" H 7015 1196 50  0000 L CNN
F 1 "10u" H 7015 1105 50  0000 L CNN
F 2 "Capacitor_Tantalum_SMD:CP_EIA-3216-18_Kemet-A" H 6900 1150 50  0001 C CNN
F 3 "http://datasheets.avx.com/TCJ.pdf" H 6900 1150 50  0001 C CNN
F 4 "TCJA106M025R0150" H 6900 1150 50  0001 C CNN "PN"
F 5 "AVX" H 2300 -3850 50  0001 C CNN "Manufacturer"
F 6 "20%" H 6900 1150 50  0001 C CNN "Tolerance"
F 7 "Ta Polymer" H 6900 1150 50  0001 C CNN "Dielectric"
F 8 "25V" H 6900 1150 50  0001 C CNN "Value2"
	1    6900 1150
	1    0    0    -1  
$EndComp
$Comp
L Device:C C81
U 1 1 5CD7AECB
P 2200 1150
F 0 "C81" H 2315 1196 50  0000 L CNN
F 1 "1u" H 2315 1105 50  0000 L CNN
F 2 "Capacitor_SMD:C_0603_1608Metric" H 2238 1000 50  0001 C CNN
F 3 "~" H 2200 1150 50  0001 C CNN
F 4 "Murata" H 2200 1150 50  0001 C CNN "Manufacturer"
F 5 "GRM188R61A105KA61D" H 2200 1150 50  0001 C CNN "PN"
F 6 "10%" H 2200 1150 50  0001 C CNN "Tolerance"
F 7 "X5R" H 2200 1150 50  0001 C CNN "Dielectric"
F 8 "10V" H 2200 1150 50  0001 C CNN "Value2"
	1    2200 1150
	1    0    0    -1  
$EndComp
Wire Wire Line
	3400 900  3400 1000
Wire Wire Line
	3400 1300 3400 1400
Wire Wire Line
	1400 900  1800 900 
Wire Wire Line
	1400 1400 1800 1400
$Comp
L Device:C C76
U 1 1 5CD7AED8
P 1400 1150
F 0 "C76" H 1515 1196 50  0000 L CNN
F 1 "4.7u" H 1515 1105 50  0000 L CNN
F 2 "Capacitor_SMD:C_0805_2012Metric" H 1438 1000 50  0001 C CNN
F 3 "~" H 1400 1150 50  0001 C CNN
F 4 "Murata" H 1400 1150 50  0001 C CNN "Manufacturer"
F 5 "GRM21BR71C475KE51L" H 1400 1150 50  0001 C CNN "PN"
F 6 "10%" H 1400 1150 50  0001 C CNN "Tolerance"
F 7 "X7R" H 1400 1150 50  0001 C CNN "Dielectric"
F 8 "16V" H 1400 1150 50  0001 C CNN "Value2"
	1    1400 1150
	1    0    0    -1  
$EndComp
Wire Wire Line
	1800 900  1800 1000
Wire Wire Line
	1800 1300 1800 1400
Connection ~ 1800 900 
Connection ~ 1800 1400
Connection ~ 2600 900 
Connection ~ 2600 1400
Wire Wire Line
	2600 900  2600 1000
Wire Wire Line
	2600 1300 2600 1400
$Comp
L Device:C C78
U 1 1 5CD7AEE9
P 1800 1150
F 0 "C78" H 1915 1196 50  0000 L CNN
F 1 "2.2u" H 1915 1105 50  0000 L CNN
F 2 "Capacitor_SMD:C_0603_1608Metric" H 1838 1000 50  0001 C CNN
F 3 "~" H 1800 1150 50  0001 C CNN
F 4 "Murata" H 1800 1150 50  0001 C CNN "Manufacturer"
F 5 "GRM188R61E225MA12D" H 1800 1150 50  0001 C CNN "PN"
F 6 "20%" H 1800 1150 50  0001 C CNN "Tolerance"
F 7 "X5R" H 1800 1150 50  0001 C CNN "Dielectric"
F 8 "25V" H 1800 1150 50  0001 C CNN "Value2"
	1    1800 1150
	1    0    0    -1  
$EndComp
Wire Wire Line
	1800 900  2200 900 
Wire Wire Line
	1800 1400 2200 1400
Wire Wire Line
	2200 900  2200 1000
Wire Wire Line
	2200 1300 2200 1400
Connection ~ 2200 900 
Wire Wire Line
	2200 900  2600 900 
Connection ~ 2200 1400
Wire Wire Line
	2200 1400 2600 1400
Wire Wire Line
	2600 900  3000 900 
Wire Wire Line
	2600 1400 3000 1400
Wire Wire Line
	3000 1400 3000 1300
Wire Wire Line
	3000 1000 3000 900 
Connection ~ 3000 1400
Wire Wire Line
	3000 1400 3400 1400
Connection ~ 3000 900 
Wire Wire Line
	3000 900  3400 900 
Wire Wire Line
	1000 800  1000 900 
Wire Wire Line
	1000 1300 1000 1400
Wire Wire Line
	1000 900  1400 900 
Wire Wire Line
	1400 900  1400 1000
Wire Wire Line
	1400 1300 1400 1400
Connection ~ 1000 900 
Wire Wire Line
	1000 900  1000 1000
Connection ~ 1400 900 
Wire Wire Line
	1400 1400 1000 1400
Connection ~ 1400 1400
Connection ~ 1000 1400
Wire Wire Line
	1000 1400 1000 1500
$Comp
L Device:C C84
U 1 1 5CD7AF0E
P 2600 1150
F 0 "C84" H 2715 1196 50  0000 L CNN
F 1 "1u" H 2715 1105 50  0000 L CNN
F 2 "Capacitor_SMD:C_0603_1608Metric" H 2638 1000 50  0001 C CNN
F 3 "~" H 2600 1150 50  0001 C CNN
F 4 "Murata" H 2600 1150 50  0001 C CNN "Manufacturer"
F 5 "GRM188R61A105KA61D" H 2600 1150 50  0001 C CNN "PN"
F 6 "10%" H 2600 1150 50  0001 C CNN "Tolerance"
F 7 "X5R" H 2600 1150 50  0001 C CNN "Dielectric"
F 8 "10V" H 2600 1150 50  0001 C CNN "Value2"
	1    2600 1150
	1    0    0    -1  
$EndComp
Wire Wire Line
	3400 900  3800 900 
Wire Wire Line
	3800 900  3800 1000
Wire Wire Line
	3800 1400 3400 1400
Wire Wire Line
	3800 1300 3800 1400
Connection ~ 3400 900 
Connection ~ 3400 1400
Wire Wire Line
	3800 900  4200 900 
Wire Wire Line
	4200 900  4200 1000
Wire Wire Line
	4600 1300 4600 1400
Connection ~ 3800 900 
Connection ~ 3800 1400
$Comp
L Device:C C86
U 1 1 5CD7AF22
P 3000 1150
F 0 "C86" H 3115 1196 50  0000 L CNN
F 1 "680n" H 3115 1105 50  0000 L CNN
F 2 "Capacitor_SMD:C_0603_1608Metric" H 3038 1000 50  0001 C CNN
F 3 "~" H 3000 1150 50  0001 C CNN
F 4 "Murata" H 3000 1150 50  0001 C CNN "Manufacturer"
F 5 "GRM188R71A684MA61D" H 3000 1150 50  0001 C CNN "PN"
F 6 "20%" H 3000 1150 50  0001 C CNN "Tolerance"
F 7 "X7R" H 3000 1150 50  0001 C CNN "Dielectric"
F 8 "10V" H 3000 1150 50  0001 C CNN "Value2"
	1    3000 1150
	1    0    0    -1  
$EndComp
Wire Wire Line
	4200 900  4600 900 
Wire Wire Line
	4600 900  4600 1000
Wire Wire Line
	5000 1300 5000 1400
Connection ~ 4200 900 
$Comp
L Device:C C?
U 1 1 5CD7AF2F
P 3400 1150
AR Path="/5C5F098F/5C5F0B22/5CD7AF2F" Ref="C?"  Part="1" 
AR Path="/5C5F098F/5CB3F455/5CD7AF2F" Ref="C?"  Part="1" 
AR Path="/5C5F098F/5CD7AF2F" Ref="C?"  Part="1" 
AR Path="/5C5F098F/5CD8DC6B/5CD7AF2F" Ref="C89"  Part="1" 
F 0 "C89" H 3515 1196 50  0000 L CNN
F 1 "470n" H 3515 1105 50  0000 L CNN
F 2 "Capacitor_SMD:C_0603_1608Metric" H 3438 1000 50  0001 C CNN
F 3 "~" H 3400 1150 50  0001 C CNN
F 4 "Murata" H 3400 1150 50  0001 C CNN "Manufacturer"
F 5 "GRM188R71C474KA88D" H 3400 1150 50  0001 C CNN "PN"
F 6 "10%" H 3400 1150 50  0001 C CNN "Tolerance"
F 7 "X7R" H 3400 1150 50  0001 C CNN "Dielectric"
F 8 "16V" H 3400 1150 50  0001 C CNN "Value2"
	1    3400 1150
	1    0    0    -1  
$EndComp
$Comp
L Device:C C?
U 1 1 5CD7AF38
P 3800 1150
AR Path="/5C5F098F/5C5F0B22/5CD7AF38" Ref="C?"  Part="1" 
AR Path="/5C5F098F/5CB3F455/5CD7AF38" Ref="C?"  Part="1" 
AR Path="/5C5F098F/5CD7AF38" Ref="C?"  Part="1" 
AR Path="/5C5F098F/5CD8DC6B/5CD7AF38" Ref="C90"  Part="1" 
F 0 "C90" H 3915 1196 50  0000 L CNN
F 1 "220n" H 3915 1105 50  0000 L CNN
F 2 "Capacitor_SMD:C_0603_1608Metric" H 3838 1000 50  0001 C CNN
F 3 "~" H 3800 1150 50  0001 C CNN
F 4 "Kemet" H 3800 1150 50  0001 C CNN "Manufacturer"
F 5 "C0603C224K4PACTU" H 3800 1150 50  0001 C CNN "PN"
F 6 "10%" H 3800 1150 50  0001 C CNN "Tolerance"
F 7 "X5R" H 3800 1150 50  0001 C CNN "Dielectric"
F 8 "16V" H 3800 1150 50  0001 C CNN "Value2"
	1    3800 1150
	1    0    0    -1  
$EndComp
$Comp
L Device:C C?
U 1 1 5CD7AF41
P 5000 1150
AR Path="/5C5F098F/5C5F0B22/5CD7AF41" Ref="C?"  Part="1" 
AR Path="/5C5F098F/5CB3F455/5CD7AF41" Ref="C?"  Part="1" 
AR Path="/5C5F098F/5CD7AF41" Ref="C?"  Part="1" 
AR Path="/5C5F098F/5CD8DC6B/5CD7AF41" Ref="C92"  Part="1" 
F 0 "C92" H 5115 1196 50  0000 L CNN
F 1 "33n" H 5115 1105 50  0000 L CNN
F 2 "Capacitor_SMD:C_0603_1608Metric" H 5038 1000 50  0001 C CNN
F 3 "~" H 5000 1150 50  0001 C CNN
F 4 "Kemet" H 5000 1150 50  0001 C CNN "Manufacturer"
F 5 "C0603C333K4RACTU" H 5000 1150 50  0001 C CNN "PN"
F 6 "10%" H 5000 1150 50  0001 C CNN "Tolerance"
F 7 "X7R" H 5000 1150 50  0001 C CNN "Dielectric"
F 8 "16V" H 5000 1150 50  0001 C CNN "Value2"
	1    5000 1150
	1    0    0    -1  
$EndComp
$Comp
L Device:C C?
U 1 1 5CD7AF4A
P 5400 1150
AR Path="/5C5F098F/5C5F0B22/5CD7AF4A" Ref="C?"  Part="1" 
AR Path="/5C5F098F/5CB3F455/5CD7AF4A" Ref="C?"  Part="1" 
AR Path="/5C5F098F/5CD7AF4A" Ref="C?"  Part="1" 
AR Path="/5C5F098F/5CD8DC6B/5CD7AF4A" Ref="C93"  Part="1" 
F 0 "C93" H 5515 1196 50  0000 L CNN
F 1 "33n" H 5515 1105 50  0000 L CNN
F 2 "Capacitor_SMD:C_0603_1608Metric" H 5438 1000 50  0001 C CNN
F 3 "~" H 5400 1150 50  0001 C CNN
F 4 "Kemet" H 5400 1150 50  0001 C CNN "Manufacturer"
F 5 "C0603C333K4RACTU" H 5400 1150 50  0001 C CNN "PN"
F 6 "10%" H 5400 1150 50  0001 C CNN "Tolerance"
F 7 "X7R" H 5400 1150 50  0001 C CNN "Dielectric"
F 8 "16V" H 5400 1150 50  0001 C CNN "Value2"
	1    5400 1150
	1    0    0    -1  
$EndComp
Wire Wire Line
	4600 900  5000 900 
Connection ~ 4600 900 
Connection ~ 4600 1400
Wire Wire Line
	5000 900  5000 1000
Wire Wire Line
	4600 1400 5000 1400
Wire Wire Line
	3800 1400 4200 1400
$Comp
L Device:C C?
U 1 1 5CD7AF59
P 4200 1150
AR Path="/5C5F098F/5C5F0B22/5CD7AF59" Ref="C?"  Part="1" 
AR Path="/5C5F098F/5CB3F455/5CD7AF59" Ref="C?"  Part="1" 
AR Path="/5C5F098F/5CD7AF59" Ref="C?"  Part="1" 
AR Path="/5C5F098F/5CD8DC6B/5CD7AF59" Ref="C91"  Part="1" 
F 0 "C91" H 4315 1196 50  0000 L CNN
F 1 "220n" H 4315 1105 50  0000 L CNN
F 2 "Capacitor_SMD:C_0603_1608Metric" H 4238 1000 50  0001 C CNN
F 3 "~" H 4200 1150 50  0001 C CNN
F 4 "Kemet" H 4200 1150 50  0001 C CNN "Manufacturer"
F 5 "C0603C224K4PACTU" H 4200 1150 50  0001 C CNN "PN"
F 6 "10%" H 4200 1150 50  0001 C CNN "Tolerance"
F 7 "X5R" H 4200 1150 50  0001 C CNN "Dielectric"
F 8 "16V" H 4200 1150 50  0001 C CNN "Value2"
	1    4200 1150
	1    0    0    -1  
$EndComp
Wire Wire Line
	4200 1300 4200 1400
Connection ~ 4200 1400
Wire Wire Line
	4200 1400 4600 1400
$Comp
L Device:CP1 C?
U 1 1 5CD7AF65
P 1000 1150
AR Path="/5CBF1A8E/5CD7AF65" Ref="C?"  Part="1" 
AR Path="/5E105304/5CD7AF65" Ref="C?"  Part="1" 
AR Path="/5C5F098F/5CD8DC6B/5CD7AF65" Ref="C74"  Part="1" 
F 0 "C74" H 1115 1196 50  0000 L CNN
F 1 "10u" H 1115 1105 50  0000 L CNN
F 2 "Capacitor_Tantalum_SMD:CP_EIA-3216-18_Kemet-A" H 1000 1150 50  0001 C CNN
F 3 "http://datasheets.avx.com/TCJ.pdf" H 1000 1150 50  0001 C CNN
F 4 "TCJA106M025R0150" H 1000 1150 50  0001 C CNN "PN"
F 5 "AVX" H -3600 -3850 50  0001 C CNN "Manufacturer"
F 6 "20%" H 1000 1150 50  0001 C CNN "Tolerance"
F 7 "Ta Polymer" H 1000 1150 50  0001 C CNN "Dielectric"
F 8 "25V" H 1000 1150 50  0001 C CNN "Value2"
	1    1000 1150
	1    0    0    -1  
$EndComp
$Comp
L power:GNDD #PWR0173
U 1 1 5CD851FF
P 1000 1500
F 0 "#PWR0173" H 1000 1250 50  0001 C CNN
F 1 "GNDD" H 1000 1350 50  0000 C CNN
F 2 "" H 1000 1500 50  0001 C CNN
F 3 "" H 1000 1500 50  0001 C CNN
	1    1000 1500
	1    0    0    -1  
$EndComp
$Comp
L power:+3V3 #PWR0177
U 1 1 5CD858C7
P 1000 800
F 0 "#PWR0177" H 1000 650 50  0001 C CNN
F 1 "+3V3" H 1000 950 50  0000 C CNN
F 2 "" H 1000 800 50  0001 C CNN
F 3 "" H 1000 800 50  0001 C CNN
	1    1000 800 
	1    0    0    -1  
$EndComp
$Comp
L Device:C C?
U 1 1 5CDAC838
P 5800 1150
AR Path="/5C5F098F/5C5F0B22/5CDAC838" Ref="C?"  Part="1" 
AR Path="/5C5F098F/5CB3F455/5CDAC838" Ref="C?"  Part="1" 
AR Path="/5C5F098F/5CDAC838" Ref="C?"  Part="1" 
AR Path="/5C5F098F/5CD8DC6B/5CDAC838" Ref="C95"  Part="1" 
F 0 "C95" H 5915 1196 50  0000 L CNN
F 1 "33n" H 5915 1105 50  0000 L CNN
F 2 "Capacitor_SMD:C_0603_1608Metric" H 5838 1000 50  0001 C CNN
F 3 "~" H 5800 1150 50  0001 C CNN
F 4 "Kemet" H 5800 1150 50  0001 C CNN "Manufacturer"
F 5 "C0603C333K4RACTU" H 5800 1150 50  0001 C CNN "PN"
F 6 "10%" H 5800 1150 50  0001 C CNN "Tolerance"
F 7 "X7R" H 5800 1150 50  0001 C CNN "Dielectric"
F 8 "16V" H 5800 1150 50  0001 C CNN "Value2"
	1    5800 1150
	1    0    0    -1  
$EndComp
$Comp
L Device:C C?
U 1 1 5CDB95D1
P 4600 1150
AR Path="/5C5F098F/5C5F0B22/5CDB95D1" Ref="C?"  Part="1" 
AR Path="/5C5F098F/5CB3F455/5CDB95D1" Ref="C?"  Part="1" 
AR Path="/5C5F098F/5CDB95D1" Ref="C?"  Part="1" 
AR Path="/5C5F098F/5CD8DC6B/5CDB95D1" Ref="C94"  Part="1" 
F 0 "C94" H 4715 1196 50  0000 L CNN
F 1 "220n" H 4715 1105 50  0000 L CNN
F 2 "Capacitor_SMD:C_0603_1608Metric" H 4638 1000 50  0001 C CNN
F 3 "~" H 4600 1150 50  0001 C CNN
F 4 "Kemet" H 4600 1150 50  0001 C CNN "Manufacturer"
F 5 "C0603C224K4PACTU" H 4600 1150 50  0001 C CNN "PN"
F 6 "10%" H 4600 1150 50  0001 C CNN "Tolerance"
F 7 "X5R" H 4600 1150 50  0001 C CNN "Dielectric"
F 8 "16V" H 4600 1150 50  0001 C CNN "Value2"
	1    4600 1150
	1    0    0    -1  
$EndComp
Wire Wire Line
	5000 900  5400 900 
Wire Wire Line
	5800 900  5800 1000
Wire Wire Line
	5800 1400 5400 1400
Wire Wire Line
	5800 1300 5800 1400
Connection ~ 5000 900 
Connection ~ 5000 1400
Wire Wire Line
	5400 1400 5400 1300
Wire Wire Line
	5400 1000 5400 900 
Connection ~ 5400 1400
Wire Wire Line
	5400 1400 5000 1400
Connection ~ 5400 900 
Wire Wire Line
	5400 900  5800 900 
$EndSCHEMATC
