EESchema Schematic File Version 4
LIBS:Capstone-cache
EELAYER 29 0
EELAYER END
$Descr USLetter 11000 8500
encoding utf-8
Sheet 4 8
Title "Capstone"
Date ""
Rev ""
Comp ""
Comment1 ""
Comment2 ""
Comment3 ""
Comment4 ""
$EndDescr
Wire Wire Line
	4800 4350 4800 4850
Wire Wire Line
	4800 4850 4700 4850
Wire Wire Line
	3900 4950 3900 5050
Connection ~ 3900 4950
Wire Wire Line
	1500 6350 1500 6400
Wire Wire Line
	3900 4950 4100 4950
Wire Wire Line
	1500 7450 1500 7500
Wire Wire Line
	1500 7500 1400 7500
Wire Wire Line
	1400 7500 1400 7550
Wire Wire Line
	1700 7550 1700 7500
Wire Wire Line
	1700 7500 1600 7500
Wire Wire Line
	1600 7500 1600 7450
Wire Wire Line
	2700 4350 2700 4550
Wire Wire Line
	3500 4350 3500 4400
Wire Wire Line
	3500 4700 3500 4750
Wire Wire Line
	1500 5150 1500 5200
Wire Wire Line
	1500 5200 1600 5200
Text HLabel 1600 5200 2    50   Input ~ 0
DELTA_MODE
Wire Wire Line
	3900 4750 3900 4700
Wire Wire Line
	3900 4400 3900 4350
Wire Wire Line
	3300 4950 3900 4950
Connection ~ 3900 4350
Wire Wire Line
	3900 4350 4800 4350
Connection ~ 3900 4750
Wire Wire Line
	3900 4750 4100 4750
Wire Wire Line
	2700 4350 3500 4350
Wire Wire Line
	3300 4750 3500 4750
Connection ~ 3500 4350
Wire Wire Line
	3500 4350 3900 4350
Connection ~ 3500 4750
Wire Wire Line
	3500 4750 3900 4750
Wire Wire Line
	2600 7000 2550 7000
Wire Wire Line
	3000 7550 3000 7650
Wire Wire Line
	2900 6350 2900 6450
$Comp
L Capstone:LTC6244HVxMS8 U18
U 2 1 5CFE8D15
P 4400 4850
AR Path="/5C5F098F/5C5F0B22/5CFE8D15" Ref="U18"  Part="1" 
AR Path="/5C5F098F/5CB3F455/5CFE8D15" Ref="U18"  Part="2" 
F 0 "U18" H 4400 5217 50  0000 C CNN
F 1 "LTC6244HVxMS8" H 4400 5126 50  0000 C CNN
F 2 "Package_SO:MSOP-8_3x3mm_P0.65mm" H 4400 4850 50  0001 C CNN
F 3 "https://www.analog.com/media/en/technical-documentation/data-sheets/6244fb.pdf" H 4400 4850 50  0001 C CNN
F 4 "Analog Devices" H 0   0   50  0001 C CNN "Manufacturer"
F 5 "LTC6244HVCMS8#PBF" H 0   0   50  0001 C CNN "PN"
	2    4400 4850
	1    0    0    -1  
$EndComp
$Comp
L Capstone:LTC6244HVxMS8 U26
U 3 1 5CFF1D8D
P 5400 7050
AR Path="/5C5F098F/5C5F0B22/5CFF1D8D" Ref="U26"  Part="3" 
AR Path="/5C5F098F/5CB3F455/5CFF1D8D" Ref="U12"  Part="3" 
F 0 "U12" H 5358 7096 50  0000 L CNN
F 1 "LTC6244HVxMS8" H 5358 7005 50  0000 L CNN
F 2 "Package_SO:MSOP-8_3x3mm_P0.65mm" H 5400 7050 50  0001 C CNN
F 3 "https://www.analog.com/media/en/technical-documentation/data-sheets/6244fb.pdf" H 5400 7050 50  0001 C CNN
F 4 "Analog Devices" H 1450 0   50  0001 C CNN "Manufacturer"
F 5 "LTC6244HVCMS8#PBF" H 1450 0   50  0001 C CNN "PN"
	3    5400 7050
	1    0    0    -1  
$EndComp
$Comp
L power:+5VA #PWR0124
U 1 1 5D335769
P 5300 6550
AR Path="/5C5F098F/5C5F0B22/5D335769" Ref="#PWR0124"  Part="1" 
AR Path="/5C5F098F/5CB3F455/5D335769" Ref="#PWR083"  Part="1" 
F 0 "#PWR083" H 5300 6400 50  0001 C CNN
F 1 "+5VA" H 5300 6700 50  0000 C CNN
F 2 "" H 5300 6550 50  0001 C CNN
F 3 "" H 5300 6550 50  0001 C CNN
	1    5300 6550
	1    0    0    -1  
$EndComp
$Comp
L power:+5VA #PWR0123
U 1 1 5D32F792
P 2900 6350
AR Path="/5C5F098F/5C5F0B22/5D32F792" Ref="#PWR0123"  Part="1" 
AR Path="/5C5F098F/5CB3F455/5D32F792" Ref="#PWR082"  Part="1" 
F 0 "#PWR082" H 2900 6200 50  0001 C CNN
F 1 "+5VA" H 2900 6500 50  0000 C CNN
F 2 "" H 2900 6350 50  0001 C CNN
F 3 "" H 2900 6350 50  0001 C CNN
	1    2900 6350
	1    0    0    -1  
$EndComp
$Comp
L power:-5VA #PWR0125
U 1 1 5D32E92B
P 5300 7550
AR Path="/5C5F098F/5C5F0B22/5D32E92B" Ref="#PWR0125"  Part="1" 
AR Path="/5C5F098F/5CB3F455/5D32E92B" Ref="#PWR084"  Part="1" 
F 0 "#PWR084" H 5300 7650 50  0001 C CNN
F 1 "-5VA" H 5300 7700 50  0000 C CNN
F 2 "" H 5300 7550 50  0001 C CNN
F 3 "" H 5300 7550 50  0001 C CNN
	1    5300 7550
	-1   0    0    1   
$EndComp
$Comp
L power:-5VA #PWR0129
U 1 1 5D31516E
P 3000 7650
AR Path="/5C5F098F/5C5F0B22/5D31516E" Ref="#PWR0129"  Part="1" 
AR Path="/5C5F098F/5CB3F455/5D31516E" Ref="#PWR088"  Part="1" 
F 0 "#PWR088" H 3000 7750 50  0001 C CNN
F 1 "-5VA" H 3000 7800 50  0000 C CNN
F 2 "" H 3000 7650 50  0001 C CNN
F 3 "" H 3000 7650 50  0001 C CNN
	1    3000 7650
	-1   0    0    1   
$EndComp
$Comp
L power:GNDD #PWR0128
U 1 1 5D307589
P 2550 7650
AR Path="/5C5F098F/5C5F0B22/5D307589" Ref="#PWR0128"  Part="1" 
AR Path="/5C5F098F/5CB3F455/5D307589" Ref="#PWR087"  Part="1" 
F 0 "#PWR087" H 2550 7400 50  0001 C CNN
F 1 "GNDD" H 2550 7500 50  0000 C CNN
F 2 "" H 2550 7650 50  0001 C CNN
F 3 "" H 2550 7650 50  0001 C CNN
	1    2550 7650
	1    0    0    -1  
$EndComp
$Comp
L Capstone:DG4053ExQ_Split U25
U 4 1 5D2EAF1F
P 2900 7000
AR Path="/5C5F098F/5C5F0B22/5D2EAF1F" Ref="U25"  Part="4" 
AR Path="/5C5F098F/5CB3F455/5D2EAF1F" Ref="U11"  Part="4" 
F 0 "U11" H 3200 7050 50  0000 L CNN
F 1 "DG4053ExQ" H 3200 6950 50  0000 L CNN
F 2 "Package_SO:TSSOP-16_4.4x5mm_P0.65mm" H 2900 6100 50  0001 C CNN
F 3 "https://www.vishay.com/docs/69685/dg4051e.pdf" H 1850 6550 50  0001 C CNN
F 4 "Vishay" H -50 -50 50  0001 C CNN "Manufacturer"
F 5 "DG4053EEQ-T1-GE3" H -50 -50 50  0001 C CNN "PN"
	4    2900 7000
	1    0    0    -1  
$EndComp
$Comp
L Device:C C14
U 1 1 5D1DD38A
P 3900 4550
AR Path="/5C5F098F/5CB3F455/5D1DD38A" Ref="C14"  Part="1" 
AR Path="/5C5F098F/5C5F0B22/5D1DD38A" Ref="C34"  Part="1" 
F 0 "C14" H 3785 4504 50  0000 R CNN
F 1 "DNI" H 3785 4595 50  0000 R CNN
F 2 "Capacitor_SMD:C_0603_1608Metric" H 3938 4400 50  0001 C CNN
F 3 "~" H 3900 4550 50  0001 C CNN
	1    3900 4550
	1    0    0    1   
$EndComp
$Comp
L Device:CTRIM C33
U 1 1 5D1BAD03
P 3500 4550
AR Path="/5C5F098F/5C5F0B22/5D1BAD03" Ref="C33"  Part="1" 
AR Path="/5C5F098F/5CB3F455/5D1BAD03" Ref="C13"  Part="1" 
F 0 "C13" H 3400 4600 50  0000 R CNN
F 1 "JR060" H 3400 4500 50  0000 R CNN
F 2 "Capacitor_SMD:C_Trimmer_Voltronics_JR" H 3500 4550 50  0001 C CNN
F 3 "~" H 3500 4550 50  0001 C CNN
F 4 "Knowles Voltronics" H 0   0   50  0001 C CNN "Manufacturer"
F 5 "JR060" H 0   0   50  0001 C CNN "PN"
F 6 "2-6pF" H 3500 4550 50  0001 C CNN "Value2"
	1    3500 4550
	1    0    0    -1  
$EndComp
$Comp
L Capstone:AD5429 U17
U 2 1 5CDB13CB
P 2700 4850
AR Path="/5C5F098F/5CB3F455/5CDB13CB" Ref="U17"  Part="2" 
AR Path="/5C5F098F/5C5F0B22/5CDB13CB" Ref="U17"  Part="3" 
F 0 "U17" H 2700 4575 50  0000 C CNN
F 1 "AD5429" H 2700 4484 50  0000 C CNN
F 2 "Package_SO:TSSOP-16_4.4x5mm_P0.65mm" H 2700 3850 50  0001 C CNN
F 3 "https://www.analog.com/media/en/technical-documentation/data-sheets/AD5429_5439_5449.pdf" H 2950 5200 50  0001 C CNN
F 4 "Analog Devices" H 0   0   50  0001 C CNN "Manufacturer"
F 5 "AD5429YRUZ" H 0   0   50  0001 C CNN "PN"
	2    2700 4850
	1    0    0    -1  
$EndComp
$Comp
L power:GNDD #PWR0126
U 1 1 5CC227A7
P 1400 7550
AR Path="/5C5F098F/5C5F0B22/5CC227A7" Ref="#PWR0126"  Part="1" 
AR Path="/5C5F098F/5CB3F455/5CC227A7" Ref="#PWR085"  Part="1" 
F 0 "#PWR085" H 1400 7300 50  0001 C CNN
F 1 "GNDD" H 1400 7400 50  0000 C CNN
F 2 "" H 1400 7550 50  0001 C CNN
F 3 "" H 1400 7550 50  0001 C CNN
	1    1400 7550
	1    0    0    -1  
$EndComp
$Comp
L Analog_Switch:DG9421DV U30
U 2 1 5CB35724
P 1500 6950
AR Path="/5C5F098F/5C5F0B22/5CB35724" Ref="U30"  Part="2" 
AR Path="/5C5F098F/5CB3F455/5CB35724" Ref="U16"  Part="2" 
F 0 "U16" H 1780 6996 50  0000 L CNN
F 1 "DG9421DV" H 1780 6905 50  0000 L CNN
F 2 "Package_TO_SOT_SMD:SOT-23-6" H 1500 6850 50  0001 C CNN
F 3 "https://www.vishay.com/docs/70679/dg9421.pdf" H 1500 6950 50  0001 C CNN
F 4 "Vishay" H -50 -50 50  0001 C CNN "Manufacturer"
F 5 "DG467DV-T1-E3" H -50 -50 50  0001 C CNN "PN"
	2    1500 6950
	1    0    0    -1  
$EndComp
$Comp
L power:GNDA #PWR0120
U 1 1 5C81123C
P 3900 5050
AR Path="/5C5F098F/5C5F0B22/5C81123C" Ref="#PWR0120"  Part="1" 
AR Path="/5C5F098F/5CB3F455/5C81123C" Ref="#PWR079"  Part="1" 
F 0 "#PWR079" H 3900 4800 50  0001 C CNN
F 1 "GNDA" H 3900 4900 50  0000 C CNN
F 2 "" H 3900 5050 50  0001 C CNN
F 3 "" H 3900 5050 50  0001 C CNN
	1    3900 5050
	1    0    0    -1  
$EndComp
$Comp
L power:+5VA #PWR0122
U 1 1 5C7CB686
P 1500 6350
AR Path="/5C5F098F/5C5F0B22/5C7CB686" Ref="#PWR0122"  Part="1" 
AR Path="/5C5F098F/5CB3F455/5C7CB686" Ref="#PWR081"  Part="1" 
F 0 "#PWR081" H 1500 6200 50  0001 C CNN
F 1 "+5VA" H 1500 6500 50  0000 C CNN
F 2 "" H 1500 6350 50  0001 C CNN
F 3 "" H 1500 6350 50  0001 C CNN
	1    1500 6350
	1    0    0    -1  
$EndComp
$Comp
L power:-5VA #PWR0127
U 1 1 5C7CB644
P 1700 7550
AR Path="/5C5F098F/5C5F0B22/5C7CB644" Ref="#PWR0127"  Part="1" 
AR Path="/5C5F098F/5CB3F455/5C7CB644" Ref="#PWR086"  Part="1" 
F 0 "#PWR086" H 1700 7650 50  0001 C CNN
F 1 "-5VA" H 1700 7700 50  0000 C CNN
F 2 "" H 1700 7550 50  0001 C CNN
F 3 "" H 1700 7550 50  0001 C CNN
	1    1700 7550
	-1   0    0    1   
$EndComp
Wire Wire Line
	900  4950 1200 4950
Text Label 900  4950 0    50   ~ 0
delta
Text Label 900  4750 0    50   ~ 0
ref
Wire Wire Line
	1200 4750 900  4750
$Comp
L Capstone:DG4053ExQ_Split U25
U 3 1 5D2D4BD1
P 1500 4750
AR Path="/5C5F098F/5C5F0B22/5D2D4BD1" Ref="U25"  Part="3" 
AR Path="/5C5F098F/5CB3F455/5D2D4BD1" Ref="U11"  Part="3" 
F 0 "U11" H 1500 4901 50  0000 C CNN
F 1 "DG4053ExQ" H 1500 4901 50  0001 C CNN
F 2 "Package_SO:TSSOP-16_4.4x5mm_P0.65mm" H 1500 3850 50  0001 C CNN
F 3 "https://www.vishay.com/docs/69685/dg4051e.pdf" H 450 4300 50  0001 C CNN
F 4 "Vishay" H -200 0   50  0001 C CNN "Manufacturer"
F 5 "DG4053EEQ-T1-GE3" H -200 0   50  0001 C CNN "PN"
	3    1500 4750
	-1   0    0    -1  
$EndComp
Wire Wire Line
	2550 7000 2550 7600
Wire Wire Line
	2900 7600 2900 7550
Wire Wire Line
	2550 7600 2550 7650
Connection ~ 2550 7600
Wire Wire Line
	2550 7600 2900 7600
Wire Wire Line
	1800 4850 1950 4850
Wire Wire Line
	1950 4850 1950 4550
Connection ~ 1950 4850
Wire Wire Line
	1950 4850 2100 4850
$Comp
L Connector:TestPoint TP21
U 1 1 5D0012FA
P 1950 4550
AR Path="/5C5F098F/5C5F0B22/5D0012FA" Ref="TP21"  Part="1" 
AR Path="/5C5F098F/5CB3F455/5D0012FA" Ref="TP18"  Part="1" 
F 0 "TP18" H 2008 4668 50  0000 L CNN
F 1 "TestPoint" H 2008 4577 50  0000 L CNN
F 2 "TestPoint:TestPoint_Pad_D1.0mm" H 2150 4550 50  0001 C CNN
F 3 "~" H 2150 4550 50  0001 C CNN
	1    1950 4550
	1    0    0    -1  
$EndComp
$Comp
L Device:C C61
U 1 1 5D172968
P 4000 7050
AR Path="/5C5F098F/5C5F0B22/5D172968" Ref="C61"  Part="1" 
AR Path="/5C5F098F/5CB3F455/5D172968" Ref="C58"  Part="1" 
F 0 "C58" H 4115 7096 50  0000 L CNN
F 1 "470n" H 4115 7005 50  0000 L CNN
F 2 "Capacitor_SMD:C_0603_1608Metric" H 4038 6900 50  0001 C CNN
F 3 "~" H 4000 7050 50  0001 C CNN
F 4 "Murata" H 4000 7050 50  0001 C CNN "Manufacturer"
F 5 "GRM188R71C474KA88D" H 4000 7050 50  0001 C CNN "PN"
F 6 "10%" H 4000 7050 50  0001 C CNN "Tolerance"
F 7 "X7R" H 4000 7050 50  0001 C CNN "Dielectric"
F 8 "16V" H 4000 7050 50  0001 C CNN "Value2"
	1    4000 7050
	1    0    0    -1  
$EndComp
Wire Wire Line
	4000 7450 4000 7200
Wire Wire Line
	4000 6900 4000 6650
Wire Wire Line
	5300 6550 5300 6650
Wire Wire Line
	5300 7350 5300 7450
$Comp
L Device:C C64
U 1 1 5CDA440B
P 4500 7050
AR Path="/5C5F098F/5C5F0B22/5CDA440B" Ref="C64"  Part="1" 
AR Path="/5C5F098F/5CB3F455/5CDA440B" Ref="C49"  Part="1" 
F 0 "C49" H 4615 7096 50  0000 L CNN
F 1 "1u" H 4615 7005 50  0000 L CNN
F 2 "Capacitor_SMD:C_0805_2012Metric" H 4538 6900 50  0001 C CNN
F 3 "~" H 4500 7050 50  0001 C CNN
F 4 "Murata" H 4500 7050 50  0001 C CNN "Manufacturer"
F 5 "GRM21BR61C105KA01K" H 4500 7050 50  0001 C CNN "PN"
F 6 "10%" H 4500 7050 50  0001 C CNN "Tolerance"
F 7 "X5R" H 4500 7050 50  0001 C CNN "Dielectric"
F 8 "16V" H 4500 7050 50  0001 C CNN "Value2"
	1    4500 7050
	1    0    0    -1  
$EndComp
$Comp
L Device:C C65
U 1 1 5CDA4A50
P 4900 7050
AR Path="/5C5F098F/5C5F0B22/5CDA4A50" Ref="C65"  Part="1" 
AR Path="/5C5F098F/5CB3F455/5CDA4A50" Ref="C63"  Part="1" 
F 0 "C63" H 5015 7096 50  0000 L CNN
F 1 "1u" H 5015 7005 50  0000 L CNN
F 2 "Capacitor_SMD:C_0805_2012Metric" H 4938 6900 50  0001 C CNN
F 3 "~" H 4900 7050 50  0001 C CNN
F 4 "Murata" H 4900 7050 50  0001 C CNN "Manufacturer"
F 5 "GRM21BR61C105KA01K" H 4900 7050 50  0001 C CNN "PN"
F 6 "10%" H 4900 7050 50  0001 C CNN "Tolerance"
F 7 "X5R" H 4900 7050 50  0001 C CNN "Dielectric"
F 8 "16V" H 4900 7050 50  0001 C CNN "Value2"
	1    4900 7050
	1    0    0    -1  
$EndComp
Wire Wire Line
	4000 6650 4500 6650
Connection ~ 5300 6650
Wire Wire Line
	5300 6650 5300 6750
Wire Wire Line
	4000 7450 4500 7450
Connection ~ 5300 7450
Wire Wire Line
	5300 7450 5300 7550
Wire Wire Line
	4500 6650 4500 6900
Wire Wire Line
	4500 7200 4500 7450
Connection ~ 4500 6650
Wire Wire Line
	4500 6650 4900 6650
Connection ~ 4500 7450
Wire Wire Line
	4500 7450 4900 7450
Wire Wire Line
	4900 6650 4900 6900
Wire Wire Line
	4900 7200 4900 7450
Connection ~ 4900 6650
Wire Wire Line
	4900 6650 5300 6650
Connection ~ 4900 7450
Wire Wire Line
	4900 7450 5300 7450
$Comp
L Device:C C?
U 1 1 5CF8EB7E
P 1000 6950
AR Path="/5C5F098F/5C5F0B20/5CF8EB7E" Ref="C?"  Part="1" 
AR Path="/5C5F098F/5C5F0B22/5CF8EB7E" Ref="C102"  Part="1" 
AR Path="/5C5F098F/5CB3F455/5CF8EB7E" Ref="C101"  Part="1" 
F 0 "C101" H 1115 6996 50  0000 L CNN
F 1 "100n" H 1115 6905 50  0000 L CNN
F 2 "Capacitor_SMD:C_0603_1608Metric" H 1038 6800 50  0001 C CNN
F 3 "~" H 1000 6950 50  0001 C CNN
F 4 "Murata" H 1000 6950 50  0001 C CNN "Manufacturer"
F 5 "GRM188R71C104KA01D" H 1000 6950 50  0001 C CNN "PN"
F 6 "10%" H 1000 6950 50  0001 C CNN "Tolerance"
F 7 "X7R" H 1000 6950 50  0001 C CNN "Dielectric"
F 8 "16V" H 1000 6950 50  0001 C CNN "Value2"
	1    1000 6950
	1    0    0    -1  
$EndComp
Wire Wire Line
	1500 6400 1000 6400
Wire Wire Line
	1000 6400 1000 6800
Wire Wire Line
	1000 7500 1400 7500
Wire Wire Line
	1000 7100 1000 7500
Connection ~ 1500 6400
Wire Wire Line
	1500 6400 1500 6450
Connection ~ 1400 7500
Text Notes 6300 7250 0    50   ~ 0
(2) DNI capacitor footprint should be placed inside trimcap footprint
Text Notes 3600 4300 0    50   ~ 0
(2)
Text Notes 6300 7150 0    50   ~ 0
(3) Units shared between IntSum1 and IntSum2
Text Notes 2350 5150 0    50   ~ 0
(3)
Text Notes 6300 7350 0    50   ~ 0
(1) Force integrator to reset when disabled; ~intrst~ <= ~RESET~ and (not ~ENABLE~)
Text Notes 6300 7050 0    50   ~ 0
(4) Current limited to 100mA, pulsed 1ms (10% duty cycle)
Text Notes 6300 6850 0    50   ~ 0
(6) Buffer required in order to support 2.5V LVCMOS output from the FPGA
Text Label 3200 2200 0    50   ~ 0
in
Wire Wire Line
	3100 1500 3150 1500
Wire Wire Line
	3150 1400 3100 1400
Text HLabel 3150 1500 2    50   Input ~ 0
REF[0]
Text HLabel 3150 1400 2    50   Input ~ 0
REF[1]
Wire Wire Line
	2100 1800 1900 1800
$Comp
L Capstone:DG4053ExQ_Split U25
U 1 1 5D2D1091
P 5450 1400
AR Path="/5C5F098F/5C5F0B22/5D2D1091" Ref="U25"  Part="1" 
AR Path="/5C5F098F/5CB3F455/5D2D1091" Ref="U11"  Part="1" 
F 0 "U11" H 5450 1551 50  0000 C CNN
F 1 "DG4053ExQ" H 5450 1551 50  0001 C CNN
F 2 "Package_SO:TSSOP-16_4.4x5mm_P0.65mm" H 5450 500 50  0001 C CNN
F 3 "https://www.vishay.com/docs/69685/dg4051e.pdf" H 4400 950 50  0001 C CNN
F 4 "Vishay" H 500 0   50  0001 C CNN "Manufacturer"
F 5 "DG4053EEQ-T1-GE3" H 500 0   50  0001 C CNN "PN"
	1    5450 1400
	-1   0    0    -1  
$EndComp
$Comp
L Capstone:DG4053ExQ_Split U25
U 2 1 5D2D31B6
P 5450 2100
AR Path="/5C5F098F/5C5F0B22/5D2D31B6" Ref="U25"  Part="2" 
AR Path="/5C5F098F/5CB3F455/5D2D31B6" Ref="U11"  Part="2" 
F 0 "U11" H 5450 2251 50  0000 C CNN
F 1 "DG4053ExQ" H 5450 2251 50  0001 C CNN
F 2 "Package_SO:TSSOP-16_4.4x5mm_P0.65mm" H 5450 1200 50  0001 C CNN
F 3 "https://www.vishay.com/docs/69685/dg4051e.pdf" H 4400 1650 50  0001 C CNN
F 4 "Vishay" H 500 0   50  0001 C CNN "Manufacturer"
F 5 "DG4053EEQ-T1-GE3" H 500 0   50  0001 C CNN "PN"
	2    5450 2100
	-1   0    0    -1  
$EndComp
$Comp
L Connector:TestPoint TP?
U 1 1 5D1E2A0C
P 4550 1900
AR Path="/5C5F098F/5C5F0B20/5D1E2A0C" Ref="TP?"  Part="1" 
AR Path="/5C5F098F/5CB3F455/5D1E2A0C" Ref="TP5"  Part="1" 
AR Path="/5C5F098F/5C5F0B22/5D1E2A0C" Ref="TP8"  Part="1" 
F 0 "TP5" V 4500 2000 50  0000 R CNN
F 1 "GNDA" V 4600 1800 50  0001 L CNN
F 2 "TestPoint:TestPoint_THTPad_D1.5mm_Drill0.7mm" H 4750 1900 50  0001 C CNN
F 3 "~" H 4750 1900 50  0001 C CNN
	1    4550 1900
	0    1    1    0   
$EndComp
Wire Wire Line
	4450 1900 4550 1900
Wire Wire Line
	4450 1900 4450 2300
$Comp
L power:GNDA #PWR0111
U 1 1 5D2020B0
P 4450 2300
AR Path="/5C5F098F/5C5F0B22/5D2020B0" Ref="#PWR0111"  Part="1" 
AR Path="/5C5F098F/5CB3F455/5D2020B0" Ref="#PWR070"  Part="1" 
F 0 "#PWR070" H 4450 2050 50  0001 C CNN
F 1 "GNDA" H 4450 2150 50  0000 C CNN
F 2 "" H 4450 2300 50  0001 C CNN
F 3 "" H 4450 2300 50  0001 C CNN
	1    4450 2300
	1    0    0    -1  
$EndComp
Wire Wire Line
	4750 2200 4750 2300
Connection ~ 4750 2200
Wire Wire Line
	3100 2200 4750 2200
Wire Wire Line
	4750 2100 4750 2200
Connection ~ 4750 1600
Wire Wire Line
	4450 1600 4750 1600
Wire Wire Line
	4750 1600 5150 1600
Wire Wire Line
	5450 1800 5450 1850
Wire Wire Line
	5150 1400 5050 1400
Wire Wire Line
	5050 1400 5050 2100
Wire Wire Line
	4750 1600 4750 1700
Text HLabel 1900 1700 0    50   Input ~ 0
IN
Wire Wire Line
	2100 1700 1900 1700
Wire Wire Line
	2100 2200 1900 2200
Wire Wire Line
	2100 2300 1900 2300
Wire Wire Line
	2100 2400 1900 2400
Text HLabel 1900 2200 0    50   Input ~ 0
IN
Text HLabel 1900 2300 0    50   Input ~ 0
IN
Text HLabel 1900 2400 0    50   Input ~ 0
IN
Wire Wire Line
	2800 2650 2800 2700
Wire Wire Line
	2700 2650 2800 2650
Wire Wire Line
	2700 2600 2700 2650
Wire Wire Line
	2500 2650 2500 2700
Wire Wire Line
	2600 2650 2500 2650
Wire Wire Line
	2600 2600 2600 2650
Wire Wire Line
	2100 2100 2000 2100
Connection ~ 2000 2100
Wire Wire Line
	2000 1600 2000 2100
Wire Wire Line
	2000 2100 2000 2700
Wire Wire Line
	2000 1600 2100 1600
Text Label 3300 1700 2    50   ~ 0
ref
Wire Wire Line
	3100 2300 3200 2300
Text HLabel 3200 2300 2    50   Input ~ 0
~ENABLE
$Comp
L Capstone:DG4052ExQ U27
U 1 1 5D2CBF89
P 2600 1900
AR Path="/5C5F098F/5C5F0B22/5D2CBF89" Ref="U27"  Part="1" 
AR Path="/5C5F098F/5CB3F455/5D2CBF89" Ref="U13"  Part="1" 
F 0 "U13" H 3000 2550 50  0000 R CNN
F 1 "DG4052ExQ" H 2400 2550 50  0000 C CNN
F 2 "Package_SO:TSSOP-16_4.4x5mm_P0.65mm" H 2750 1150 50  0001 L CNN
F 3 "https://www.vishay.com/docs/69685/dg4051e.pdf" H 2580 2100 50  0001 C CNN
F 4 "Vishay" H -350 100 50  0001 C CNN "Manufacturer"
F 5 "DG4052EEQ-T1-GE3" H -350 100 50  0001 C CNN "PN"
	1    2600 1900
	-1   0    0    -1  
$EndComp
$Comp
L power:GNDA #PWR0113
U 1 1 5C97AAAA
P 2000 2700
AR Path="/5C5F098F/5C5F0B22/5C97AAAA" Ref="#PWR0113"  Part="1" 
AR Path="/5C5F098F/5CB3F455/5C97AAAA" Ref="#PWR072"  Part="1" 
F 0 "#PWR072" H 2000 2450 50  0001 C CNN
F 1 "GNDA" H 2000 2550 50  0000 C CNN
F 2 "" H 2000 2700 50  0001 C CNN
F 3 "" H 2000 2700 50  0001 C CNN
	1    2000 2700
	1    0    0    -1  
$EndComp
$Comp
L power:-5VA #PWR0114
U 1 1 5CA4E5C0
P 2500 2700
AR Path="/5C5F098F/5C5F0B22/5CA4E5C0" Ref="#PWR0114"  Part="1" 
AR Path="/5C5F098F/5CB3F455/5CA4E5C0" Ref="#PWR073"  Part="1" 
F 0 "#PWR073" H 2500 2800 50  0001 C CNN
F 1 "-5VA" H 2500 2850 50  0000 C CNN
F 2 "" H 2500 2700 50  0001 C CNN
F 3 "" H 2500 2700 50  0001 C CNN
	1    2500 2700
	1    0    0    1   
$EndComp
$Comp
L power:+5VA #PWR0109
U 1 1 5CA52AC5
P 2500 1200
AR Path="/5C5F098F/5C5F0B22/5CA52AC5" Ref="#PWR0109"  Part="1" 
AR Path="/5C5F098F/5CB3F455/5CA52AC5" Ref="#PWR068"  Part="1" 
F 0 "#PWR068" H 2500 1050 50  0001 C CNN
F 1 "+5VA" H 2500 1350 50  0000 C CNN
F 2 "" H 2500 1200 50  0001 C CNN
F 3 "" H 2500 1200 50  0001 C CNN
	1    2500 1200
	1    0    0    -1  
$EndComp
$Comp
L power:GNDD #PWR0115
U 1 1 5CC587C0
P 2800 2700
AR Path="/5C5F098F/5C5F0B22/5CC587C0" Ref="#PWR0115"  Part="1" 
AR Path="/5C5F098F/5CB3F455/5CC587C0" Ref="#PWR074"  Part="1" 
F 0 "#PWR074" H 2800 2450 50  0001 C CNN
F 1 "GNDD" H 2800 2550 50  0000 C CNN
F 2 "" H 2800 2700 50  0001 C CNN
F 3 "" H 2800 2700 50  0001 C CNN
	1    2800 2700
	-1   0    0    -1  
$EndComp
Wire Wire Line
	1900 1900 2100 1900
$Comp
L Capstone:LTC6244HVxMS8 U26
U 2 1 5D2BA9BD
P 4050 1600
AR Path="/5C5F098F/5C5F0B22/5D2BA9BD" Ref="U26"  Part="2" 
AR Path="/5C5F098F/5CB3F455/5D2BA9BD" Ref="U12"  Part="2" 
F 0 "U12" H 4050 1950 50  0000 C CNN
F 1 "LTC6244HVxMS8" H 4050 1850 50  0000 C CNN
F 2 "Package_SO:MSOP-8_3x3mm_P0.65mm" H 4050 1600 50  0001 C CNN
F 3 "https://www.analog.com/media/en/technical-documentation/data-sheets/6244fb.pdf" H 4050 1600 50  0001 C CNN
F 4 "Analog Devices" H -4450 -3650 50  0001 C CNN "Manufacturer"
F 5 "LTC6244HVCMS8#PBF" H -4450 -3650 50  0001 C CNN "PN"
	2    4050 1600
	1    0    0    1   
$EndComp
Wire Wire Line
	4450 1600 4350 1600
Connection ~ 4450 1600
Wire Wire Line
	4450 1300 4450 1600
Wire Wire Line
	3650 1300 4450 1300
Wire Wire Line
	3650 1500 3650 1300
Wire Wire Line
	3750 1500 3650 1500
Wire Wire Line
	3100 1700 3750 1700
$Comp
L Connector:TestPoint TP?
U 1 1 5D1E2A00
P 4750 1700
AR Path="/5C5F098F/5C5F0B20/5D1E2A00" Ref="TP?"  Part="1" 
AR Path="/5C5F098F/5CB3F455/5D1E2A00" Ref="TP4"  Part="1" 
AR Path="/5C5F098F/5C5F0B22/5D1E2A00" Ref="TP7"  Part="1" 
F 0 "TP4" H 4700 1850 50  0000 R CNN
F 1 "DELTA-" H 4700 1850 50  0001 R CNN
F 2 "TestPoint:TestPoint_Pad_D1.0mm" H 4950 1700 50  0001 C CNN
F 3 "~" H 4950 1700 50  0001 C CNN
	1    4750 1700
	-1   0    0    1   
$EndComp
$Comp
L Connector:TestPoint TP?
U 1 1 5D1E2A06
P 4750 2100
AR Path="/5C5F098F/5C5F0B20/5D1E2A06" Ref="TP?"  Part="1" 
AR Path="/5C5F098F/5CB3F455/5D1E2A06" Ref="TP6"  Part="1" 
AR Path="/5C5F098F/5C5F0B22/5D1E2A06" Ref="TP9"  Part="1" 
F 0 "TP6" H 4800 2250 50  0000 L CNN
F 1 "DELTA+" H 4800 2150 50  0001 L CNN
F 2 "TestPoint:TestPoint_Pad_D1.0mm" H 4950 2100 50  0001 C CNN
F 3 "~" H 4950 2100 50  0001 C CNN
	1    4750 2100
	1    0    0    -1  
$EndComp
$Comp
L power:GNDA #PWR0112
U 1 1 5D048298
P 5050 2600
AR Path="/5C5F098F/5C5F0B22/5D048298" Ref="#PWR0112"  Part="1" 
AR Path="/5C5F098F/5CB3F455/5D048298" Ref="#PWR071"  Part="1" 
F 0 "#PWR071" H 5050 2350 50  0001 C CNN
F 1 "GNDA" H 5050 2450 50  0000 C CNN
F 2 "" H 5050 2600 50  0001 C CNN
F 3 "" H 5050 2600 50  0001 C CNN
	1    5050 2600
	1    0    0    -1  
$EndComp
Wire Wire Line
	4750 2300 5150 2300
Text HLabel 5950 2550 2    50   Input ~ 0
DELTA_MODE
Connection ~ 5850 2550
Wire Wire Line
	5850 2550 5950 2550
Wire Wire Line
	5450 2550 5450 2500
Wire Wire Line
	5850 2550 5450 2550
Wire Wire Line
	5850 1850 5850 2550
Wire Wire Line
	5450 1850 5850 1850
Wire Wire Line
	5050 2100 5050 2600
Connection ~ 5050 2100
Wire Wire Line
	5150 2100 5050 2100
Text HLabel 1900 1800 0    50   Input ~ 0
VRef-
Text HLabel 1900 1900 0    50   Input ~ 0
VRef+
Connection ~ 4800 4850
Wire Wire Line
	5000 4850 4800 4850
Wire Wire Line
	5000 4850 5000 4950
Text Notes 6300 6950 0    50   ~ 0
(5) RC=9.54ns; full discharge after 100ns
Wire Wire Line
	8050 4550 8400 4550
Wire Wire Line
	7750 4550 7400 4550
Wire Wire Line
	7500 5350 7500 5250
Wire Wire Line
	7500 5250 7600 5250
Wire Wire Line
	8200 3750 8400 3750
Wire Wire Line
	7600 3750 7400 3750
Wire Wire Line
	8400 3750 8400 4550
Wire Wire Line
	8400 4550 8400 5150
Wire Wire Line
	7400 4550 7400 5050
Connection ~ 8400 4550
Wire Wire Line
	6800 4750 6600 4750
Wire Wire Line
	6800 4850 6600 4850
Wire Wire Line
	6800 4950 6600 4950
Wire Wire Line
	6800 5050 6600 5050
Wire Wire Line
	7100 4750 7200 4750
Wire Wire Line
	7200 4750 7200 4850
Wire Wire Line
	7200 5050 7100 5050
Wire Wire Line
	7100 4950 7200 4950
Connection ~ 7200 4950
Wire Wire Line
	7200 4950 7200 5050
Wire Wire Line
	7100 4850 7200 4850
Connection ~ 7200 4850
Wire Wire Line
	7200 4850 7200 4950
Connection ~ 7200 5050
Text HLabel 8600 5150 2    50   Output ~ 0
OUT
Wire Wire Line
	7400 5050 7200 5050
Wire Wire Line
	7400 5050 7600 5050
Connection ~ 7400 5050
$Comp
L Device:R R36
U 1 1 5C7E3049
P 6950 5050
AR Path="/5C5F098F/5C5F0B22/5C7E3049" Ref="R36"  Part="1" 
AR Path="/5C5F098F/5CB3F455/5C7E3049" Ref="R22"  Part="1" 
F 0 "R22" V 6900 4850 50  0000 C CNN
F 1 "2M" V 6950 5050 50  0000 C CNN
F 2 "Resistor_SMD:R_0805_2012Metric" V 6880 5050 50  0001 C CNN
F 3 "~" H 6950 5050 50  0001 C CNN
F 4 "TE Connectivity" H 400 0   50  0001 C CNN "Manufacturer"
F 5 "CPF0805B2M0E" H 400 0   50  0001 C CNN "PN"
F 6 "0.1%" H 400 0   50  0001 C CNN "Tolerance"
	1    6950 5050
	0    1    1    0   
$EndComp
$Comp
L Device:R R35
U 1 1 5C7E301D
P 6950 4950
AR Path="/5C5F098F/5C5F0B22/5C7E301D" Ref="R35"  Part="1" 
AR Path="/5C5F098F/5CB3F455/5C7E301D" Ref="R21"  Part="1" 
F 0 "R21" V 6900 4750 50  0000 C CNN
F 1 "200k" V 6950 4950 50  0000 C CNN
F 2 "Resistor_SMD:R_0603_1608Metric" V 6880 4950 50  0001 C CNN
F 3 "~" H 6950 4950 50  0001 C CNN
F 4 "Ohmite" H 400 0   50  0001 C CNN "Manufacturer"
F 5 "APC0603B200KN" H 400 0   50  0001 C CNN "PN"
F 6 "0.1%" H 400 0   50  0001 C CNN "Tolerance"
	1    6950 4950
	0    1    1    0   
$EndComp
$Comp
L Device:R R34
U 1 1 5C7E2FF3
P 6950 4850
AR Path="/5C5F098F/5C5F0B22/5C7E2FF3" Ref="R34"  Part="1" 
AR Path="/5C5F098F/5CB3F455/5C7E2FF3" Ref="R20"  Part="1" 
F 0 "R20" V 6900 4650 50  0000 C CNN
F 1 "20k" V 6950 4850 50  0000 C CNN
F 2 "Resistor_SMD:R_0603_1608Metric" V 6880 4850 50  0001 C CNN
F 3 "~" H 6950 4850 50  0001 C CNN
F 4 "Ohmite" H 400 0   50  0001 C CNN "Manufacturer"
F 5 "APC0603B20K0N" H 400 0   50  0001 C CNN "PN"
F 6 "0.1%" H 400 0   50  0001 C CNN "Tolerance"
	1    6950 4850
	0    1    1    0   
$EndComp
$Comp
L Device:R R33
U 1 1 5C7E2F0A
P 6950 4750
AR Path="/5C5F098F/5C5F0B22/5C7E2F0A" Ref="R33"  Part="1" 
AR Path="/5C5F098F/5CB3F455/5C7E2F0A" Ref="R19"  Part="1" 
F 0 "R19" V 6900 4550 50  0000 C CNN
F 1 "2k" V 6950 4750 50  0000 C CNN
F 2 "Resistor_SMD:R_0603_1608Metric" V 6880 4750 50  0001 C CNN
F 3 "~" H 6950 4750 50  0001 C CNN
F 4 "Ohmite" H 400 0   50  0001 C CNN "Manufacturer"
F 5 "APC0603B2K00N" H 400 0   50  0001 C CNN "PN"
F 6 "0.1%" H 400 0   50  0001 C CNN "Tolerance"
	1    6950 4750
	0    1    1    0   
$EndComp
$Comp
L power:GNDA #PWR0121
U 1 1 5C7C7B86
P 7500 5350
AR Path="/5C5F098F/5C5F0B22/5C7C7B86" Ref="#PWR0121"  Part="1" 
AR Path="/5C5F098F/5CB3F455/5C7C7B86" Ref="#PWR080"  Part="1" 
F 0 "#PWR080" H 7500 5100 50  0001 C CNN
F 1 "GNDA" H 7500 5200 50  0000 C CNN
F 2 "" H 7500 5350 50  0001 C CNN
F 3 "" H 7500 5350 50  0001 C CNN
	1    7500 5350
	1    0    0    -1  
$EndComp
$Comp
L Device:C C35
U 1 1 5C6AAF2D
P 7900 4550
AR Path="/5C5F098F/5C5F0B22/5C6AAF2D" Ref="C35"  Part="1" 
AR Path="/5C5F098F/5C6B2E00/5C6AAF2D" Ref="C?"  Part="1" 
AR Path="/5C5F098F/5CB3F455/5C6AAF2D" Ref="C15"  Part="1" 
F 0 "C15" V 7648 4550 50  0000 C CNN
F 1 "180p" V 7739 4550 50  0000 C CNN
F 2 "Capacitor_SMD:C_0805_2012Metric" H 7938 4400 50  0001 C CNN
F 3 "~" H 7900 4550 50  0001 C CNN
F 4 "Panasonic" H 400 0   50  0001 C CNN "Manufacturer"
F 5 "ECH-U1H181GX5" H 400 0   50  0001 C CNN "PN"
F 6 "2%" H 400 0   50  0001 C CNN "Tolerance"
F 7 "PPS" H 7900 4550 50  0001 C CNN "Dielectric"
F 8 "50V" H 7900 4550 50  0001 C CNN "Value2"
	1    7900 4550
	0    1    1    0   
$EndComp
Wire Wire Line
	7900 3450 7900 3550
$Comp
L Capstone:DG4052ExQ_Split U19
U 3 1 5CC9E2AC
P 6100 4850
AR Path="/5C5F098F/5C5F0B22/5CC9E2AC" Ref="U19"  Part="2" 
AR Path="/5C5F098F/5CB3F455/5CC9E2AC" Ref="U19"  Part="3" 
F 0 "U19" H 5800 5100 50  0000 C CNN
F 1 "DG4052ExQ" H 6300 4500 50  0000 C CNN
F 2 "Package_SO:TSSOP-16_4.4x5mm_P0.65mm" H 6250 4100 50  0001 L CNN
F 3 "https://www.vishay.com/docs/69685/dg4051e.pdf" H 6355 4850 50  0001 C CNN
F 4 "Vishay" H 6100 4850 50  0001 C CNN "Manufacturer"
F 5 "DG4052EEQ-T1-GE3" H 6100 4850 50  0001 C CNN "PN"
	3    6100 4850
	1    0    0    -1  
$EndComp
Wire Wire Line
	8200 5150 8400 5150
Connection ~ 8400 5150
$Comp
L Capstone:LTC6244HVxMS8 U20
U 1 1 5D1ADDA3
P 7900 5150
AR Path="/5C5F098F/5C5F0B22/5D1ADDA3" Ref="U20"  Part="2" 
AR Path="/5C5F098F/5CB3F455/5D1ADDA3" Ref="U20"  Part="1" 
F 0 "U20" H 7900 4783 50  0000 C CNN
F 1 "LTC6244HVxMS8" H 7900 4874 50  0000 C CNN
F 2 "Package_SO:MSOP-8_3x3mm_P0.65mm" H 7900 5150 50  0001 C CNN
F 3 "https://www.analog.com/media/en/technical-documentation/data-sheets/6244fb.pdf" H 7900 5150 50  0001 C CNN
F 4 "Analog Devices" H 400 0   50  0001 C CNN "Manufacturer"
F 5 "LTC6244HVCMS8#PBF" H 400 0   50  0001 C CNN "PN"
	1    7900 5150
	1    0    0    1   
$EndComp
Text Label 7800 3450 2    50   ~ 0
~intrst
Wire Wire Line
	8400 5150 8600 5150
Text Notes 5700 5250 0    50   ~ 0
(3)
Text Notes 7950 3600 0    50   ~ 0
(4)
Wire Wire Line
	5000 4850 5600 4850
Connection ~ 5000 4850
Text Label 5100 4850 0    50   ~ 0
intin
$Comp
L Connector:TestPoint TP22
U 1 1 5D00CEC4
P 5000 4950
AR Path="/5C5F098F/5C5F0B22/5D00CEC4" Ref="TP22"  Part="1" 
AR Path="/5C5F098F/5CB3F455/5D00CEC4" Ref="TP19"  Part="1" 
F 0 "TP19" H 4942 4976 50  0000 R CNN
F 1 "intin" H 4942 5067 50  0000 R CNN
F 2 "TestPoint:TestPoint_Pad_D1.0mm" H 5200 4950 50  0001 C CNN
F 3 "~" H 5200 4950 50  0001 C CNN
	1    5000 4950
	1    0    0    1   
$EndComp
Wire Wire Line
	5750 2200 6350 2200
Wire Wire Line
	6350 1900 6350 2200
Wire Wire Line
	5750 1500 6350 1500
Wire Wire Line
	6350 1500 6350 1800
Wire Wire Line
	7550 1700 7550 1800
Wire Wire Line
	7550 1900 7550 2000
Connection ~ 7550 1900
Connection ~ 7550 1700
Connection ~ 8300 1800
Text Label 8600 1800 2    50   ~ 0
delta
Wire Wire Line
	8300 1800 8600 1800
Wire Wire Line
	7500 2000 7550 2000
Wire Wire Line
	7550 1900 7500 1900
Wire Wire Line
	7500 1800 7550 1800
Wire Wire Line
	7550 1700 7500 1700
Wire Wire Line
	7550 1700 7600 1700
Wire Wire Line
	7600 1900 7550 1900
Wire Wire Line
	7100 1700 7000 1700
Wire Wire Line
	8300 1800 8200 1800
Wire Wire Line
	7100 2000 7000 2000
Wire Wire Line
	7000 2000 7000 2050
Text Label 6450 1800 0    50   ~ 0
delta-
Wire Wire Line
	7150 1300 7000 1300
Connection ~ 7000 1300
Wire Wire Line
	7000 1300 7000 1700
Wire Wire Line
	7450 1300 7550 1300
Wire Wire Line
	7550 1300 7550 1700
$Comp
L Device:CTRIM C12
U 1 1 5CFFFCFD
P 7300 1300
AR Path="/5C5F098F/5CB3F455/5CFFFCFD" Ref="C12"  Part="1" 
AR Path="/5C5F098F/5C5F0B22/5CFFFCFD" Ref="C32"  Part="1" 
F 0 "C12" V 7450 1300 50  0000 C CNN
F 1 "JR400" V 7150 1300 50  0000 C CNN
F 2 "Capacitor_SMD:C_Trimmer_Voltronics_JR" H 7300 1300 50  0001 C CNN
F 3 "~" H 7300 1300 50  0001 C CNN
F 4 "Knowles Voltronics" H 900 0   50  0001 C CNN "Manufacturer"
F 5 "JR300" H 900 0   50  0001 C CNN "PN"
F 6 "5-30pF" H 7300 1300 50  0001 C CNN "Value2"
	1    7300 1300
	0    1    -1   0   
$EndComp
$Comp
L Capstone:LTC6244HVxMS8 U26
U 1 1 5CFE8636
P 7900 1800
AR Path="/5C5F098F/5C5F0B22/5CFE8636" Ref="U26"  Part="1" 
AR Path="/5C5F098F/5CB3F455/5CFE8636" Ref="U12"  Part="1" 
F 0 "U12" H 7900 1450 50  0000 C CNN
F 1 "LTC6244HVxMS8" H 7900 1550 50  0000 C CNN
F 2 "Package_SO:MSOP-8_3x3mm_P0.65mm" H 7900 1800 50  0001 C CNN
F 3 "https://www.analog.com/media/en/technical-documentation/data-sheets/6244fb.pdf" H 7900 1800 50  0001 C CNN
F 4 "Analog Devices" H 900 0   50  0001 C CNN "Manufacturer"
F 5 "LTC6244HVCMS8#PBF" H 900 0   50  0001 C CNN "PN"
	1    7900 1800
	1    0    0    1   
$EndComp
$Comp
L power:GNDA #PWR0110
U 1 1 5C7E130D
P 7000 2050
AR Path="/5C5F098F/5C5F0B22/5C7E130D" Ref="#PWR0110"  Part="1" 
AR Path="/5C5F098F/5CB3F455/5C7E130D" Ref="#PWR069"  Part="1" 
F 0 "#PWR069" H 7000 1800 50  0001 C CNN
F 1 "GNDA" H 7000 1900 50  0000 C CNN
F 2 "" H 7000 2050 50  0001 C CNN
F 3 "" H 7000 2050 50  0001 C CNN
	1    7000 2050
	1    0    0    -1  
$EndComp
$Comp
L Device:R_Pack04 RN2
U 1 1 5C7D8D23
P 7300 1900
AR Path="/5C5F098F/5C5F0B22/5C7D8D23" Ref="RN2"  Part="1" 
AR Path="/5C5F098F/5CB3F455/5C7D8D23" Ref="RN1"  Part="1" 
F 0 "RN1" V 7000 1900 50  0000 C CNN
F 1 "1k" V 7500 1900 50  0000 C CNN
F 2 "Package_SO:TSSOP-8_3x3mm_P0.65mm" V 7575 1900 50  0001 C CNN
F 3 "~" H 7300 1900 50  0001 C CNN
F 4 "Vishay" V 7300 1900 50  0001 C CNN "Manufacturer"
F 5 "MORNTA1001AT5" H 900 0   50  0001 C CNN "PN"
F 6 "0.1%" H 7300 1900 50  0001 C CNN "Tolerance"
	1    7300 1900
	0    1    1    0   
$EndComp
$Comp
L Device:C C31
U 1 1 5D12AC4D
P 7300 900
AR Path="/5C5F098F/5C5F0B22/5D12AC4D" Ref="C31"  Part="1" 
AR Path="/5C5F098F/5CB3F455/5D12AC4D" Ref="C11"  Part="1" 
F 0 "C11" V 7150 900 50  0000 C CNN
F 1 "DNI" V 7450 900 50  0000 C CNN
F 2 "Capacitor_SMD:C_0603_1608Metric" H 7338 750 50  0001 C CNN
F 3 "~" H 7300 900 50  0001 C CNN
	1    7300 900 
	0    1    1    0   
$EndComp
Wire Wire Line
	7150 900  7000 900 
Wire Wire Line
	7000 900  7000 1300
Wire Wire Line
	7450 900  7550 900 
Wire Wire Line
	7550 900  7550 1300
Connection ~ 7550 1300
Wire Wire Line
	8300 600  7000 600 
Wire Wire Line
	7000 600  7000 900 
Wire Wire Line
	8300 600  8300 1800
Connection ~ 7000 900 
Text Notes 7600 1100 0    50   ~ 0
(2)
Wire Wire Line
	6350 1800 7100 1800
Wire Wire Line
	6350 1900 7100 1900
Text Label 6450 1900 0    50   ~ 0
delta+
$Comp
L power:GNDD #PWR?
U 1 1 5CEA4A26
P 9400 6400
AR Path="/5C5F098F/5CEA4A26" Ref="#PWR?"  Part="1" 
AR Path="/5C5F098F/5C5F0B22/5CEA4A26" Ref="#PWR0183"  Part="1" 
AR Path="/5C5F098F/5CB3F455/5CEA4A26" Ref="#PWR0181"  Part="1" 
F 0 "#PWR0181" H 9400 6150 50  0001 C CNN
F 1 "GNDD" H 9400 6250 50  0000 C CNN
F 2 "" H 9400 6400 50  0001 C CNN
F 3 "" H 9400 6400 50  0001 C CNN
	1    9400 6400
	1    0    0    -1  
$EndComp
$Comp
L power:+3V3 #PWR?
U 1 1 5CEA4054
P 9400 5700
AR Path="/5C5F098F/5CEA4054" Ref="#PWR?"  Part="1" 
AR Path="/5C5F098F/5C5F0B22/5CEA4054" Ref="#PWR0182"  Part="1" 
AR Path="/5C5F098F/5CB3F455/5CEA4054" Ref="#PWR0180"  Part="1" 
F 0 "#PWR0180" H 9400 5550 50  0001 C CNN
F 1 "+3V3" H 9400 5850 50  0000 C CNN
F 2 "" H 9400 5700 50  0001 C CNN
F 3 "" H 9400 5700 50  0001 C CNN
	1    9400 5700
	1    0    0    -1  
$EndComp
Connection ~ 9400 6300
Wire Wire Line
	9400 6300 9400 6400
Wire Wire Line
	9400 5800 9400 5700
Connection ~ 9400 5800
Wire Wire Line
	9900 6200 9900 6300
Wire Wire Line
	9400 6300 9400 6200
Wire Wire Line
	9900 6300 9400 6300
Wire Wire Line
	9900 5800 9900 5900
Wire Wire Line
	9400 5800 9900 5800
Wire Wire Line
	9400 5900 9400 5800
$Comp
L Device:C C?
U 1 1 5CE74748
P 9900 6050
AR Path="/5C5F098F/5C5F0B20/5CE74748" Ref="C?"  Part="1" 
AR Path="/5C5F098F/5C5F0B22/5CE74748" Ref="C100"  Part="1" 
AR Path="/5C5F098F/5CB3F455/5CE74748" Ref="C98"  Part="1" 
F 0 "C98" H 10015 6096 50  0000 L CNN
F 1 "100n" H 10015 6005 50  0000 L CNN
F 2 "Capacitor_SMD:C_0603_1608Metric" H 9938 5900 50  0001 C CNN
F 3 "~" H 9900 6050 50  0001 C CNN
F 4 "Murata" H 9900 6050 50  0001 C CNN "Manufacturer"
F 5 "GRM188R71C104KA01D" H 9900 6050 50  0001 C CNN "PN"
F 6 "10%" H 9900 6050 50  0001 C CNN "Tolerance"
F 7 "X7R" H 9900 6050 50  0001 C CNN "Dielectric"
F 8 "16V" H 9900 6050 50  0001 C CNN "Value2"
	1    9900 6050
	1    0    0    -1  
$EndComp
$Comp
L Device:C C?
U 1 1 5CE667B9
P 9400 6050
AR Path="/5C5F098F/5C5F0B20/5CE667B9" Ref="C?"  Part="1" 
AR Path="/5C5F098F/5C5F0B22/5CE667B9" Ref="C99"  Part="1" 
AR Path="/5C5F098F/5CB3F455/5CE667B9" Ref="C97"  Part="1" 
F 0 "C97" H 9515 6096 50  0000 L CNN
F 1 "100n" H 9515 6005 50  0000 L CNN
F 2 "Capacitor_SMD:C_0603_1608Metric" H 9438 5900 50  0001 C CNN
F 3 "~" H 9400 6050 50  0001 C CNN
F 4 "Murata" H 9400 6050 50  0001 C CNN "Manufacturer"
F 5 "GRM188R71C104KA01D" H 9400 6050 50  0001 C CNN "PN"
F 6 "10%" H 9400 6050 50  0001 C CNN "Tolerance"
F 7 "X7R" H 9400 6050 50  0001 C CNN "Dielectric"
F 8 "16V" H 9400 6050 50  0001 C CNN "Value2"
	1    9400 6050
	1    0    0    -1  
$EndComp
Wire Wire Line
	6200 3600 6550 3600
Wire Wire Line
	6550 3550 6650 3550
Wire Wire Line
	6550 3550 6550 3600
Text Label 6500 3600 2    50   ~ 0
~reset
Wire Wire Line
	7150 3450 7900 3450
$Comp
L power:+3V3 #PWR0116
U 1 1 5D7198F0
P 6900 3200
AR Path="/5C5F098F/5C5F0B22/5D7198F0" Ref="#PWR0116"  Part="1" 
AR Path="/5C5F098F/5CB3F455/5D7198F0" Ref="#PWR075"  Part="1" 
F 0 "#PWR075" H 6900 3050 50  0001 C CNN
F 1 "+3V3" H 6900 3350 50  0000 C CNN
F 2 "" H 6900 3200 50  0001 C CNN
F 3 "" H 6900 3200 50  0001 C CNN
	1    6900 3200
	1    0    0    -1  
$EndComp
$Comp
L power:GNDD #PWR0118
U 1 1 5D7691F2
P 6900 3700
AR Path="/5C5F098F/5C5F0B22/5D7691F2" Ref="#PWR0118"  Part="1" 
AR Path="/5C5F098F/5CB3F455/5D7691F2" Ref="#PWR077"  Part="1" 
F 0 "#PWR077" H 6900 3450 50  0001 C CNN
F 1 "GNDD" H 6900 3550 50  0000 C CNN
F 2 "" H 6900 3700 50  0001 C CNN
F 3 "" H 6900 3700 50  0001 C CNN
	1    6900 3700
	1    0    0    -1  
$EndComp
$Comp
L 74xGxx:74LVC1G58 U28
U 1 1 5E29DC2D
P 6900 3450
AR Path="/5C5F098F/5C5F0B22/5E29DC2D" Ref="U28"  Part="1" 
AR Path="/5C5F098F/5CB3F455/5E29DC2D" Ref="U14"  Part="1" 
F 0 "U14" H 6800 3650 50  0000 C CNN
F 1 "74LVC1G58" H 7150 3250 50  0000 C CNN
F 2 "Package_TO_SOT_SMD:SOT-363_SC-70-6" H 6900 3450 50  0001 C CNN
F 3 "http://www.ti.com/lit/sg/scyt129e/scyt129e.pdf" H 6900 3450 50  0001 C CNN
F 4 "Texas Instruments" H 400 0   50  0001 C CNN "Manufacturer"
F 5 "SN74LVC1G58DCKR" H 400 0   50  0001 C CNN "PN"
	1    6900 3450
	1    0    0    -1  
$EndComp
$Comp
L power:GNDD #PWR?
U 1 1 5EDD5E5C
P 6000 3800
AR Path="/5C5F098F/5EDD5E5C" Ref="#PWR?"  Part="1" 
AR Path="/5C5F098F/5C5F0B22/5EDD5E5C" Ref="#PWR0119"  Part="1" 
AR Path="/5C5F098F/5CB3F455/5EDD5E5C" Ref="#PWR078"  Part="1" 
F 0 "#PWR078" H 6000 3550 50  0001 C CNN
F 1 "GNDD" H 6000 3650 50  0000 C CNN
F 2 "" H 6000 3800 50  0001 C CNN
F 3 "" H 6000 3800 50  0001 C CNN
	1    6000 3800
	1    0    0    -1  
$EndComp
$Comp
L power:+3V3 #PWR?
U 1 1 5EDD5E69
P 6000 3400
AR Path="/5C5F098F/5EDD5E69" Ref="#PWR?"  Part="1" 
AR Path="/5C5F098F/5C5F0B22/5EDD5E69" Ref="#PWR0117"  Part="1" 
AR Path="/5C5F098F/5CB3F455/5EDD5E69" Ref="#PWR076"  Part="1" 
F 0 "#PWR076" H 6000 3250 50  0001 C CNN
F 1 "+3V3" H 6000 3550 50  0000 C CNN
F 2 "" H 6000 3400 50  0001 C CNN
F 3 "" H 6000 3400 50  0001 C CNN
	1    6000 3400
	1    0    0    -1  
$EndComp
$Comp
L 74xGxx:74LVC1G125 U?
U 1 1 5EDD5E70
P 5950 3600
AR Path="/5EDD5E70" Ref="U?"  Part="1" 
AR Path="/5C5F098F/5EDD5E70" Ref="U?"  Part="1" 
AR Path="/5C5F098F/5C5F0B22/5EDD5E70" Ref="U29"  Part="1" 
AR Path="/5C5F098F/5CB3F455/5EDD5E70" Ref="U15"  Part="1" 
F 0 "U15" H 6050 3550 50  0000 L CNN
F 1 "74LVC1G125" H 6050 3450 50  0000 L CNN
F 2 "Package_TO_SOT_SMD:SOT-353_SC-70-5" H 5950 3600 50  0001 C CNN
F 3 "http://www.ti.com/lit/sg/scyt129e/scyt129e.pdf" H 5950 3600 50  0001 C CNN
F 4 "Nexperia" H -3650 750 50  0001 C CNN "Manufacturer"
F 5 "74LVC1G125GW,125" H -3650 750 50  0001 C CNN "PN"
	1    5950 3600
	1    0    0    -1  
$EndComp
Text HLabel 6550 3450 0    50   Input ~ 0
~ENABLE
Wire Wire Line
	6550 3450 6650 3450
Wire Wire Line
	6000 3400 6000 3550
Wire Wire Line
	5550 3600 5650 3600
Connection ~ 6000 3750
Wire Wire Line
	6000 3750 6000 3800
Wire Wire Line
	6000 3650 6000 3750
Wire Wire Line
	5600 3750 6000 3750
Wire Wire Line
	5600 3400 5600 3750
Wire Wire Line
	5950 3400 5600 3400
Text HLabel 5550 3600 0    50   Input ~ 0
~RESET
Text Notes 7100 3250 2    50   ~ 0
(1)
Wire Wire Line
	6900 3200 6900 3300
Wire Wire Line
	6900 3650 6900 3700
Connection ~ 6900 3650
Wire Wire Line
	6600 3650 6900 3650
Wire Wire Line
	6600 3350 6600 3650
Wire Wire Line
	6650 3350 6600 3350
Wire Wire Line
	6900 3600 6900 3650
Text Notes 5650 3350 0    50   ~ 0
(6)
Connection ~ 7400 4550
Wire Wire Line
	7400 4250 7400 4550
Wire Wire Line
	7400 3750 7400 4050
$Comp
L Analog_Switch:DG9421DV U30
U 1 1 5CB2C458
P 7900 3750
AR Path="/5C5F098F/5C5F0B22/5CB2C458" Ref="U30"  Part="1" 
AR Path="/5C5F098F/5CB3F455/5CB2C458" Ref="U16"  Part="1" 
F 0 "U16" H 7900 3924 50  0000 C CNN
F 1 "DG9421DV" H 7900 4015 50  0000 C CNN
F 2 "Package_TO_SOT_SMD:SOT-23-6" H 7900 3650 50  0001 C CNN
F 3 "https://www.vishay.com/docs/70679/dg9421.pdf" H 7900 3750 50  0001 C CNN
F 4 "Vishay" H 400 0   50  0001 C CNN "Manufacturer"
F 5 "DG9421EDV-T1-GE3" H 400 0   50  0001 C CNN "PN"
	1    7900 3750
	-1   0    0    1   
$EndComp
$Comp
L Device:R_Small R32
U 1 1 5C6BED04
P 7400 4150
AR Path="/5C5F098F/5C5F0B22/5C6BED04" Ref="R32"  Part="1" 
AR Path="/5C5F098F/5C6B2E00/5C6BED04" Ref="R?"  Part="1" 
AR Path="/5C5F098F/5CB3F455/5C6BED04" Ref="R18"  Part="1" 
F 0 "R18" H 7459 4196 50  0000 L CNN
F 1 "51" H 7459 4105 50  0000 L CNN
F 2 "Resistor_SMD:R_0603_1608Metric" H 7400 4150 50  0001 C CNN
F 3 "~" H 7400 4150 50  0001 C CNN
F 4 "ROHM" H 400 0   50  0001 C CNN "Manufacturer"
F 5 "ESR03EZPJ510" H 400 0   50  0001 C CNN "PN"
F 6 "5%" H 400 0   50  0001 C CNN "Tolerance"
	1    7400 4150
	1    0    0    -1  
$EndComp
Text Notes 7200 4200 0    50   ~ 0
(5)
Wire Wire Line
	8900 5900 8900 5800
Wire Wire Line
	8900 6300 8900 6200
$Comp
L Device:C C115
U 1 1 5D7B96B1
P 8900 6050
AR Path="/5C5F098F/5C5F0B22/5D7B96B1" Ref="C115"  Part="1" 
AR Path="/5C5F098F/5CB3F455/5D7B96B1" Ref="C114"  Part="1" 
F 0 "C114" H 9015 6096 50  0000 L CNN
F 1 "470n" H 9015 6005 50  0000 L CNN
F 2 "Capacitor_SMD:C_0603_1608Metric" H 8938 5900 50  0001 C CNN
F 3 "~" H 8900 6050 50  0001 C CNN
F 4 "Murata" H 8900 6050 50  0001 C CNN "Manufacturer"
F 5 "GRM188R71C474KA88D" H 8900 6050 50  0001 C CNN "PN"
F 6 "10%" H 8900 6050 50  0001 C CNN "Tolerance"
F 7 "X7R" H 8900 6050 50  0001 C CNN "Dielectric"
F 8 "16V" H 8900 6050 50  0001 C CNN "Value2"
	1    8900 6050
	1    0    0    -1  
$EndComp
$Comp
L power:-5VA #PWR0196
U 1 1 5D7B7EF1
P 8900 6300
AR Path="/5C5F098F/5C5F0B22/5D7B7EF1" Ref="#PWR0196"  Part="1" 
AR Path="/5C5F098F/5CB3F455/5D7B7EF1" Ref="#PWR0194"  Part="1" 
F 0 "#PWR0194" H 8900 6400 50  0001 C CNN
F 1 "-5VA" H 8900 6450 50  0000 C CNN
F 2 "" H 8900 6300 50  0001 C CNN
F 3 "" H 8900 6300 50  0001 C CNN
	1    8900 6300
	1    0    0    1   
$EndComp
$Comp
L power:+5VA #PWR0195
U 1 1 5D7B7B26
P 8900 5800
AR Path="/5C5F098F/5C5F0B22/5D7B7B26" Ref="#PWR0195"  Part="1" 
AR Path="/5C5F098F/5CB3F455/5D7B7B26" Ref="#PWR0193"  Part="1" 
F 0 "#PWR0193" H 8900 5650 50  0001 C CNN
F 1 "+5VA" H 8900 5950 50  0000 C CNN
F 2 "" H 8900 5800 50  0001 C CNN
F 3 "" H 8900 5800 50  0001 C CNN
	1    8900 5800
	1    0    0    -1  
$EndComp
Text Notes 4000 1250 0    50   ~ 0
(7)
Text Notes 6300 6750 0    50   ~ 0
(7) It would have been better to place this buffer directly in front of the attenuator
$EndSCHEMATC
