EESchema Schematic File Version 4
LIBS:Capstone-cache
EELAYER 29 0
EELAYER END
$Descr USLetter 11000 8500
encoding utf-8
Sheet 5 8
Title "Capstone"
Date ""
Rev ""
Comp ""
Comment1 ""
Comment2 ""
Comment3 ""
Comment4 ""
$EndDescr
Text HLabel 8650 1800 2    50   Output ~ 0
VRef+
Text HLabel 8650 2300 2    50   Output ~ 0
VRef-
Wire Wire Line
	7250 1700 6750 1700
Text Label 6750 1700 0    50   ~ 0
VRef+2.048
Wire Wire Line
	7250 2200 6750 2200
Text Label 6750 2200 0    50   ~ 0
VRef-2.048
Wire Wire Line
	7250 1800 6750 1800
Text Label 6750 1800 0    50   ~ 0
VRef+2.5
Wire Wire Line
	7250 2300 6750 2300
Text Label 6750 2300 0    50   ~ 0
VRef-2.5
Wire Wire Line
	7250 1900 6750 1900
Text Label 6750 1900 0    50   ~ 0
VRef+4.096
Wire Wire Line
	7250 2400 6750 2400
Text Label 6750 2400 0    50   ~ 0
VRef-4.096
$Comp
L power:+5VA #PWR092
U 1 1 5CAC8CAF
P 7650 1200
F 0 "#PWR092" H 7650 1050 50  0001 C CNN
F 1 "+5VA" H 7650 1350 50  0000 C CNN
F 2 "" H 7650 1200 50  0001 C CNN
F 3 "" H 7650 1200 50  0001 C CNN
	1    7650 1200
	1    0    0    -1  
$EndComp
$Comp
L power:-5VA #PWR098
U 1 1 5CAC9DBC
P 7750 2800
F 0 "#PWR098" H 7750 2900 50  0001 C CNN
F 1 "-5VA" H 7750 2950 50  0000 C CNN
F 2 "" H 7750 2800 50  0001 C CNN
F 3 "" H 7750 2800 50  0001 C CNN
	1    7750 2800
	-1   0    0    1   
$EndComp
$Comp
L power:GNDD #PWR099
U 1 1 5CACA967
P 8350 2800
F 0 "#PWR099" H 8350 2550 50  0001 C CNN
F 1 "GNDD" H 8350 2650 50  0000 C CNN
F 2 "" H 8350 2800 50  0001 C CNN
F 3 "" H 8350 2800 50  0001 C CNN
	1    8350 2800
	1    0    0    -1  
$EndComp
Wire Wire Line
	7850 2750 7850 2700
Wire Wire Line
	7650 1200 7650 1300
Wire Wire Line
	8650 2300 8450 2300
Wire Wire Line
	7150 2500 7150 2600
$Comp
L power:GNDA #PWR094
U 1 1 5CAE1814
P 7150 2600
F 0 "#PWR094" H 7150 2350 50  0001 C CNN
F 1 "GNDA" H 7150 2450 50  0000 C CNN
F 2 "" H 7150 2600 50  0001 C CNN
F 3 "" H 7150 2600 50  0001 C CNN
	1    7150 2600
	1    0    0    -1  
$EndComp
Wire Wire Line
	7150 2500 7250 2500
Wire Wire Line
	6750 2000 7250 2000
Text Label 6750 2000 0    50   ~ 0
VRef_DAC
Wire Wire Line
	8250 1500 8350 1500
Wire Wire Line
	8250 1600 8350 1600
Text HLabel 8350 1500 2    50   Input ~ 0
REF[0]
Text HLabel 8350 1600 2    50   Input ~ 0
REF[1]
Wire Wire Line
	8250 2400 8350 2400
$Comp
L Capstone:DG4052ExQ U21
U 1 1 5D2C457C
P 7750 2000
F 0 "U21" H 8100 2650 50  0000 C CNN
F 1 "DG4052ExQ" H 7550 2650 50  0000 C CNN
F 2 "Package_SO:TSSOP-16_4.4x5mm_P0.65mm" H 7900 1250 50  0001 L CNN
F 3 "https://www.vishay.com/docs/69828/dg4051a.pdf" H 7730 2200 50  0001 C CNN
F 4 "Vishay" H -750 0   50  0001 C CNN "Manufacturer"
F 5 "DG4052EEQ-T1-GE3" H -750 0   50  0001 C CNN "PN"
	1    7750 2000
	-1   0    0    -1  
$EndComp
Wire Wire Line
	3800 6950 3800 6900
Wire Wire Line
	3800 7550 3800 7600
$Comp
L power:+5VA #PWR0105
U 1 1 5D34F0F7
P 3800 6850
F 0 "#PWR0105" H 3800 6700 50  0001 C CNN
F 1 "+5VA" H 3800 7000 50  0000 C CNN
F 2 "" H 3800 6850 50  0001 C CNN
F 3 "" H 3800 6850 50  0001 C CNN
	1    3800 6850
	1    0    0    -1  
$EndComp
$Comp
L power:-5VA #PWR0107
U 1 1 5D34FA06
P 3800 7650
F 0 "#PWR0107" H 3800 7750 50  0001 C CNN
F 1 "-5VA" H 3800 7800 50  0000 C CNN
F 2 "" H 3800 7650 50  0001 C CNN
F 3 "" H 3800 7650 50  0001 C CNN
	1    3800 7650
	-1   0    0    1   
$EndComp
$Comp
L Capstone:LTC6244HVxMS8 U24
U 3 1 5CFF0817
P 3900 7250
F 0 "U24" H 3858 7296 50  0000 L CNN
F 1 "LTC6244HVxMS8" H 3858 7205 50  0000 L CNN
F 2 "Package_SO:MSOP-8_3x3mm_P0.65mm" H 3900 7250 50  0001 C CNN
F 3 "https://www.analog.com/media/en/technical-documentation/data-sheets/6244fb.pdf" H 3900 7250 50  0001 C CNN
F 4 "Analog Devices" H 1250 750 50  0001 C CNN "Manufacturer"
F 5 "LTC6244HVCMS8#PBF" H 1250 750 50  0001 C CNN "PN"
	3    3900 7250
	1    0    0    -1  
$EndComp
Wire Wire Line
	8350 2750 8350 2800
Wire Wire Line
	7850 2750 8350 2750
Wire Wire Line
	8350 2750 8350 2400
Connection ~ 8350 2750
Wire Wire Line
	7750 2700 7750 2800
$Comp
L Connector:TestPoint TP27
U 1 1 5D035583
P 8450 2250
F 0 "TP27" H 8508 2322 50  0000 L CNN
F 1 "VRef-" H 8508 2277 50  0001 L CNN
F 2 "TestPoint:TestPoint_Pad_D1.0mm" H 8650 2250 50  0001 C CNN
F 3 "~" H 8650 2250 50  0001 C CNN
	1    8450 2250
	1    0    0    -1  
$EndComp
$Comp
L Connector:TestPoint TP25
U 1 1 5D035B11
P 8450 1850
F 0 "TP25" H 8392 1922 50  0000 R CNN
F 1 "VRef+" H 8392 1967 50  0001 R CNN
F 2 "TestPoint:TestPoint_Pad_D1.0mm" H 8650 1850 50  0001 C CNN
F 3 "~" H 8650 1850 50  0001 C CNN
	1    8450 1850
	-1   0    0    1   
$EndComp
Wire Wire Line
	8450 1800 8450 1850
Wire Wire Line
	8450 2250 8450 2300
Connection ~ 8450 1800
Wire Wire Line
	8450 1800 8650 1800
Wire Wire Line
	8250 1800 8450 1800
Connection ~ 8450 2300
Wire Wire Line
	8250 2300 8450 2300
$Comp
L Device:C C?
U 1 1 5CDF7CF5
P 2500 7250
AR Path="/5C5F098F/5C5F0B22/5CDF7CF5" Ref="C?"  Part="1" 
AR Path="/5C5F098F/5CB3F455/5CDF7CF5" Ref="C?"  Part="1" 
AR Path="/5C5F098F/5CDF7CF5" Ref="C?"  Part="1" 
AR Path="/5C5F098F/5C88365D/5CDF7CF5" Ref="C123"  Part="1" 
F 0 "C123" H 2615 7296 50  0000 L CNN
F 1 "470n" H 2615 7205 50  0000 L CNN
F 2 "Capacitor_SMD:C_0603_1608Metric" H 2538 7100 50  0001 C CNN
F 3 "~" H 2500 7250 50  0001 C CNN
F 4 "Murata" H 2500 7250 50  0001 C CNN "Manufacturer"
F 5 "GRM188R71C474KA88D" H 2500 7250 50  0001 C CNN "PN"
F 6 "10%" H 2500 7250 50  0001 C CNN "Tolerance"
F 7 "X7R" H 2500 7250 50  0001 C CNN "Dielectric"
F 8 "16V" H 2500 7250 50  0001 C CNN "Value2"
	1    2500 7250
	1    0    0    -1  
$EndComp
$Comp
L Device:C C?
U 1 1 5CDF7CFE
P 3000 7250
AR Path="/5C5F098F/5C5F0B22/5CDF7CFE" Ref="C?"  Part="1" 
AR Path="/5C5F098F/5CB3F455/5CDF7CFE" Ref="C?"  Part="1" 
AR Path="/5C5F098F/5CDF7CFE" Ref="C?"  Part="1" 
AR Path="/5C5F098F/5C88365D/5CDF7CFE" Ref="C124"  Part="1" 
F 0 "C124" H 3115 7296 50  0000 L CNN
F 1 "1u" H 3115 7205 50  0000 L CNN
F 2 "Capacitor_SMD:C_0805_2012Metric" H 3038 7100 50  0001 C CNN
F 3 "~" H 3000 7250 50  0001 C CNN
F 4 "Murata" H 3000 7250 50  0001 C CNN "Manufacturer"
F 5 "GRM21BR61C105KA01K" H 3000 7250 50  0001 C CNN "PN"
F 6 "10%" H 3000 7250 50  0001 C CNN "Tolerance"
F 7 "X5R" H 3000 7250 50  0001 C CNN "Dielectric"
F 8 "16V" H 3000 7250 50  0001 C CNN "Value2"
	1    3000 7250
	1    0    0    -1  
$EndComp
$Comp
L Device:C C?
U 1 1 5CDF7D07
P 3400 7250
AR Path="/5C5F098F/5C5F0B22/5CDF7D07" Ref="C?"  Part="1" 
AR Path="/5C5F098F/5CB3F455/5CDF7D07" Ref="C?"  Part="1" 
AR Path="/5C5F098F/5CDF7D07" Ref="C?"  Part="1" 
AR Path="/5C5F098F/5C88365D/5CDF7D07" Ref="C125"  Part="1" 
F 0 "C125" H 3515 7296 50  0000 L CNN
F 1 "1u" H 3515 7205 50  0000 L CNN
F 2 "Capacitor_SMD:C_0805_2012Metric" H 3438 7100 50  0001 C CNN
F 3 "~" H 3400 7250 50  0001 C CNN
F 4 "Murata" H 3400 7250 50  0001 C CNN "Manufacturer"
F 5 "GRM21BR61C105KA01K" H 3400 7250 50  0001 C CNN "PN"
F 6 "10%" H 3400 7250 50  0001 C CNN "Tolerance"
F 7 "X5R" H 3400 7250 50  0001 C CNN "Dielectric"
F 8 "16V" H 3400 7250 50  0001 C CNN "Value2"
	1    3400 7250
	1    0    0    -1  
$EndComp
Wire Wire Line
	2500 7100 2500 6900
Wire Wire Line
	2500 6900 3000 6900
Connection ~ 3800 6900
Wire Wire Line
	3800 6900 3800 6850
Wire Wire Line
	3800 7600 3400 7600
Wire Wire Line
	2500 7600 2500 7400
Connection ~ 3800 7600
Wire Wire Line
	3800 7600 3800 7650
Wire Wire Line
	3000 6900 3000 7100
Wire Wire Line
	3000 7400 3000 7600
Connection ~ 3000 6900
Wire Wire Line
	3000 6900 3400 6900
Connection ~ 3000 7600
Wire Wire Line
	3000 7600 2500 7600
Wire Wire Line
	3400 6900 3400 7100
Wire Wire Line
	3400 7400 3400 7600
Connection ~ 3400 6900
Wire Wire Line
	3400 6900 3800 6900
Connection ~ 3400 7600
Wire Wire Line
	3400 7600 3000 7600
Wire Wire Line
	3450 5150 4050 5150
Connection ~ 3450 5150
Wire Wire Line
	3350 5150 3450 5150
Wire Wire Line
	2950 5550 3450 5550
$Comp
L Device:C C22
U 1 1 5CFECE57
P 7750 3650
F 0 "C22" V 7600 3650 50  0000 C CNN
F 1 "DNI" V 7900 3650 50  0000 C CNN
F 2 "Capacitor_SMD:C_0603_1608Metric" H 7788 3500 50  0001 C CNN
F 3 "~" H 7750 3650 50  0001 C CNN
	1    7750 3650
	0    1    1    0   
$EndComp
Connection ~ 8150 4050
Wire Wire Line
	8150 3650 8150 4050
Wire Wire Line
	7900 3650 8150 3650
Connection ~ 7350 4050
Wire Wire Line
	7350 3650 7350 4050
Wire Wire Line
	7600 3650 7350 3650
Connection ~ 8150 4450
Wire Wire Line
	8150 4050 8150 4450
Wire Wire Line
	7350 4050 7350 4450
Wire Wire Line
	8150 4450 8150 5250
Wire Wire Line
	7350 4450 7350 5150
$Comp
L Device:C_Small C27
U 1 1 5D32427C
P 3450 5350
F 0 "C27" H 3542 5396 50  0000 L CNN
F 1 "470n" H 3542 5305 50  0000 L CNN
F 2 "Capacitor_SMD:C_0603_1608Metric" H 3450 5350 50  0001 C CNN
F 3 "~https://www.murata.com/~/media/webrenewal/support/library/catalog/products/capacitor/mlcc/c02e.ashx" H 3450 5350 50  0001 C CNN
F 4 "Murata" H 1300 850 50  0001 C CNN "Manufacturer"
F 5 "GRM188R71C474KA88D" H 1300 850 50  0001 C CNN "PN"
F 6 "10%" H 1300 850 50  0001 C CNN "Tolerance"
F 7 "X7R" H 3450 5350 50  0001 C CNN "Dielectric"
F 8 "16V" H 3450 5350 50  0001 C CNN "Value2"
	1    3450 5350
	1    0    0    -1  
$EndComp
$Comp
L Device:CTRIM C?
U 1 1 5CFEDF45
P 7750 4050
AR Path="/5C5F098F/5C5F0B22/5CFEDF45" Ref="C?"  Part="1" 
AR Path="/5C5F098F/5C88365D/5CFEDF45" Ref="C23"  Part="1" 
F 0 "C23" V 7900 4050 50  0000 C CNN
F 1 "JR060" V 7600 4050 50  0000 C CNN
F 2 "Capacitor_SMD:C_Trimmer_Voltronics_JR" H 7750 4050 50  0001 C CNN
F 3 "https://www.knowlescapacitors.com/getattachment/727ef5bd-b9cf-4698-a84c-cd891d1f5273/JR-Series" H 7750 4050 50  0001 C CNN
F 4 "Knowles Voltronics" H 1700 150 50  0001 C CNN "Manufacturer"
F 5 "JR060" H 1700 150 50  0001 C CNN "PN"
F 6 "2-6pF" H 7750 4050 50  0001 C CNN "Value2"
	1    7750 4050
	0    1    -1   0   
$EndComp
$Comp
L Capstone:LTC6244HVxMS8 U24
U 2 1 5CFEB69D
P 7750 5250
F 0 "U24" H 7750 5050 50  0000 C CNN
F 1 "LTC6244HVxMS8" H 7750 5500 50  0000 C CNN
F 2 "Package_SO:MSOP-8_3x3mm_P0.65mm" H 7750 5250 50  0001 C CNN
F 3 "https://www.analog.com/media/en/technical-documentation/data-sheets/6244fb.pdf" H 7750 5250 50  0001 C CNN
F 4 "Analog Devices" H 1700 850 50  0001 C CNN "Manufacturer"
F 5 "LTC6244HVCMS8#PBF" H 1700 850 50  0001 C CNN "PN"
	2    7750 5250
	1    0    0    1   
$EndComp
$Comp
L Capstone:LTC6244HVxMS8 U24
U 1 1 5CFEB4C5
P 6450 5150
F 0 "U24" H 6450 5517 50  0000 C CNN
F 1 "LTC6244HVxMS8" H 6450 5426 50  0000 C CNN
F 2 "Package_SO:MSOP-8_3x3mm_P0.65mm" H 6450 5150 50  0001 C CNN
F 3 "https://www.analog.com/media/en/technical-documentation/data-sheets/6244fb.pdf" H 6450 5150 50  0001 C CNN
F 4 "Analog Devices" H 1700 850 50  0001 C CNN "Manufacturer"
F 5 "LTC6244HVCMS8#PBF" H 1700 850 50  0001 C CNN "PN"
	1    6450 5150
	1    0    0    -1  
$EndComp
Connection ~ 5950 4650
Connection ~ 5550 4650
Wire Wire Line
	5550 4650 5950 4650
Wire Wire Line
	5350 5250 5950 5250
Wire Wire Line
	5550 5050 5950 5050
Connection ~ 5550 5050
Wire Wire Line
	5550 4700 5550 4650
Wire Wire Line
	5550 5050 5550 5000
Wire Wire Line
	5350 5050 5550 5050
Wire Wire Line
	4050 4450 5600 4450
$Comp
L Device:C C25
U 1 1 5D2370FB
P 5950 4850
F 0 "C25" H 5835 4804 50  0000 R CNN
F 1 "DNI" H 5835 4895 50  0000 R CNN
F 2 "Capacitor_SMD:C_0603_1608Metric" H 5988 4700 50  0001 C CNN
F 3 "~" H 5950 4850 50  0001 C CNN
	1    5950 4850
	1    0    0    1   
$EndComp
Wire Wire Line
	5900 4450 7350 4450
Wire Wire Line
	5950 4650 6850 4650
Wire Wire Line
	4750 4650 5550 4650
Wire Wire Line
	7900 4050 8150 4050
Wire Wire Line
	7350 4050 7600 4050
Wire Wire Line
	5950 4700 5950 4650
Wire Wire Line
	5950 5050 5950 5000
Connection ~ 5950 5050
Wire Wire Line
	6150 5050 5950 5050
$Comp
L Device:CTRIM C?
U 1 1 5D1CD89B
P 5550 4850
AR Path="/5C5F098F/5C5F0B22/5D1CD89B" Ref="C?"  Part="1" 
AR Path="/5C5F098F/5C88365D/5D1CD89B" Ref="C24"  Part="1" 
F 0 "C24" H 5450 4900 50  0000 R CNN
F 1 "JR060" H 5450 4800 50  0000 R CNN
F 2 "Capacitor_SMD:C_Trimmer_Voltronics_JR" H 5550 4850 50  0001 C CNN
F 3 "https://www.knowlescapacitors.com/getattachment/727ef5bd-b9cf-4698-a84c-cd891d1f5273/JR-Series" H 5550 4850 50  0001 C CNN
F 4 "Knowles Voltronics" H 1700 850 50  0001 C CNN "Manufacturer"
F 5 "JR060" H 1700 850 50  0001 C CNN "PN"
F 6 "2-6pF" H 5550 4850 50  0001 C CNN "Value2"
	1    5550 4850
	1    0    0    -1  
$EndComp
Wire Wire Line
	8150 5250 8550 5250
Text Label 8550 5250 2    50   ~ 0
VRef_DAC
Connection ~ 8150 5250
Connection ~ 4050 5150
$Comp
L power:GNDA #PWR0102
U 1 1 5CB1C474
P 7350 5450
F 0 "#PWR0102" H 7350 5200 50  0001 C CNN
F 1 "GNDA" H 7350 5300 50  0000 C CNN
F 2 "" H 7350 5450 50  0001 C CNN
F 3 "" H 7350 5450 50  0001 C CNN
	1    7350 5450
	1    0    0    -1  
$EndComp
Wire Wire Line
	7350 5350 7350 5450
Wire Wire Line
	7450 5350 7350 5350
Connection ~ 7350 4450
Wire Wire Line
	7900 4450 8150 4450
Wire Wire Line
	8150 5250 8050 5250
Wire Wire Line
	7350 4450 7600 4450
$Comp
L Device:R R30
U 1 1 5CB0D633
P 7750 4450
F 0 "R30" V 7650 4450 50  0000 C CNN
F 1 "20k" V 7750 4450 50  0000 C CNN
F 2 "Resistor_SMD:R_0603_1608Metric" V 7680 4450 50  0001 C CNN
F 3 "~" H 7750 4450 50  0001 C CNN
F 4 "Ohmite" H 1700 850 50  0001 C CNN "Manufacturer"
F 5 "APC0603B20K0N" H 1700 850 50  0001 C CNN "PN"
F 6 "0.1%" H 1700 850 50  0001 C CNN "Tolerance"
	1    7750 4450
	0    1    1    0   
$EndComp
Wire Wire Line
	7350 5150 7250 5150
Connection ~ 7350 5150
Connection ~ 6850 5150
Wire Wire Line
	6950 5150 6850 5150
Wire Wire Line
	7450 5150 7350 5150
$Comp
L Device:R R31
U 1 1 5CB09267
P 7100 5150
F 0 "R31" V 6893 5150 50  0000 C CNN
F 1 "10k" V 6984 5150 50  0000 C CNN
F 2 "Resistor_SMD:R_0603_1608Metric" V 7030 5150 50  0001 C CNN
F 3 "~" H 7100 5150 50  0001 C CNN
F 4 "Yageo" H 1700 850 50  0001 C CNN "Manufacturer"
F 5 "RC0603FR-0710K" H 1700 850 50  0001 C CNN "PN"
F 6 "1%" H 1700 850 50  0001 C CNN "Tolerance"
	1    7100 5150
	0    1    1    0   
$EndComp
Wire Wire Line
	4050 5150 4050 4450
$Comp
L Device:R R29
U 1 1 5CB042EB
P 5750 4450
F 0 "R29" V 5543 4450 50  0000 C CNN
F 1 "20k" V 5634 4450 50  0000 C CNN
F 2 "Resistor_SMD:R_0603_1608Metric" V 5680 4450 50  0001 C CNN
F 3 "~" H 5750 4450 50  0001 C CNN
F 4 "Ohmite" H 1700 850 50  0001 C CNN "Manufacturer"
F 5 "APC0603B20K0N" H 1700 850 50  0001 C CNN "PN"
F 6 "0.1%" H 1700 850 50  0001 C CNN "Tolerance"
	1    5750 4450
	0    1    1    0   
$EndComp
$Comp
L Capstone:AD5443 U23
U 2 1 5CAEF172
P 4750 5150
F 0 "U23" H 4750 4875 50  0000 C CNN
F 1 "AD5443" H 4750 4784 50  0000 C CNN
F 2 "Package_SO:MSOP-10_3x3mm_P0.5mm" H 4750 4800 50  0001 C CNN
F 3 "https://www.analog.com/media/en/technical-documentation/data-sheets/AD5426_5432_5443.pdf" H 5000 5500 50  0001 C CNN
F 4 "Analog Devices" H 1700 850 50  0001 C CNN "Manufacturer"
F 5 "AD5443YRMZ" H 1700 850 50  0001 C CNN "PN"
	2    4750 5150
	1    0    0    -1  
$EndComp
Wire Wire Line
	6850 5150 6750 5150
Wire Wire Line
	6850 4650 6850 5150
Wire Wire Line
	4750 4650 4750 4850
$Comp
L power:GNDA #PWR0101
U 1 1 5CA953C3
P 5950 5350
F 0 "#PWR0101" H 5950 5100 50  0001 C CNN
F 1 "GNDA" H 5950 5200 50  0000 C CNN
F 2 "" H 5950 5350 50  0001 C CNN
F 3 "" H 5950 5350 50  0001 C CNN
	1    5950 5350
	1    0    0    -1  
$EndComp
Wire Wire Line
	5950 5250 6150 5250
Connection ~ 5950 5250
Wire Wire Line
	5950 5250 5950 5350
Wire Wire Line
	2950 5550 2950 5650
Connection ~ 2950 5550
Wire Wire Line
	2950 5450 2950 5550
$Comp
L Capstone:MAX6034 U22
U 1 1 5CA7F9B0
P 3050 5150
F 0 "U22" H 2800 5200 50  0000 R CNN
F 1 "MAX6034B" H 2800 5100 50  0000 R CNN
F 2 "Package_TO_SOT_SMD:SOT-323_SC-70" H 3050 4425 50  0001 C CIN
F 3 "https://datasheets.maximintegrated.com/en/ds/MAX6034.pdf" H 3150 4800 50  0001 C CIN
F 4 "Maxim Integrated" H 1700 850 50  0001 C CNN "Manufacturer"
F 5 "MAX6034BEXR41+T" H 1700 850 50  0001 C CNN "PN"
F 6 "4.096V" H 2800 5000 50  0000 R CNN "Value2"
F 7 "0.4%" H 3050 5150 50  0001 C CNN "Tolerance"
	1    3050 5150
	1    0    0    -1  
$EndComp
Wire Wire Line
	3450 5250 3450 5150
Wire Wire Line
	3450 5550 3450 5450
$Comp
L power:GNDA #PWR0103
U 1 1 5CA69C86
P 2950 5650
F 0 "#PWR0103" H 2950 5400 50  0001 C CNN
F 1 "GNDA" H 2950 5500 50  0000 C CNN
F 2 "" H 2950 5650 50  0001 C CNN
F 3 "" H 2950 5650 50  0001 C CNN
	1    2950 5650
	1    0    0    -1  
$EndComp
Wire Wire Line
	2950 4750 2950 4850
$Comp
L power:+5VA #PWR0100
U 1 1 5CA6A1F3
P 2950 4750
F 0 "#PWR0100" H 2950 4600 50  0001 C CNN
F 1 "+5VA" H 2950 4900 50  0000 C CNN
F 2 "" H 2950 4750 50  0001 C CNN
F 3 "" H 2950 4750 50  0001 C CNN
	1    2950 4750
	1    0    0    -1  
$EndComp
Wire Wire Line
	4150 5150 4050 5150
Wire Wire Line
	1850 2000 1850 2100
Wire Wire Line
	2350 2000 1850 2000
Wire Wire Line
	3450 2000 2550 2000
Wire Wire Line
	3650 2000 4550 2000
Wire Wire Line
	4750 2000 4750 2050
Connection ~ 4750 2000
Wire Wire Line
	4550 2000 4550 2100
Connection ~ 4550 2000
Wire Wire Line
	4550 2000 4750 2000
Wire Wire Line
	4750 1950 4750 2000
Wire Wire Line
	4550 2300 4550 2400
Wire Wire Line
	4550 1900 4550 2000
Wire Wire Line
	4550 2400 4750 2400
Wire Wire Line
	4550 1600 4550 1700
Wire Wire Line
	4750 1600 4550 1600
Wire Wire Line
	2350 2000 2350 2100
Connection ~ 2350 2000
Wire Wire Line
	2350 1900 2350 2000
Wire Wire Line
	2350 2300 2350 2400
Wire Wire Line
	2350 2400 2550 2400
Wire Wire Line
	2350 1600 2350 1700
Wire Wire Line
	2550 1600 2350 1600
Wire Wire Line
	2550 2000 2550 2050
Connection ~ 2550 2000
Wire Wire Line
	2550 2000 2350 2000
Wire Wire Line
	3450 1700 3450 1600
Wire Wire Line
	3450 1600 3650 1600
Wire Wire Line
	3450 2000 3450 1900
Connection ~ 3450 2000
Wire Wire Line
	3450 2100 3450 2000
Wire Wire Line
	3450 2400 3450 2300
Wire Wire Line
	3650 2400 3450 2400
$Comp
L Device:C_Small C21
U 1 1 5D3539D7
P 4550 2200
F 0 "C21" H 4458 2154 50  0000 R CNN
F 1 "330n" H 4458 2245 50  0000 R CNN
F 2 "Capacitor_SMD:C_0603_1608Metric" H 4550 2200 50  0001 C CNN
F 3 "https://www.murata.com/~/media/webrenewal/support/library/catalog/products/capacitor/mlcc/c02e.ashx" H 4550 2200 50  0001 C CNN
F 4 "Yageo" H 1050 0   50  0001 C CNN "Manufacturer"
F 5 "CC0603KRX5R8BB334" H 1050 0   50  0001 C CNN "PN"
F 6 "10%" H 1050 0   50  0001 C CNN "Tolerance"
F 7 "X5R" H 4550 2200 50  0001 C CNN "Dielectric"
F 8 "25V" H 4550 2200 50  0001 C CNN "Value2"
	1    4550 2200
	1    0    0    1   
$EndComp
$Comp
L Device:C_Small C18
U 1 1 5D352F24
P 4550 1800
F 0 "C18" H 4458 1754 50  0000 R CNN
F 1 "330n" H 4458 1845 50  0000 R CNN
F 2 "Capacitor_SMD:C_0603_1608Metric" H 4550 1800 50  0001 C CNN
F 3 "https://www.murata.com/~/media/webrenewal/support/library/catalog/products/capacitor/mlcc/c02e.ashx" H 4550 1800 50  0001 C CNN
F 4 "Yageo" H 1050 0   50  0001 C CNN "Manufacturer"
F 5 "CC0603KRX5R8BB334" H 1050 0   50  0001 C CNN "PN"
F 6 "10%" H 1050 0   50  0001 C CNN "Tolerance"
F 7 "X5R" H 4550 1800 50  0001 C CNN "Dielectric"
F 8 "25V" H 4550 1800 50  0001 C CNN "Value2"
	1    4550 1800
	1    0    0    1   
$EndComp
$Comp
L Device:C_Small C20
U 1 1 5D35071C
P 3450 2200
F 0 "C20" H 3358 2154 50  0000 R CNN
F 1 "330n" H 3358 2245 50  0000 R CNN
F 2 "Capacitor_SMD:C_0603_1608Metric" H 3450 2200 50  0001 C CNN
F 3 "https://www.murata.com/~/media/webrenewal/support/library/catalog/products/capacitor/mlcc/c02e.ashx" H 3450 2200 50  0001 C CNN
F 4 "Yageo" H 1050 0   50  0001 C CNN "Manufacturer"
F 5 "CC0603KRX5R8BB334" H 1050 0   50  0001 C CNN "PN"
F 6 "10%" H 1050 0   50  0001 C CNN "Tolerance"
F 7 "X5R" H 3450 2200 50  0001 C CNN "Dielectric"
F 8 "25V" H 3450 2200 50  0001 C CNN "Value2"
	1    3450 2200
	1    0    0    1   
$EndComp
$Comp
L Device:C_Small C17
U 1 1 5D34FEF4
P 3450 1800
F 0 "C17" H 3358 1754 50  0000 R CNN
F 1 "330n" H 3358 1845 50  0000 R CNN
F 2 "Capacitor_SMD:C_0603_1608Metric" H 3450 1800 50  0001 C CNN
F 3 "https://www.murata.com/~/media/webrenewal/support/library/catalog/products/capacitor/mlcc/c02e.ashx" H 3450 1800 50  0001 C CNN
F 4 "Yageo" H 1050 0   50  0001 C CNN "Manufacturer"
F 5 "CC0603KRX5R8BB334" H 1050 0   50  0001 C CNN "PN"
F 6 "10%" H 1050 0   50  0001 C CNN "Tolerance"
F 7 "X5R" H 3450 1800 50  0001 C CNN "Dielectric"
F 8 "25V" H 3450 1800 50  0001 C CNN "Value2"
	1    3450 1800
	1    0    0    1   
$EndComp
$Comp
L Device:C_Small C16
U 1 1 5D34D488
P 2350 1800
F 0 "C16" H 2258 1754 50  0000 R CNN
F 1 "330n" H 2258 1845 50  0000 R CNN
F 2 "Capacitor_SMD:C_0603_1608Metric" H 2350 1800 50  0001 C CNN
F 3 "https://www.murata.com/~/media/webrenewal/support/library/catalog/products/capacitor/mlcc/c02e.ashx" H 2350 1800 50  0001 C CNN
F 4 "Yageo" H 1050 0   50  0001 C CNN "Manufacturer"
F 5 "CC0603KRX5R8BB334" H 1050 0   50  0001 C CNN "PN"
F 6 "10%" H 1050 0   50  0001 C CNN "Tolerance"
F 7 "X5R" H 2350 1800 50  0001 C CNN "Dielectric"
F 8 "25V" H 2350 1800 50  0001 C CNN "Value2"
	1    2350 1800
	1    0    0    1   
$EndComp
Wire Wire Line
	2550 1950 2550 2000
$Comp
L Device:C_Small C19
U 1 1 5D342DCD
P 2350 2200
F 0 "C19" H 2258 2154 50  0000 R CNN
F 1 "330n" H 2258 2245 50  0000 R CNN
F 2 "Capacitor_SMD:C_0603_1608Metric" H 2350 2200 50  0001 C CNN
F 3 "https://www.murata.com/~/media/webrenewal/support/library/catalog/products/capacitor/mlcc/c02e.ashx" H 2350 2200 50  0001 C CNN
F 4 "Yageo" H 1050 0   50  0001 C CNN "Manufacturer"
F 5 "CC0603KRX5R8BB334" H 1050 0   50  0001 C CNN "PN"
F 6 "10%" H 1050 0   50  0001 C CNN "Tolerance"
F 7 "X5R" H 2350 2200 50  0001 C CNN "Dielectric"
F 8 "25V" H 2350 2200 50  0001 C CNN "Value2"
	1    2350 2200
	1    0    0    1   
$EndComp
$Comp
L Reference_Voltage:LM4040DBZ-2.0 D9
U 1 1 5CA5C957
P 3650 1800
F 0 "D9" V 3700 1700 50  0000 R CNN
F 1 "ADR5041B" V 3600 1700 50  0000 R CNN
F 2 "Package_TO_SOT_SMD:SOT-323_SC-70" H 3650 1600 50  0001 C CIN
F 3 "https://www.analog.com/media/en/technical-documentation/data-sheets/adr5040_5041_5043_5044_5045.pdf" H 3650 1800 50  0001 C CIN
F 4 "Analog Devices" H 1150 0   50  0001 C CNN "Manufacturer"
F 5 "ADR5041BKSZ" H 1150 0   50  0001 C CNN "PN"
F 6 "0.1%" H 1150 0   50  0001 C CNN "Tolerance"
F 7 "2.5V" H 3650 1800 50  0001 C CNN "Value2"
	1    3650 1800
	0    -1   -1   0   
$EndComp
$Comp
L Reference_Voltage:LM4040DBZ-2.0 D12
U 1 1 5CA5C95D
P 3650 2200
F 0 "D12" V 3700 2100 50  0000 R CNN
F 1 "ADR5041B" V 3600 2100 50  0000 R CNN
F 2 "Package_TO_SOT_SMD:SOT-323_SC-70" H 3650 2000 50  0001 C CIN
F 3 "https://www.analog.com/media/en/technical-documentation/data-sheets/adr5040_5041_5043_5044_5045.pdf" H 3650 2200 50  0001 C CIN
F 4 "Analog Devices" H 1150 0   50  0001 C CNN "Manufacturer"
F 5 "ADR5041BKSZ" H 1150 0   50  0001 C CNN "PN"
F 6 "0.1%" H 1150 0   50  0001 C CNN "Tolerance"
F 7 "2.5V" H 3650 2200 50  0001 C CNN "Value2"
	1    3650 2200
	0    -1   -1   0   
$EndComp
Wire Wire Line
	3650 1550 3650 1600
Wire Wire Line
	3650 2350 3650 2400
Wire Wire Line
	3650 2750 3650 2800
Wire Wire Line
	3650 1250 3650 1200
$Comp
L power:+5VA #PWR090
U 1 1 5CA5C973
P 3650 1200
F 0 "#PWR090" H 3650 1050 50  0001 C CNN
F 1 "+5VA" H 3650 1350 50  0000 C CNN
F 2 "" H 3650 1200 50  0001 C CNN
F 3 "" H 3650 1200 50  0001 C CNN
	1    3650 1200
	1    0    0    -1  
$EndComp
$Comp
L power:-5VA #PWR096
U 1 1 5CA5C979
P 3650 2800
F 0 "#PWR096" H 3650 2900 50  0001 C CNN
F 1 "-5VA" H 3650 2950 50  0000 C CNN
F 2 "" H 3650 2800 50  0001 C CNN
F 3 "" H 3650 2800 50  0001 C CNN
	1    3650 2800
	-1   0    0    1   
$EndComp
Wire Wire Line
	3650 2000 3450 2000
Wire Wire Line
	3650 2400 4150 2400
Connection ~ 3650 2400
Wire Wire Line
	3650 2400 3650 2450
Wire Wire Line
	3650 1600 4150 1600
Connection ~ 3650 1600
Wire Wire Line
	3650 1600 3650 1650
Wire Wire Line
	3650 1950 3650 2000
Wire Wire Line
	3650 2000 3650 2050
Text Label 4150 1600 2    50   ~ 0
VRef+2.5
Text Label 4150 2400 2    50   ~ 0
VRef-2.5
$Comp
L Device:R R24
U 1 1 5CA58DAE
P 3650 1400
F 0 "R24" H 3720 1446 50  0000 L CNN
F 1 "1k" H 3720 1355 50  0000 L CNN
F 2 "Resistor_SMD:R_0603_1608Metric" V 3580 1400 50  0001 C CNN
F 3 "~" H 3650 1400 50  0001 C CNN
F 4 "Yageo" H 1050 0   50  0001 C CNN "Manufacturer"
F 5 "RC0603JR-071K" H 1050 0   50  0001 C CNN "PN"
F 6 "5%" H 1050 0   50  0001 C CNN "Tolerance"
	1    3650 1400
	1    0    0    -1  
$EndComp
$Comp
L Device:R R27
U 1 1 5CA59CE3
P 3650 2600
F 0 "R27" H 3720 2646 50  0000 L CNN
F 1 "1k" H 3720 2555 50  0000 L CNN
F 2 "Resistor_SMD:R_0603_1608Metric" V 3580 2600 50  0001 C CNN
F 3 "~" H 3650 2600 50  0001 C CNN
F 4 "Yageo" H 1050 0   50  0001 C CNN "Manufacturer"
F 5 "RC0603JR-071K" H 1050 0   50  0001 C CNN "PN"
F 6 "5%" H 1050 0   50  0001 C CNN "Tolerance"
	1    3650 2600
	1    0    0    -1  
$EndComp
Connection ~ 3650 2000
$Comp
L Reference_Voltage:LM4040DBZ-2.0 D10
U 1 1 5CA7BF1D
P 4750 1800
F 0 "D10" V 4800 1700 50  0000 R CNN
F 1 "ADR5044B" V 4700 1700 50  0000 R CNN
F 2 "Package_TO_SOT_SMD:SOT-323_SC-70" H 4750 1600 50  0001 C CIN
F 3 "https://www.analog.com/media/en/technical-documentation/data-sheets/adr5040_5041_5043_5044_5045.pdf" H 4750 1800 50  0001 C CIN
F 4 "Analog Devices" H 1250 0   50  0001 C CNN "Manufacturer"
F 5 "ADR5044BKSZ" H 1250 0   50  0001 C CNN "PN"
F 6 "0.1%" H 1250 0   50  0001 C CNN "Tolerance"
F 7 "4.096V" H 4750 1800 50  0001 C CNN "Value2"
	1    4750 1800
	0    -1   -1   0   
$EndComp
$Comp
L Reference_Voltage:LM4040DBZ-2.0 D13
U 1 1 5CA7BF23
P 4750 2200
F 0 "D13" V 4800 2100 50  0000 R CNN
F 1 "ADR5044B" V 4700 2100 50  0000 R CNN
F 2 "Package_TO_SOT_SMD:SOT-323_SC-70" H 4750 2000 50  0001 C CIN
F 3 "https://www.analog.com/media/en/technical-documentation/data-sheets/adr5040_5041_5043_5044_5045.pdf" H 4750 2200 50  0001 C CIN
F 4 "Analog Devices" H 1250 0   50  0001 C CNN "Manufacturer"
F 5 "ADR5044BKSZ" H 1250 0   50  0001 C CNN "PN"
F 6 "0.1%" H 1250 0   50  0001 C CNN "Tolerance"
F 7 "4.096V" H 4750 2200 50  0001 C CNN "Value2"
	1    4750 2200
	0    -1   -1   0   
$EndComp
Wire Wire Line
	4750 1550 4750 1600
Wire Wire Line
	4750 2350 4750 2400
Wire Wire Line
	4750 2750 4750 2800
Wire Wire Line
	4750 1250 4750 1200
$Comp
L power:+5VA #PWR091
U 1 1 5CA7BF39
P 4750 1200
F 0 "#PWR091" H 4750 1050 50  0001 C CNN
F 1 "+5VA" H 4750 1350 50  0000 C CNN
F 2 "" H 4750 1200 50  0001 C CNN
F 3 "" H 4750 1200 50  0001 C CNN
	1    4750 1200
	1    0    0    -1  
$EndComp
$Comp
L power:-5VA #PWR097
U 1 1 5CA7BF3F
P 4750 2800
F 0 "#PWR097" H 4750 2900 50  0001 C CNN
F 1 "-5VA" H 4750 2950 50  0000 C CNN
F 2 "" H 4750 2800 50  0001 C CNN
F 3 "" H 4750 2800 50  0001 C CNN
	1    4750 2800
	-1   0    0    1   
$EndComp
Wire Wire Line
	4750 2400 5250 2400
Connection ~ 4750 2400
Wire Wire Line
	4750 2400 4750 2450
Wire Wire Line
	4750 1600 5250 1600
Connection ~ 4750 1600
Wire Wire Line
	4750 1600 4750 1650
Text Label 5250 1600 2    50   ~ 0
VRef+4.096
Text Label 5250 2400 2    50   ~ 0
VRef-4.096
$Comp
L Device:R R25
U 1 1 5CA592B4
P 4750 1400
F 0 "R25" H 4820 1446 50  0000 L CNN
F 1 "1k" H 4820 1355 50  0000 L CNN
F 2 "Resistor_SMD:R_0603_1608Metric" V 4680 1400 50  0001 C CNN
F 3 "~" H 4750 1400 50  0001 C CNN
F 4 "Yageo" H 1050 0   50  0001 C CNN "Manufacturer"
F 5 "RC0603JR-071K" H 1050 0   50  0001 C CNN "PN"
F 6 "5%" H 1050 0   50  0001 C CNN "Tolerance"
	1    4750 1400
	1    0    0    -1  
$EndComp
$Comp
L Device:R R28
U 1 1 5CA5988F
P 4750 2600
F 0 "R28" H 4820 2646 50  0000 L CNN
F 1 "1k" H 4820 2555 50  0000 L CNN
F 2 "Resistor_SMD:R_0603_1608Metric" V 4680 2600 50  0001 C CNN
F 3 "~" H 4750 2600 50  0001 C CNN
F 4 "Yageo" H 1050 0   50  0001 C CNN "Manufacturer"
F 5 "RC0603JR-071K" H 1050 0   50  0001 C CNN "PN"
F 6 "5%" H 1050 0   50  0001 C CNN "Tolerance"
	1    4750 2600
	1    0    0    -1  
$EndComp
Wire Wire Line
	2550 1600 3050 1600
Text Label 3050 1600 2    50   ~ 0
VRef+2.048
Wire Wire Line
	2550 1550 2550 1600
Connection ~ 2550 1600
Wire Wire Line
	2550 1600 2550 1650
$Comp
L Device:R R26
U 1 1 5CA5A241
P 2550 2600
F 0 "R26" H 2620 2646 50  0000 L CNN
F 1 "1k" H 2620 2555 50  0000 L CNN
F 2 "Resistor_SMD:R_0603_1608Metric" V 2480 2600 50  0001 C CNN
F 3 "~" H 2550 2600 50  0001 C CNN
F 4 "Yageo" H 1050 0   50  0001 C CNN "Manufacturer"
F 5 "RC0603JR-071K" H 1050 0   50  0001 C CNN "PN"
F 6 "5%" H 1050 0   50  0001 C CNN "Tolerance"
	1    2550 2600
	1    0    0    -1  
$EndComp
Wire Wire Line
	2550 2400 2550 2450
Connection ~ 2550 2400
Wire Wire Line
	2550 2350 2550 2400
Text Label 3050 2400 2    50   ~ 0
VRef-2.048
Wire Wire Line
	2550 2400 3050 2400
$Comp
L power:GNDA #PWR093
U 1 1 5CA36002
P 1850 2100
F 0 "#PWR093" H 1850 1850 50  0001 C CNN
F 1 "GNDA" H 1850 1950 50  0000 C CNN
F 2 "" H 1850 2100 50  0001 C CNN
F 3 "" H 1850 2100 50  0001 C CNN
	1    1850 2100
	1    0    0    -1  
$EndComp
$Comp
L power:-5VA #PWR095
U 1 1 5CA3459C
P 2550 2800
F 0 "#PWR095" H 2550 2900 50  0001 C CNN
F 1 "-5VA" H 2550 2950 50  0000 C CNN
F 2 "" H 2550 2800 50  0001 C CNN
F 3 "" H 2550 2800 50  0001 C CNN
	1    2550 2800
	-1   0    0    1   
$EndComp
$Comp
L power:+5VA #PWR089
U 1 1 5CA33FA0
P 2550 1200
F 0 "#PWR089" H 2550 1050 50  0001 C CNN
F 1 "+5VA" H 2550 1350 50  0000 C CNN
F 2 "" H 2550 1200 50  0001 C CNN
F 3 "" H 2550 1200 50  0001 C CNN
	1    2550 1200
	1    0    0    -1  
$EndComp
Wire Wire Line
	2550 1250 2550 1200
Wire Wire Line
	2550 2750 2550 2800
$Comp
L Device:R R23
U 1 1 5CA2F676
P 2550 1400
F 0 "R23" H 2620 1446 50  0000 L CNN
F 1 "1k" H 2620 1355 50  0000 L CNN
F 2 "Resistor_SMD:R_0603_1608Metric" V 2480 1400 50  0001 C CNN
F 3 "~" H 2550 1400 50  0001 C CNN
F 4 "Yageo" H 1050 0   50  0001 C CNN "Manufacturer"
F 5 "RC0603JR-071K" H 1050 0   50  0001 C CNN "PN"
F 6 "5%" H 1050 0   50  0001 C CNN "Tolerance"
	1    2550 1400
	1    0    0    -1  
$EndComp
$Comp
L Reference_Voltage:LM4040DBZ-2.0 D11
U 1 1 5CA240EC
P 2550 2200
F 0 "D11" V 2600 2100 50  0000 R CNN
F 1 "ADR5040B" V 2500 2100 50  0000 R CNN
F 2 "Package_TO_SOT_SMD:SOT-323_SC-70" H 2550 2000 50  0001 C CIN
F 3 "https://www.analog.com/media/en/technical-documentation/data-sheets/adr5040_5041_5043_5044_5045.pdf" H 2550 2200 50  0001 C CIN
F 4 "Analog Devices" H 1050 0   50  0001 C CNN "Manufacturer"
F 5 "ADR5040BKSZ" H 1050 0   50  0001 C CNN "PN"
F 6 "0.1%" H 1050 0   50  0001 C CNN "Tolerance"
F 7 "2.048V" H 2550 2200 50  0001 C CNN "Value2"
	1    2550 2200
	0    -1   -1   0   
$EndComp
$Comp
L Reference_Voltage:LM4040DBZ-2.0 D8
U 1 1 5CA1F346
P 2550 1800
F 0 "D8" V 2600 1700 50  0000 R CNN
F 1 "ADR5040B" V 2500 1700 50  0000 R CNN
F 2 "Package_TO_SOT_SMD:SOT-323_SC-70" H 2550 1600 50  0001 C CIN
F 3 "https://www.analog.com/media/en/technical-documentation/data-sheets/adr5040_5041_5043_5044_5045.pdf" H 2550 1800 50  0001 C CIN
F 4 "Analog Devices" H 1050 0   50  0001 C CNN "Manufacturer"
F 5 "ADR5040BKSZ" H 1050 0   50  0001 C CNN "PN"
F 6 "0.1%" H 1050 0   50  0001 C CNN "Tolerance"
F 7 "2.048V" H 2550 1800 50  0001 C CNN "Value2"
	1    2550 1800
	0    -1   -1   0   
$EndComp
$EndSCHEMATC
